<?xml version="1.0" encoding="UTF-8" standalone="no"?>
<svg
   xmlns:dc="http://purl.org/dc/elements/1.1/"
   xmlns:cc="http://creativecommons.org/ns#"
   xmlns:rdf="http://www.w3.org/1999/02/22-rdf-syntax-ns#"
   xmlns:svg="http://www.w3.org/2000/svg"
   xmlns="http://www.w3.org/2000/svg"
   id="svg8"
   version="1.1"
   viewBox="0 0 109.43225 169.97601"
   height="169.97601mm"
   width="109.43225mm">
  <defs
     id="defs2" />
  <metadata
     id="metadata5">
    <rdf:RDF>
      <cc:Work
         rdf:about="">
        <dc:format>image/svg+xml</dc:format>
        <dc:type
           rdf:resource="http://purl.org/dc/dcmitype/StillImage" />
        <dc:title></dc:title>
      </cc:Work>
    </rdf:RDF>
  </metadata>
  <g
     transform="translate(-8.4666877,-25.370062)"
     id="layer1">
    <path
       id="path1933"
       d="m 36.436925,194.98619 c -0.87312,-0.19097 -1.91523,-0.65022 -2.31579,-1.02055 -0.40056,-0.37034 -0.86038,-0.67335 -1.02182,-0.67335 -0.16144,0 -1.15151,-0.56949 -2.20015,-1.26555 -1.16299,-0.77194 -2.1305,-1.17964 -2.48062,-1.04528 -0.49061,0.18826 -4.81277,-1.36258 -6.44551,-2.31273 -1.61982,-0.94263 -3.37402,-1.82304 -3.52778,-1.77055 -0.097,0.0331 -0.65263,-0.17141 -1.23472,-0.45452 -0.58208,-0.2831 -1.33614,-0.59924 -1.67569,-0.70253 -0.33955,-0.10329 -0.61736,-0.47491 -0.61736,-0.82581 0,-0.35091 -0.47987,-1.1634 -1.066379,-1.80554 -1.344564,-1.47211 -2.207003,-3.36794 -2.315567,-5.09013 -0.04639,-0.73585 -0.261872,-1.55183 -0.478856,-1.81328 -0.601983,-0.72534 -0.153085,-6.93872 0.726313,-10.05319 0.992234,-3.5141 1.204212,-8.7105 0.505569,-12.39345 -0.382356,-2.01561 -0.481136,-4.10848 -0.35006,-7.41681 0.260152,-6.56619 0.37516,-7.67337 0.85742,-8.25446 0.425222,-0.51236 0.592336,-2.69218 0.248985,-3.24773 -0.09858,-0.15951 0.127084,-0.91977 0.501475,-1.68948 0.374392,-0.76971 0.615584,-1.5692 0.535982,-1.77663 -0.0796,-0.20744 0.07573,-0.67867 0.345188,-1.04717 0.26946,-0.36851 0.49511,-1.15561 0.50144,-1.74912 0.006,-0.5935 0.31865,-1.95222 0.69404,-3.01938 0.37539,-1.06715 0.6883,-2.1784 0.69537,-2.46944 0.007,-0.29104 0.4879,-1.48167 1.06852,-2.64583 1.03405,-2.0733 1.37378,-4.17313 0.73867,-4.56565 -0.17581,-0.10866 -0.23553,-0.51925 -0.13271,-0.91242 0.10826,-0.41398 -0.27689,-1.65705 -0.91507,-2.95336 -0.6061,-1.23117 -1.10553,-2.45713 -1.10984,-2.72436 -0.004,-0.26724 -0.31829,-0.88276 -0.69772,-1.36783 -0.37942,-0.48506 -0.69339,-1.15661 -0.69771,-1.49232 -0.007,-0.57487 -1.48231,-4.66278 -2.164596,-5.99942 -0.17198,-0.33691 -0.31269,-1.468408 -0.31269,-2.514438 0,-1.25238 -0.179058,-2.05047 -0.524331,-2.337027 -0.622286,-0.516449 -0.505074,-4.730235 0.184606,-6.636604 0.231715,-0.640493 0.333707,-1.252129 0.226647,-1.35919 -0.10706,-0.107061 -0.03094,-0.614895 0.169159,-1.128518 0.200097,-0.513627 0.421828,-1.330741 0.492734,-1.815811 0.07091,-0.485069 0.297348,-1.834444 0.503203,-2.998611 0.205855,-1.164167 0.375855,-2.910417 0.377779,-3.880556 0.0019,-0.970139 0.17157,-2.285894 0.376993,-2.923903 0.205423,-0.63801 0.444626,-2.22551 0.531566,-3.527778 0.0869,-1.302269 0.21972,-3.161514 0.29506,-4.131653 0.16067,-2.068819 -0.66655,-6.842108 -1.51244,-8.727204 -0.407356,-0.907807 -0.820622,-1.32013 -1.325947,-1.322917 -0.444647,-0.0025 -0.927018,-0.386598 -1.223276,-0.974185 -0.269026,-0.533576 -0.8741553,-1.298716 -1.3447313,-1.70031 -0.713253,-0.608696 -0.855593,-1.052731 -0.855593,-2.669042 0,-1.066379 0.221116,-2.395296 0.491369,-2.953149 0.500185,-1.032477 3.2330303,-3.147942 5.7830383,-4.476583 1.37673,-0.717326 5.46654,-4.688519 7.73997,-7.5155 1.1656,-1.449403 2.15286,-3.754251 2.42964,-5.672236 0.3188,-2.209102 2.18204,-4.734709 3.49299,-4.734709 0.46723,0 1.43397,0.51997 2.14831,1.155489 1.20776,1.07449 1.29881,1.295597 1.29881,3.15418 0,1.09928 0.16362,2.099815 0.3636,2.22341 0.37303,0.230544 0.13306,2.375996 -0.37163,3.322557 -0.39081,0.732979 0.71113,2.844364 1.48448,2.844364 0.88872,0 2.05153,1.250437 2.05035,2.204861 -5.3e-4,0.436563 0.30921,1.428751 0.68833,2.204862 0.37912,0.776111 1.05026,2.339566 1.49141,3.474345 0.44116,1.134778 1.31062,2.602408 1.93212,3.261398 0.80495,0.853491 1.24743,1.782206 1.53817,3.228433 0.22448,1.116648 0.95027,3.187264 1.61288,4.60137 1.34994,2.880991 1.42773,3.249732 0.6856,3.249732 -0.43571,0 -3.36142,-5.392956 -3.36142,-6.196107 0,-0.132511 -0.7412,-1.451659 -1.6471,-2.931439 -0.90591,-1.479781 -1.62166,-3.052546 -1.59056,-3.495034 0.0479,-0.681352 -0.0442,-0.750603 -0.60156,-0.452324 -0.85127,0.455589 -1.59551,-0.343036 -2.11627,-2.27093 -0.61557,-2.278857 -2.29794,-5.801073 -2.77576,-5.811349 -0.65614,-0.01411 -0.54734,0.50458 0.57358,2.734604 0.55801,1.110127 1.12284,2.518844 1.25519,3.130483 0.13234,0.611639 0.54377,1.706681 0.91429,2.433428 0.66966,1.313494 0.63286,2.14288 -0.0756,1.704997 -0.20385,-0.125988 -1.06081,-1.716077 -1.90435,-3.533532 -0.84353,-1.817455 -1.71486,-3.304464 -1.93628,-3.304464 -0.60076,0 -0.0846,1.66502 0.92746,2.991931 0.47471,0.622386 0.86312,1.285247 0.86312,1.473023 0,0.187776 0.3175,0.99856 0.70556,1.801743 0.78505,1.62487 0.90177,2.552748 0.32113,2.552748 -0.5113,0 -1.70131,-1.449733 -1.73745,-2.116667 -0.0158,-0.291042 -0.32992,-1.084792 -0.69809,-1.763889 -0.36818,-0.679097 -0.85572,-1.631597 -1.08344,-2.116667 -0.24481,-0.521466 -0.48035,-0.703533 -0.57628,-0.445443 -0.0892,0.240076 0.2398,1.31468 0.73118,2.388008 0.49139,1.073328 1.08099,2.904831 1.31022,4.070007 0.38891,1.976798 1.02717,3.185838 1.02717,1.945749 0,-0.302493 0.18086,-0.549987 0.40192,-0.549987 0.27544,0 0.33559,0.560015 0.19114,1.779668 -0.12649,1.067958 -0.0441,2.161326 0.20608,2.734029 0.66028,1.511638 3.02145,4.175703 5.07531,5.726384 1.03767,0.783445 1.88666,1.576278 1.88666,1.761854 0,0.185575 0.67469,1.252629 1.49931,2.371231 0.82461,1.118602 1.69774,2.390373 1.94027,2.826159 0.24254,0.43579 0.63941,1.114686 0.88195,1.508661 0.3636,0.590646 0.34813,0.775378 -0.0882,1.052933 -0.8236,0.523903 -1.02947,0.421157 -1.24777,-0.622724 -0.30998,-1.482259 -1.6523,-4.202253 -1.82879,-3.70574 -0.3294,0.926691 2.46235,7.429638 3.45221,8.041408 0.18145,0.112141 0.3299,0.444535 0.3299,0.738657 0,0.294121 0.71438,1.639079 1.5875,2.988793 0.87313,1.349714 1.5875,2.584006 1.5875,2.742869 0,0.158866 0.44024,0.907979 0.9783,1.664694 0.53806,0.756716 1.50486,2.248973 2.14844,3.316126 0.72333,1.199377 1.97643,2.546466 3.28164,3.527778 1.16131,0.873125 3.01233,2.348981 4.11336,3.279683 3.23392,2.733623 3.2366,2.735143 3.2366,1.835593 0,-0.29104 -0.13229,-0.52916 -0.29398,-0.52916 -0.16169,0 -0.75701,-0.49308 -1.32292,-1.095715 -2.08703,-2.222461 -3.50947,-3.487074 -3.92415,-3.488715 -0.88771,-0.0035 -7.61352,-9.127409 -10.40344,-14.112798 -0.48862,-0.873125 -0.97743,-2.164567 -1.08625,-2.869869 -0.17529,-1.136131 -0.12067,-1.262186 0.47894,-1.105383 0.47872,0.125187 0.68319,0.500493 0.69863,1.282369 0.0138,0.69784 0.65443,2.080873 1.73762,3.751216 0.94368,1.455209 2.51104,3.915834 3.48303,5.468056 2.22421,3.551951 5.0537,6.436008 8.20638,8.364633 0.54261,0.33194 1.3318,1.28444 1.75374,2.116667 0.42195,0.832231 0.86734,1.592519 0.98975,1.689539 0.12241,0.097 0.71731,1.12888 1.322,2.29305 1.86785,3.596098 2.40158,4.536408 2.85856,5.036188 0.57385,0.62758 0.58968,2.6569 0.0192,2.46675 -0.23195,-0.0773 -0.53566,-0.56657 -0.67491,-1.08723 -0.41436,-1.54937 -2.78115,-5.533758 -3.28713,-5.533758 -0.25779,0 -0.66633,-0.23813 -0.90788,-0.52917 -0.72153,-0.86939 -1.05833,-0.60861 -1.05833,0.819458 0,1.092 0.40259,1.89824 2.11567,4.23691 1.16362,1.58855 2.62747,3.79514 3.253,4.90353 1.02825,1.82195 2.06985,2.97599 6.39982,7.09069 1.27107,1.20788 1.34671,1.23525 1.13831,0.41191 -0.61395,-2.42551 -0.88497,-4.43053 -1.09817,-8.12438 -0.19835,-3.43659 -0.38803,-4.37541 -1.25859,-6.22909 -0.56377,-1.20044 -1.02504,-2.430758 -1.02504,-2.734018 0,-0.8824 0.60185,-0.6373 1.02825,0.418738 0.21544,0.53358 0.71137,1.46816 1.10207,2.07687 0.39288,0.61209 0.78208,1.95227 0.87084,2.99861 0.46786,5.51561 0.65854,6.69548 1.47455,9.12383 0.48901,1.4552 1.09092,2.96714 1.3376,3.35986 0.24667,0.39272 0.81202,1.58335 1.25634,2.64583 0.79438,1.89959 1.94995,3.51931 2.51082,3.51931 0.15689,0 -0.0295,-0.56046 -0.41427,-1.24546 -1.43471,-2.55436 -0.65094,-2.62039 1.06436,-0.0897 0.67909,1.00193 1.48238,2.0694 1.78508,2.37216 1.64965,1.64995 4.39991,6.41871 3.95716,6.86145 -0.28816,0.28816 -1.15613,-0.47622 -1.15613,-1.01816 0,-0.5785 -2.84287,-4.41089 -3.272,-4.41089 -0.1822,0 -0.24383,0.22787 -0.13695,0.50637 0.10687,0.27851 0.0354,0.55934 -0.15874,0.62406 -0.23451,0.0782 -0.23075,0.64843 0.0112,1.69849 0.50637,2.19761 0.46809,4.03581 -0.12778,6.13591 -0.68328,2.40821 -1.60739,7.08101 -1.60739,8.12785 0,0.46467 -0.40468,1.32578 -0.89928,1.91358 -0.78725,0.9356 -0.93909,1.55857 -1.21887,5.00082 -0.17577,2.16264 -0.46871,4.43234 -0.65096,5.04375 -1.35093,4.53205 -1.95478,6.27046 -2.23914,6.4462 -0.35608,0.22007 -0.0471,-1.93344 0.48138,-3.35498 0.1723,-0.46347 0.23959,-0.91636 0.14954,-1.00641 -0.09,-0.0901 0.007,-0.58398 0.21691,-1.09761 0.20935,-0.51362 0.58514,-3.02216 0.83509,-5.57454 0.34176,-3.48993 0.65221,-5.0208 1.25194,-6.17361 0.43863,-0.84311 0.98939,-2.80293 1.22392,-4.35516 0.23453,-1.55222 0.63195,-4.12262 0.88316,-5.712 0.60183,-3.80786 0.0507,-6.88096 -1.71461,-9.56079 -1.42707,-2.16635 -1.23836,-2.2851 -3.55719,2.23844 -1.21247,2.36526 -1.67826,2.93869 -2.78333,3.42651 -0.72995,0.32222 -2.17866,1.38549 -3.21935,2.36282 -1.12194,1.05362 -2.21729,1.77697 -2.69084,1.77697 -1.05619,0 -1.45719,0.55718 -1.7717,2.46174 -0.26869,1.62706 -0.96579,3.03455 -1.87754,3.79087 -0.46534,0.38602 -1.82191,3.67771 -1.82191,4.42084 0,0.16147 0.26997,0.24694 0.59994,0.18993 0.45844,-0.0792 0.66411,0.26169 0.87204,1.44537 0.14965,0.85196 0.18781,1.6854 0.0848,1.85208 -0.35642,0.57669 -0.87021,0.29902 -1.23436,-0.66708 -0.20112,-0.53358 -0.59496,-1.4329 -0.87521,-1.99849 -0.44721,-0.90256 -0.44467,-1.10003 0.0208,-1.61439 0.2917,-0.32233 0.66182,-1.28833 0.82248,-2.14666 0.44871,-2.39723 3.19689,-7.66097 4.45451,-8.53196 0.59169,-0.40979 1.94893,-1.47884 3.01609,-2.37567 1.06715,-0.89682 2.67692,-2.0873 3.57727,-2.64549 1.35524,-0.84021 1.86709,-1.48682 2.97381,-3.75675 1.12732,-2.3122 1.27669,-2.87381 0.95318,-3.58385 -0.44705,-0.98117 -5.65618,-5.27861 -6.08055,-5.01634 -0.53334,0.32962 -0.72829,1.91878 -0.40946,3.33779 0.24142,1.07452 0.148,2.06151 -0.39221,4.14333 -0.80145,3.08857 -1.63805,4.57562 -3.95279,7.02604 -0.88448,0.93632 -1.60814,1.83125 -1.60814,1.98872 0,0.15748 -0.37716,0.42971 -0.83813,0.60497 -0.70034,0.26627 -0.88021,0.65551 -1.09414,2.36775 -0.15348,1.2284 -0.6833,2.81705 -1.32284,3.96649 -0.9822,1.76533 -1.01949,1.95199 -0.47016,2.35367 0.50918,0.37233 0.529,0.5446 0.13524,1.17511 -0.56748,0.90869 -1.20222,0.75004 -1.08844,-0.27205 0.0462,-0.41517 -0.0417,-0.75486 -0.19535,-0.75486 -0.46014,0 -2.53449,2.28951 -2.53449,2.79738 0,0.2589 -0.30175,0.96572 -0.67054,1.5707 -0.71368,1.17073 -0.78967,3.83782 -0.1282,4.4993 0.19648,0.19648 0.80219,0.40607 1.34601,0.46577 0.54383,0.0597 1.19715,0.39351 1.45183,0.7418 0.51585,0.70547 0.52174,0.70223 1.07566,-0.59151 0.40811,-0.9532 2.10722,-1.59253 2.70155,-1.01652 0.37445,0.36292 -2.51329,3.8803 -3.1857,3.8803 -0.84859,0 -1.00465,-0.16429 -0.90439,-0.95209 0.10663,-0.83789 -1.11755,-1.7993 -1.50102,-1.17883 -0.32072,0.51892 -1.80035,-0.28336 -2.32272,-1.25944 -0.24813,-0.46363 -0.6326,-0.84297 -0.85436,-0.84297 -0.45156,0 -1.94701,1.88575 -1.94701,2.45516 0,0.20188 -0.3175,0.36706 -0.70556,0.36706 -0.83863,0 -0.9113,-0.44841 -0.17209,-1.0619 0.47731,-0.39613 1.17676,-1.76906 3.11064,-6.10572 0.33032,-0.74074 1.54392,-2.22015 2.69688,-3.2876 2.35038,-2.17603 3.57067,-4.42351 4.6666,-8.59478 0.76598,-2.91541 1.12137,-3.52778 2.04734,-3.52778 0.34172,0 1.15572,-0.59693 1.80889,-1.32651 2.19729,-2.45434 3.30424,-5.66078 3.30424,-9.57119 0,-2.13988 -0.1148,-2.67757 -0.64024,-2.99861 -1.31711,-0.80475 -4.24793,-3.0877 -6.48205,-5.04914 -2.18593,-1.91914 -5.04854,-5.64988 -5.04854,-6.57959 0,-0.68427 -2.28843,-4.17192 -3.62157,-5.519398 -1.49815,-1.51428 -2.51944,-3.22689 -3.10301,-5.203477 -0.24346,-0.824618 -0.62415,-1.499306 -0.84599,-1.499306 -0.77015,0 -4.88854,-4.418609 -5.58973,-5.997222 -0.38782,-0.873125 -1.09186,-2.201747 -1.56451,-2.952489 -0.47266,-0.750747 -1.46233,-2.509838 -2.19926,-3.909096 -0.73694,-1.399254 -1.50355,-2.848762 -1.70359,-3.221119 -0.20004,-0.37236 -0.62562,-1.629519 -0.94572,-2.793686 -1.15462,-4.199167 -2.31794,-7.191393 -3.65298,-9.396004 -1.50783,-2.489941 -2.6967,-5.702787 -2.39814,-6.480817 0.10653,-0.277615 0.0419,-0.598579 -0.14368,-0.713257 -0.18556,-0.114681 -0.3542,0.07867 -0.37476,0.429673 -0.0206,0.351 -0.0993,1.462641 -0.17499,2.470309 -0.0757,1.007671 0.0205,1.929853 0.21377,2.049293 0.19326,0.11944 0.35138,0.722104 0.35138,1.339254 0,0.617149 0.31127,2.631842 0.69171,4.477096 1.2856,6.235591 2.22017,13.206886 2.49006,18.574351 0.39522,7.859833 2.09938,13.978245 5.09557,18.294545 1.45225,2.0921 2.08059,3.96192 2.48951,7.40833 0.11512,0.97014 0.50257,2.79577 0.86101,4.05695 0.35844,1.26118 0.91244,3.32493 1.23111,4.58611 0.31868,1.26118 1.35551,4.75368 2.30407,7.76111 3.18324,10.09248 3.86096,13.27235 4.24804,19.93195 0.2899,4.98769 0.67461,7.05555 1.31262,7.05555 0.22553,0 1.05246,0.66856 1.83762,1.48568 1.1194,1.16496 1.42757,1.75516 1.42757,2.73403 0,0.87446 0.15849,1.24835 0.52917,1.24835 0.61653,0 0.68611,0.4075 0.1595,0.93411 -0.2436,0.2436 -0.25568,0.65867 -0.0354,1.21708 0.18382,0.46608 0.5153,1.52211 0.7366,2.34673 0.22131,0.82461 0.53844,1.4993 0.70473,1.4993 0.61081,0 2.49156,1.94086 2.49156,2.5712 0,0.3576 0.17563,0.97836 0.39029,1.37946 0.21466,0.4011 0.4273,1.56466 0.47252,2.58569 0.0519,1.17086 0.37625,2.35475 0.87841,3.20586 1.01816,1.72564 2.07255,5.0683 2.37043,7.51475 0.20192,1.65832 0.15846,1.88264 -0.32854,1.69577 -0.37323,-0.14323 -0.56939,-0.0153 -0.58557,0.38192 -0.0134,0.32851 -0.11998,1.27199 -0.23688,2.0966 -0.14001,0.98759 -0.0795,1.49931 0.17728,1.49931 0.21441,0 0.40815,-0.19844 0.43053,-0.44097 0.0224,-0.24254 0.0776,-0.59973 0.12265,-0.79375 0.0451,-0.19403 0.10614,-0.61258 0.1357,-0.9301 0.0309,-0.3315 0.46681,-0.6523 1.02387,-0.75341 1.86829,-0.33912 3.41635,-1.15057 4.86444,-2.54983 3.12052,-3.0153 4.76832,-4.40972 5.21102,-4.40972 0.25367,0 0.75442,-0.21439 1.11277,-0.47643 0.58714,-0.42932 0.47541,-0.49979 -1.13009,-0.71277 -0.9799,-0.12999 -1.96484,-0.45709 -2.18876,-0.72688 -0.55828,-0.67269 0.11557,-1.04717 1.01659,-0.56496 1.71859,0.91976 7.51904,-1.5849 10.59395,-4.57451 0.49891,-0.48507 1.73506,-1.61849 2.74699,-2.51871 1.57874,-1.40446 1.7647,-1.69917 1.31019,-2.07638 -0.36284,-0.30113 -1.13911,-0.36799 -2.4643,-0.21224 -1.21599,0.14292 -1.93461,0.0952 -1.93461,-0.12848 0,-0.19573 0.55563,-0.35586 1.23473,-0.35586 0.67909,0 1.23472,-0.15875 1.23472,-0.35278 0,-0.19403 0.70012,-0.35278 1.55582,-0.35278 1.27154,0 1.86779,-0.24701 3.26319,-1.35187 0.93906,-0.74353 2.31484,-2.09476 3.0573,-3.00274 0.75725,-0.92607 1.51927,-1.54621 1.73564,-1.41248 0.23908,0.14775 0.30797,0.0358 0.18121,-0.29457 -0.11248,-0.29313 0.17233,-0.99386 0.63292,-1.55718 1.34749,-1.64803 1.0343,-2.09331 -0.6178,-0.87834 -0.81433,0.59887 -1.8859,1.0759 -2.38125,1.06007 -0.89429,-0.0286 -0.89318,-0.0321 0.15769,-0.49794 1.07897,-0.4783 6.17361,-5.4778 6.17361,-6.0583 0,-0.17564 0.3175,-0.31935 0.70556,-0.31935 0.38805,0 0.70555,0.0353 0.70555,0.0785 0,0.0432 -0.67468,1.08072 -1.4993,2.30565 -0.82462,1.22494 -1.50787,2.38591 -1.51833,2.57994 -0.0105,0.19403 -0.44548,1.2259 -0.9667,2.29306 -0.52121,1.06715 -0.94921,2.14507 -0.95111,2.39538 -0.005,0.59014 -2.79694,3.24906 -3.41226,3.24906 -0.25946,0 -0.47174,0.22912 -0.47174,0.50917 0,0.28003 -0.29231,0.7166 -0.64957,0.97013 -0.35727,0.25354 -0.82593,0.79356 -1.04148,1.20005 -0.4909,0.92573 -4.37868,4.67578 -7.74864,7.47411 -1.67659,1.39221 -2.78131,2.06846 -3.2001,1.95895 -0.41961,-0.10973 -1.22654,0.38719 -2.34629,1.44489 -0.93869,0.88668 -1.8799,1.61796 -2.09156,1.62505 -0.21167,0.007 -1.85947,1.42069 -3.66176,3.14131 -3.35651,3.2044 -4.97083,4.25412 -6.54223,4.25412 -1.14278,0 -1.6395,1.25662 -0.75297,1.90487 0.81315,0.59459 0.38166,1.91083 -0.76994,2.34867 -1.24927,0.47497 -1.77943,0.43655 -1.25213,-0.0908 0.63127,-0.63127 0.51271,-0.9451 -0.27884,-0.7381 -0.55232,0.14443 -0.65427,0.37447 -0.47771,1.07792 0.15681,0.6248 0.10264,0.81902 -0.17978,0.64448 -0.22232,-0.13741 -0.40422,-0.4736 -0.40422,-0.7471 0,-0.27629 -0.21494,-0.4148 -0.48365,-0.31169 -0.266,0.10208 -0.59189,-0.0965 -0.7242,-0.44129 -0.1323,-0.34478 -0.12771,-0.51404 0.0102,-0.37611 0.33252,0.33251 1.19763,-0.40504 1.19763,-1.02103 0,-0.64622 -0.86082,-0.61986 -1.41111,0.0432 -0.59651,0.71875 -1.07945,0.6683 -0.84423,-0.0882 0.17305,-0.55655 0.15167,-0.55444 -0.21699,0.0214 -0.49586,0.77457 -0.21881,1.65426 0.52099,1.65426 0.29713,0 0.54023,0.17727 0.54023,0.39392 0,0.21702 -0.30926,0.31305 -0.68864,0.21384 -0.37875,-0.099 -0.76309,0.001 -0.85409,0.22344 -0.091,0.22194 -0.20217,0.086 -0.24704,-0.30203 -0.0449,-0.38806 -0.11846,-0.86431 -0.16354,-1.05833 -0.0451,-0.19403 -0.10028,-0.63618 -0.12266,-0.98255 -0.035,-0.5418 -0.15145,-0.5705 -0.8335,-0.20548 -0.43605,0.23337 -0.61165,0.48469 -0.39023,0.55849 0.45458,0.15153 0.21235,1.51148 -0.26922,1.51148 -0.17141,1e-5 -0.31165,-0.29878 -0.31165,-0.66397 0,-0.60017 -0.11474,-0.62454 -1.19374,-0.2536 -0.65656,0.22572 -1.43969,0.61451 -1.74028,0.86398 -0.4553,0.37786 -0.66828,0.33186 -1.27571,-0.27557 -0.98065,-0.98065 -2.27256,-0.99618 -1.96388,-0.0236 0.17899,0.56395 0.0634,0.70556 -0.57595,0.70556 -0.59118,0 -0.69662,-0.10327 -0.40412,-0.39577 0.21767,-0.21767 0.31798,-0.59849 0.2229,-0.84626 -0.23722,-0.61817 0.39936,-0.9452 1.83988,-0.9452 0.66677,0 1.30061,-0.14287 1.40854,-0.3175 0.10792,-0.17462 0.51068,-0.3175 0.89501,-0.3175 0.80272,0 3.1789,-1.15195 4.72763,-2.29191 1.61133,-1.18604 1.94036,-1.32443 1.93944,-0.81571 -3.6e-4,0.25398 -0.8339,0.90169 -1.85209,1.43934 -4.16604,2.19989 -4.43116,3.30443 -0.29178,1.21562 1.99858,-1.00853 2.32364,-1.31886 2.76343,-2.63821 0.55608,-1.66825 1.14517,-1.97302 1.14517,-0.59247 0,0.512 0.15269,0.80839 0.35277,0.68473 0.19403,-0.11991 0.35278,-1.16644 0.35278,-2.3256 0,-1.57047 -0.23557,-2.57658 -0.92438,-3.94793 -0.50842,-1.0122 -0.95905,-1.88089 -1.00141,-1.93043 -0.2093,-0.24473 -3.00767,1.56076 -3.01019,1.94216 -0.004,0.61024 0.25503,0.55654 1.46225,-0.30307 0.5747,-0.40922 1.13258,-0.65637 1.23974,-0.54921 0.10715,0.10715 -0.53699,0.71065 -1.43142,1.34111 -1.565,1.10311 -2.11462,2.0688 -1.17747,2.0688 0.24684,0 1.06414,-0.50722 1.81623,-1.12716 0.75209,-0.61994 1.29224,-0.89775 1.20033,-0.61736 -0.22624,0.6902 -3.24074,2.96453 -5.40562,4.07835 -0.97014,0.49914 -2.31952,1.28461 -2.99861,1.7455 -2.13842,1.4513 -3.32845,2.28583 -4.05695,2.84503 -0.61175,0.46957 -0.62041,0.51459 -0.0651,0.33861 0.5265,-0.16686 0.59997,-0.0622 0.41298,0.58856 -0.1251,0.43534 -0.30758,1.0777 -0.40551,1.42747 -0.14125,0.50446 -0.28133,0.55023 -0.67757,0.22138 -0.27472,-0.228 -0.4995,-0.63323 -0.4995,-0.90051 0,-0.57484 -0.56549,-0.64522 -0.89539,-0.11144 -0.12731,0.206 -0.65262,0.55184 -1.16735,0.76854 -0.91203,0.38396 -0.91565,0.3975 -0.14212,0.53194 1.02743,0.17856 1.00234,0.51878 -0.0751,1.01834 -0.6439,0.29856 -0.89763,0.29856 -0.99821,0 -0.0935,-0.27743 -0.32315,-0.24484 -0.74828,0.10618 -0.53306,0.44013 -0.65542,0.44013 -0.93392,0 -0.2632,-0.41594 -0.32145,-0.39612 -0.32589,0.11088 -0.006,0.68683 -0.44036,0.71672 -2.82762,0.19459 z m 3.46775,-1.88681 c 0.56767,0.0718 1.29338,-0.15398 1.79177,-0.55755 1.13881,-0.92215 0.59836,-1.32521 -0.74396,-0.55482 -0.59584,0.34197 -1.18091,0.51569 -1.30015,0.38606 -0.11924,-0.12964 -0.0184,-0.30658 0.22417,-0.3932 0.24254,-0.0866 0.44098,-0.30435 0.44098,-0.48386 0,-0.32893 -0.1944,-0.25739 -2.34749,0.86396 -0.61202,0.31875 -1.36608,0.57954 -1.67569,0.57954 -0.30962,0 -0.56293,0.17574 -0.56293,0.39053 0,0.23625 0.24387,0.28732 0.61736,0.12928 0.9171,-0.38807 1.99559,-0.26047 2.18294,0.25827 0.11262,0.31182 0.2052,0.26706 0.29191,-0.14116 0.0899,-0.42304 0.4059,-0.5625 1.08109,-0.47705 z m -4.52608,-1.04181 c 0,-0.29104 0.15875,-0.52917 0.35278,-0.52917 0.19402,0 0.35277,-0.25135 0.35277,-0.55856 0,-0.30721 -0.19843,-0.48581 -0.44097,-0.39688 -0.24253,0.0889 -0.39981,0.3447 -0.34951,0.56839 0.0503,0.22367 -0.14813,0.49863 -0.44097,0.611 -0.68743,0.26379 -0.68966,0.83439 -0.003,0.83439 0.29104,0 0.52917,-0.23813 0.52917,-0.52917 z m 15.875,-0.17639 c 0,-0.19403 -0.2475,-0.35278 -0.54999,-0.35278 -0.30249,0 -0.45187,0.15875 -0.33196,0.35278 0.11992,0.19403 0.36741,0.35278 0.54999,0.35278 0.18258,0 0.33196,-0.15875 0.33196,-0.35278 z m -4.69931,-2.40774 c 1.71149,-1.13023 4.06431,-2.65945 5.22847,-3.39828 2.03773,-1.29322 2.62887,-1.82965 2.64044,-2.39606 0.0115,-0.56351 -0.76625,-0.17761 -4.63404,2.29929 -6.63466,4.24878 -7.49146,4.89395 -6.95265,5.23535 0.26378,0.16712 0.50802,0.30629 0.54278,0.30926 0.0348,0.003 1.46351,-0.91933 3.175,-2.04956 z m 0.75663,-2.53115 c 3.1258,-2.03729 5.68852,-3.9026 5.69492,-4.14514 0.0157,-0.5937 -0.51068,-0.55765 -1.03217,0.0707 -0.23356,0.28142 -1.27841,0.9935 -2.32188,1.5824 -2.48982,1.40517 -8.60789,5.76141 -8.6196,6.1374 -0.0138,0.44338 0.16205,0.34128 6.27873,-3.64537 z m -12.71145,2.40121 c 0.80619,-0.61962 1.41485,-1.17752 1.35257,-1.2398 -0.2168,-0.2168 -4.10122,1.71484 -4.10122,2.03945 0,0.67581 1.33378,0.28778 2.74865,-0.79965 z m 3.43947,0.39754 c 0.38429,-0.6218 -0.0208,-0.70897 -0.74582,-0.16049 -0.59685,0.45155 -0.60701,0.51567 -0.0833,0.52552 0.3281,0.006 0.70118,-0.15809 0.82908,-0.36503 z m 4.5716,-1.36123 c 0.38806,-0.32217 2.07636,-1.4988 3.75178,-2.61472 1.67543,-1.11592 3.32722,-2.33944 3.67065,-2.71893 0.59894,-0.66182 0.59699,-0.69046 -0.0476,-0.70172 -0.61926,-0.0108 -0.6097,-0.0637 0.12171,-0.6739 0.69009,-0.5757 1.07745,-1.43103 0.64808,-1.43103 -0.1197,0 -11.69335,7.93065 -12.17215,8.34077 -0.0808,0.0692 -0.0435,0.22934 0.0829,0.35577 0.12642,0.12642 1.06569,-0.34429 2.08726,-1.04604 4.85325,-3.33385 8.13427,-5.53383 8.25307,-5.53383 0.0719,0 0.13072,0.14452 0.13072,0.32115 0,0.17664 -0.99218,0.96235 -2.20486,1.74604 -4.94466,3.19546 -6.96736,4.74696 -6.96736,5.34429 0,0.44352 1.19493,-0.18327 2.64583,-1.38785 z m 16.95965,0.98934 c 0.10544,-0.1706 0.0872,-0.47928 -0.0405,-0.68595 -0.23524,-0.38063 -1.5733,0.55741 -1.5733,1.10296 0,0.34216 1.36217,-0.01 1.61382,-0.41701 z m -28.92057,-0.35708 c 0.66505,-0.74462 0.6641,-0.74997 -0.092,-0.51481 -0.43369,0.13488 -0.86845,0.0687 -1.00547,-0.15298 -0.29693,-0.48044 -0.0142,-0.79257 0.79956,-0.88281 1.7064,-0.18922 4.00361,-1.7813 3.70249,-2.56601 -0.1568,-0.40862 -0.0527,-0.48505 0.41586,-0.30525 0.41381,0.15879 1.06043,-0.10132 1.91333,-0.76966 1.96283,-1.53807 2.69576,-1.85606 3.17452,-1.3773 0.22375,0.22375 0.40682,0.28436 0.40682,0.13468 0,-0.51793 -1.00884,-1.29278 -1.22591,-0.94157 -0.1169,0.18916 -0.66667,0.25311 -1.2217,0.1421 -0.79,-0.158 -1.05571,-0.0551 -1.22363,0.47398 -0.11797,0.37169 -0.83981,0.95169 -1.60409,1.28889 -0.76428,0.3372 -1.88875,1.07936 -2.49882,1.64926 -0.61007,0.56989 -1.76394,1.21246 -2.56415,1.42794 -0.80021,0.21547 -1.82621,0.68382 -2.28001,1.04078 l -0.82509,0.64901 0.79207,0.42391 c 0.43564,0.23314 1.19822,0.54714 1.69462,0.69777 0.4964,0.15063 0.91763,0.28751 0.93606,0.30419 0.0184,0.0167 0.33594,-0.30828 0.70556,-0.72212 z m 1.96995,-0.39408 c 1.00643,-0.58459 2.15241,-1.69435 1.95426,-1.8925 -0.25559,-0.25559 -2.25496,1.00954 -2.68586,1.69952 -0.46712,0.74798 -0.29986,0.79211 0.7316,0.19298 z m 7.63954,-1.88695 c 2.14571,-1.39415 2.8806,-2.12245 2.8806,-2.85479 0,-0.49537 -0.92165,-0.64635 -1.11713,-0.18299 -0.0647,0.1533 -0.91134,0.82673 -1.88148,1.4965 -2.60512,1.79852 -3.6884,2.70904 -3.4759,2.92154 0.37618,0.37618 1.63423,-0.10698 3.59391,-1.38026 z m -15.11107,0.60329 c 0,-0.17243 0.5896,-0.42413 1.31022,-0.55932 0.72062,-0.13518 1.91856,-0.72761 2.6621,-1.31651 1.36749,-1.08307 1.58067,-1.66782 0.38356,-1.05213 -1.64507,0.8461 -3.93754,1.83037 -4.26313,1.83037 -0.50051,0 -1.19493,0.89689 -0.91284,1.17898 0.33397,0.33397 0.82009,0.28572 0.82009,-0.0814 z m 13.83876,-2.05923 c 1.34201,-0.91696 2.26446,-1.72572 2.04988,-1.79724 -0.21457,-0.0715 -0.62292,0.0631 -0.90744,0.29927 -0.41918,0.34788 -0.51731,0.3184 -0.51731,-0.15544 0,-0.50324 -0.10438,-0.52156 -0.74854,-0.13139 -3.45935,2.09527 -3.66277,2.28331 -3.14499,2.90719 0.24868,0.29964 0.5368,0.5448 0.64026,0.5448 0.10346,0 1.28613,-0.75024 2.62814,-1.66719 z m -14.04121,0.39204 c 0.90766,-0.5073 1.58382,-0.98885 1.50256,-1.07011 -0.0813,-0.0813 -0.89832,0.10709 -1.81571,0.41855 -0.91738,0.31146 -1.73612,0.49813 -1.81943,0.41483 -0.32528,-0.32528 0.85158,-0.88476 3.13594,-1.49082 1.81105,-0.48049 2.84597,-1.02562 4.28123,-2.25507 1.04104,-0.89177 2.41889,-2.029 3.06188,-2.52718 0.64299,-0.49819 1.01419,-1.00152 0.82489,-1.11851 -0.29628,-0.18311 -1.71225,0.84646 -4.98107,3.62178 -1.19292,1.01282 -2.65623,1.67271 -3.70113,1.66904 -0.5214,-0.002 -1.67006,0.29433 -2.55256,0.65813 -1.26908,0.52316 -1.56176,0.79687 -1.39986,1.3091 0.17598,0.55676 0.10427,0.59389 -0.51105,0.26458 -0.39366,-0.21068 -0.92462,-0.3767 -1.17991,-0.36893 -0.25529,0.008 -0.0209,0.25446 0.52084,0.54822 0.54175,0.29375 1.28246,0.43969 1.64601,0.3243 0.36355,-0.11538 0.7631,-0.0446 0.8879,0.15733 0.2969,0.4804 0.20126,0.50569 2.09947,-0.55524 z m 8.86439,-2.6054 c 0.21301,0 0.77216,-0.41146 1.24254,-0.91434 0.47038,-0.50289 1.12156,-1.05794 1.44705,-1.23346 0.70387,-0.37955 1.78991,-0.0449 1.48026,0.45607 -0.13159,0.21293 0.0591,0.20327 0.48481,-0.0246 0.38596,-0.20655 0.791,-0.2863 0.90009,-0.17721 0.24059,0.24059 2.4354,-0.94294 2.80301,-1.51149 0.14451,-0.22351 0.93826,-0.80415 1.76389,-1.2903 1.53803,-0.90565 3.05126,-2.90189 2.3715,-3.12848 -0.20276,-0.0676 0.70543,-0.94469 2.01821,-1.94911 1.31278,-1.00442 2.46505,-1.74803 2.56061,-1.65248 0.0956,0.0956 -0.33735,0.57374 -0.96203,1.06262 -1.05723,0.82741 -1.52654,1.89607 -0.83266,1.89607 0.41529,0 3.57745,-2.81007 3.57745,-3.17912 0,-0.16331 -0.26622,-0.34825 -0.59159,-0.41099 -0.43564,-0.084 -0.25028,-0.34655 0.70314,-0.996 0.71211,-0.48507 1.29582,-1.01985 1.29715,-1.1884 10e-4,-0.16855 -0.51353,0.0815 -1.14412,0.55561 -0.63059,0.47414 -2.64025,1.95299 -4.46591,3.28634 -1.82566,1.33334 -3.13436,2.48594 -2.90822,2.56132 0.22614,0.0754 0.31657,0.29012 0.20094,0.4772 -0.11562,0.18709 -0.49925,0.007 -0.8525,-0.40041 -0.39597,-0.45656 -0.73004,-0.59855 -0.87113,-0.37028 -0.12587,0.20366 -0.021,0.37557 0.23295,0.38202 0.26159,0.007 0.10073,0.31253 -0.37104,0.70556 -1.0173,0.84749 -1.72834,0.91587 -1.06245,0.10218 0.41885,-0.51182 0.41162,-0.54752 -0.0536,-0.26458 -1.8626,1.13268 -5.77427,3.89069 -7.57608,5.34169 -1.16416,0.93751 -2.6326,2.06886 -3.26319,2.51412 -0.63059,0.44526 -1.14653,0.96906 -1.14653,1.164 0,0.19494 0.5918,-0.13337 1.3151,-0.72958 0.72331,-0.59621 1.48938,-1.08401 1.7024,-1.08401 z m 4.58818,-2.50335 c 0.1914,-0.30968 0.0931,-0.37043 -0.33418,-0.20648 -0.99795,0.38295 -0.32687,-0.33034 1.91453,-2.03494 2.35624,-1.79193 3.30152,-2.14881 1.41063,-0.53256 -1.80566,1.5434 -0.90209,1.26709 1.30453,-0.39893 1.05112,-0.7936 1.9888,-1.36524 2.08374,-1.27031 0.0949,0.0949 -0.0363,0.33744 -0.29158,0.53891 -0.2553,0.20146 -1.2178,1.03103 -2.13888,1.84349 -1.36833,1.20696 -1.76887,1.39905 -2.18941,1.05003 -0.28309,-0.23494 -0.69736,-0.31428 -0.9206,-0.1763 -0.28185,0.17419 -0.29088,0.32194 -0.0295,0.48346 0.2317,0.1432 0.0964,0.40746 -0.35203,0.6875 -0.558,0.34848 -0.66496,0.35225 -0.45722,0.0161 z m -17.06545,3.19375 c 1.44618,-0.65149 4.99192,-2.96154 6.10839,-3.97961 0.38805,-0.35385 2.4518,-1.97031 4.58611,-3.59212 8.86137,-6.73355 10.17986,-7.7915 10.54906,-8.46451 0.21288,-0.38805 0.5412,-0.81598 0.72961,-0.95096 0.18841,-0.13497 0.23242,-0.35554 0.0978,-0.49016 -0.13462,-0.13462 -0.8433,0.21393 -1.57483,0.77457 -0.73154,0.56063 -1.90733,1.4162 -2.61287,1.90127 -0.70553,0.48507 -1.73851,1.24205 -2.2955,1.68218 -0.55699,0.44013 -1.99987,1.50986 -3.2064,2.37717 -1.20653,0.86732 -2.42752,2.01534 -2.71331,2.55116 -0.28578,0.53582 -1.04357,1.37109 -1.68397,1.85616 -0.64039,0.48507 -1.56253,1.27642 -2.04919,1.75855 -0.48667,0.48214 -1.59922,1.23549 -2.47234,1.67413 -0.87313,0.43864 -2.28262,1.2111 -3.13221,1.71659 -1.12787,0.67104 -1.61555,0.80443 -1.80722,0.4943 -0.20367,-0.32953 -0.44874,-0.32508 -1.09326,0.0199 -0.7981,0.42713 -0.80333,0.4553 -0.13306,0.71718 0.99575,0.38903 1.76705,0.37598 2.7032,-0.0458 z m 26.45868,-2.30451 c 2.52162,-1.68947 3.47326,-2.52807 3.5029,-3.0868 0.0689,-1.2995 0.11558,-1.44304 0.79404,-2.44347 0.36351,-0.53602 0.57508,-1.28916 0.47242,-1.68173 -0.13491,-0.51591 0.14092,-0.96026 1.00538,-1.61961 0.96756,-0.738 1.18284,-1.13362 1.14627,-2.10652 -0.035,-0.93011 -0.14589,-1.11416 -0.49623,-0.82341 -0.24815,0.20595 -0.37758,0.56627 -0.28761,0.80072 0.09,0.23445 -0.39218,0.96491 -1.07142,1.62326 -0.89716,0.86957 -1.13604,1.31622 -0.87328,1.63282 0.25881,0.31185 0.16991,0.57032 -0.31249,0.90859 -0.37081,0.26002 -1.74493,1.46494 -3.05359,2.67762 -2.35001,2.17763 -2.60638,2.99564 -0.42745,1.36386 0.61764,-0.46255 1.51986,-0.95481 2.00493,-1.09392 0.52093,-0.14939 -0.005,0.38084 -1.28547,1.29529 -3.66379,2.61708 -5.89634,4.87296 -4.82257,4.87296 0.13307,0 1.79995,-1.04384 3.70417,-2.31966 z m -30.76264,1.34952 c -0.011,-0.53745 -0.54546,-1.03751 -1.31751,-1.23264 -0.82037,-0.20734 -0.97143,-0.0197 -0.52377,0.65058 0.41468,0.6209 1.85135,1.07506 1.84128,0.58206 z m 18.32701,-2.90707 c 1.80181,-1.74442 3.4121,-3.08756 3.57843,-2.98477 0.16632,0.1028 0.81321,-0.30125 1.43753,-0.89789 0.62432,-0.59663 1.35064,-1.00208 1.61405,-0.901 0.5167,0.19828 2.80272,-1.11001 3.58356,-2.05087 0.26345,-0.31743 0.65799,-0.57882 0.87677,-0.58086 0.21878,-0.002 1.34288,-0.71322 2.49801,-1.5804 1.15717,-0.86871 2.1964,-1.42108 2.31441,-1.23014 0.1178,0.1906 0.66925,-0.12844 1.22544,-0.70898 0.55619,-0.58053 0.92527,-1.14151 0.82018,-1.2466 -0.1051,-0.10509 -0.45437,0.21075 -0.77616,0.70188 -0.32181,0.49112 -0.75962,0.89295 -0.97293,0.89295 -0.25913,0 -0.24209,-0.17562 0.0513,-0.52917 0.94208,-1.13514 -0.26981,-0.39712 -4.66905,2.84336 -2.51817,1.85489 -4.64814,3.30289 -4.73325,3.21777 -0.16959,-0.16958 1.73025,-1.69155 6.38457,-5.11468 1.66654,-1.2257 2.94287,-2.36967 2.83627,-2.54214 -0.10659,-0.17247 0.20813,-0.57694 0.69938,-0.89883 1.00712,-0.65988 1.13528,-1.13889 0.38205,-1.42793 -0.57335,-0.22001 -3.15699,1.41129 -6.44812,4.07131 -1.20822,0.97652 -2.39884,1.69911 -2.64583,1.60576 -0.247,-0.0934 -1.16346,0.4779 -2.03658,1.26947 -0.87313,0.79156 -1.30969,1.35276 -0.97014,1.2471 0.33955,-0.10565 0.61736,-0.0371 0.61736,0.15233 0,0.4436 3.63187,-2.02755 7.19439,-4.89512 1.53157,-1.2328 2.69143,-1.99845 2.57746,-1.70146 -0.11397,0.29699 -0.0181,0.60301 0.213,0.68005 0.24003,0.08 0.0794,0.32245 -0.37451,0.5654 -0.43711,0.23393 -2.64895,1.83175 -4.91522,3.5507 -2.26626,1.71895 -4.28945,3.06083 -4.49599,2.98195 -0.20653,-0.0789 -1.80427,0.9681 -3.55052,2.32663 -1.74625,1.35853 -4.1275,3.1308 -5.29166,3.93839 -1.16417,0.80759 -2.17225,1.51258 -2.24019,1.56664 -0.3393,0.27003 0.4394,0.85081 1.14075,0.85081 0.52822,0 1.90994,-1.07537 4.07521,-3.17166 z m 5.83352,-7.39525 c 0.11433,-0.185 0.71901,-0.68196 1.34374,-1.10436 l 1.13586,-0.76801 -1.1274,1.10436 c -1.08992,1.06765 -1.77942,1.45926 -1.3522,0.76801 z m -22.19721,9.55119 c 0.18433,-0.17059 0.93045,-0.5004 1.65806,-0.73292 0.7276,-0.23251 1.32291,-0.58863 1.32291,-0.79136 0,-0.24495 -0.14794,-0.25209 -0.44097,-0.0213 -0.24254,0.19103 -0.83785,0.4417 -1.32292,0.55704 -0.9656,0.22961 -2.51841,1.26942 -1.92264,1.28747 0.20373,0.006 0.52123,-0.12835 0.70556,-0.29894 z m 9.13694,-0.43504 c 0.59514,-0.55605 -0.65018,-0.32035 -1.39347,0.26374 -0.68538,0.53859 -0.68034,0.54721 0.17639,0.30191 0.48507,-0.13889 1.03276,-0.39344 1.21708,-0.56565 z m 15.70604,0.4062 c 0.86057,-0.54424 0.26061,-0.65164 -0.87173,-0.15604 -0.80238,0.35119 -0.8877,0.46576 -0.35278,0.47373 0.38806,0.006 0.93909,-0.13718 1.22451,-0.31769 z m 9.27063,-0.50486 c 0.33955,-0.25776 0.61736,-0.73977 0.61736,-1.07114 0,-0.53456 -0.11933,-0.51752 -1.05833,0.15111 -1.09912,0.78265 -1.37989,1.41929 -0.61736,1.39989 0.24253,-0.006 0.71878,-0.22211 1.05833,-0.47986 z m -23.68875,-1.31503 c 0.65954,-0.21724 1.67542,-0.8509 2.2575,-1.40812 0.58208,-0.55721 2.09021,-1.84498 3.35139,-2.86169 1.26118,-1.01672 2.37243,-1.93927 2.46944,-2.05011 0.097,-0.11085 0.77171,-0.64856 1.49931,-1.1949 1.27459,-0.95708 1.68014,-1.61518 0.99534,-1.61518 -0.18017,0 -0.53736,0.19929 -0.79375,0.44286 -0.2564,0.24357 -2.96649,2.32691 -6.02242,4.62964 -3.05594,2.30273 -5.55625,4.24656 -5.55625,4.31964 0,0.22835 0.55647,0.14729 1.79944,-0.26214 z m -5.85639,-0.31055 c 0.11992,-0.19403 0.0593,-0.35278 -0.13475,-0.35278 -0.19403,0 -0.45089,0.15875 -0.5708,0.35278 -0.11992,0.19402 -0.0593,0.35277 0.13475,0.35277 0.19402,0 0.45089,-0.15875 0.5708,-0.35277 z m 21.89404,-0.62495 c -0.11825,-0.11825 -0.48903,0.0719 -0.82397,0.42257 -0.58216,0.60951 -0.5727,0.61897 0.21501,0.215 0.45318,-0.23241 0.72721,-0.51932 0.60896,-0.63757 z m 7.56291,0.0286 c 0,-0.69441 -0.85095,-0.387 -0.99577,0.35972 -0.0794,0.40926 0.0541,0.52246 0.44097,0.37399 0.30514,-0.11709 0.5548,-0.44726 0.5548,-0.73371 z m 3.68175,-0.15465 c 0.66542,-0.52342 0.84269,-0.86293 0.58508,-1.12055 -0.25762,-0.25762 -0.5676,-0.19042 -1.02308,0.22179 -0.35941,0.32526 -0.83941,0.59138 -1.06667,0.59138 -0.45228,0 -0.54987,0.45129 -0.17801,0.82315 0.37388,0.37388 0.66519,0.28459 1.68268,-0.51577 z m -35.97437,-2.24762 c 1.91288,-1.26118 3.55635,-2.29305 3.65215,-2.29305 0.0958,0 0.71771,-0.635 1.38203,-1.41111 0.66432,-0.77611 1.43361,-1.41111 1.70954,-1.41111 0.27592,0 0.50167,-0.13183 0.50167,-0.29295 0,-0.16111 0.79391,-1.1533 1.76423,-2.20486 0.97032,-1.05155 1.84231,-2.15004 1.93775,-2.44108 0.0954,-0.29104 0.92872,-0.99135 1.85174,-1.55624 0.92303,-0.56489 2.31323,-1.61266 3.08934,-2.32838 1.59823,-1.47387 4.53479,-3.17094 5.48688,-3.17094 0.34954,0 0.92486,-0.36563 1.27849,-0.8125 0.35363,-0.44688 0.92438,-0.91953 1.26832,-1.05034 0.34396,-0.1308 0.73099,-0.51923 0.86009,-0.86319 0.12909,-0.34394 0.45194,-0.78852 0.71744,-0.98795 0.56778,-0.42648 1.26409,-3.22192 0.93512,-3.75421 -0.1249,-0.20208 -0.34821,-1.8191 -0.49625,-3.59337 -0.54226,-6.49909 -2.37322,-15.65792 -4.06532,-20.33566 -0.73272,-2.02557 -2.63338,-9.37809 -2.63338,-10.18697 0,-0.33786 -0.23453,-0.92245 -0.52117,-1.29908 -0.47288,-0.62132 -0.50757,-0.47227 -0.37433,1.60827 0.0938,1.46448 0.77444,4.20515 1.88369,7.58472 1.65269,5.03531 2.88951,9.10742 3.5895,11.81806 0.40734,1.5774 0.98483,6.33304 1.26373,10.40694 0.11955,1.74625 0.36138,3.73063 0.53739,4.40972 0.43911,1.69415 0.40568,2.11667 -0.16746,2.11667 -0.56556,0 -0.91968,-0.75019 -0.91968,-1.94831 0,-0.45775 -0.15875,-0.93038 -0.35278,-1.0503 -0.19403,-0.11992 -0.35278,-0.67554 -0.35278,-1.23472 0,-0.55918 -0.14706,-1.10758 -0.32679,-1.21866 -0.18452,-0.11404 -0.20547,-0.62497 -0.0481,-1.17365 0.38878,-1.3556 -0.25499,-8.83715 -0.87636,-10.18462 -0.28195,-0.61141 -0.51768,-1.40516 -0.52385,-1.76389 -0.006,-0.35873 -0.23281,-0.94469 -0.50365,-1.30214 -0.27084,-0.35744 -0.59613,-1.30994 -0.72288,-2.11666 -0.23482,-1.49468 -1.52439,-6.25718 -2.64197,-9.75705 -1.48493,-4.65026 -1.59575,-5.52089 -0.9362,-7.35506 0.5108,-1.42047 0.54717,-1.98673 0.2206,-3.43472 -0.21508,-0.95361 -0.40454,-2.1712 -0.42104,-2.70575 -0.029,-0.94046 -0.0462,-0.94883 -0.52957,-0.25868 -0.75639,1.0799 -1.14369,0.52152 -0.92728,-1.33687 0.16193,-1.39059 0.064,-1.8116 -0.59254,-2.54781 -0.84876,-0.95173 -2.81129,-4.83254 -2.81175,-5.560098 -1.5e-4,-0.24464 -0.3006,-1.11777 -0.66766,-1.94027 -1.0729,-2.404131 -1.15509,-2.762543 -1.31375,-5.728797 -0.32933,-6.157426 -0.46503,-7.88445 -0.8593,-10.936112 -0.2256,-1.74625 -0.55193,-3.325813 -0.72516,-3.510139 -0.17323,-0.184326 -0.31496,-0.88071 -0.31496,-1.547516 0,-1.959057 -0.73991,-7.590103 -1.08348,-8.245762 -0.17391,-0.331875 -0.23041,-0.826949 -0.12557,-1.100165 0.11302,-0.294534 -0.0807,-0.567701 -0.47591,-0.671051 -0.48869,-0.127793 -0.67957,-0.521296 -0.71542,-1.474833 -0.0269,-0.715296 -0.12524,-1.424072 -0.21855,-1.575065 -0.15384,-0.248906 0.14227,-2.203069 1.26279,-8.333804 0.21278,-1.164166 0.44195,-2.993679 0.50926,-4.065582 l 0.1224,-1.948915 -2.54818,0.223053 c -3.3142,0.290107 -4.24808,0.744318 -6.69746,3.257435 -1.64739,1.690266 -2.19897,2.053709 -2.91041,1.917708 -0.48279,-0.09229 -0.87781,-0.02969 -0.87781,0.139109 0,0.606127 1.89398,2.41747 2.52776,2.41747 0.71102,0 0.88695,0.566858 0.24259,0.781643 -0.27944,0.09315 -0.16501,0.775388 0.36984,2.204896 1.37862,3.684694 1.48347,6.201351 0.54124,12.991547 -0.4633,3.338788 -0.83362,6.467401 -0.82293,6.952471 l 0.0194,0.881944 0.35432,-0.970139 c 0.34923,-0.956183 1.35387,-1.365863 1.35387,-0.552093 0,0.229923 -0.58196,1.53961 -1.29323,2.910417 -1.3247,2.553014 -1.53776,3.949086 -1.59176,10.429872 -0.0266,3.186003 1.43212,7.932696 3.80652,12.386916 0.79778,1.49658 1.8514,5.12993 2.28463,7.87838 0.18182,1.15349 0.56856,2.46044 0.85942,2.90434 0.81849,1.24918 1.5286,5.11758 1.12612,6.1347 -0.18677,0.47199 -0.46825,1.41379 -0.62552,2.09289 -0.15727,0.67909 -0.46794,1.86972 -0.69038,2.64583 -0.22245,0.77611 -0.7173,2.99861 -1.09967,4.93889 -1.16777,5.92562 -1.1301,19.58736 0.0705,25.57639 1.18916,5.93182 2.16293,9.39965 3.19873,11.39143 0.34793,0.66905 0.13754,1.30857 -0.43049,1.30857 -0.18738,0 -0.50373,-0.43656 -0.70301,-0.97014 -0.19927,-0.53358 -0.66264,-1.60514 -1.02971,-2.38125 -0.61041,-1.2906 -2.98285,-14.5805 -3.21178,-17.99167 -0.18616,-2.77386 -0.12692,-6.4133 0.1694,-10.40694 0.16555,-2.23132 0.20893,-3.9702 0.0964,-3.86417 -0.11254,0.10603 -0.46625,2.16978 -0.78602,4.58611 -0.45724,3.45513 -0.52332,5.56105 -0.30945,9.86139 0.48247,9.70076 0.47726,9.85278 -0.44553,12.98839 -0.47494,1.61382 -0.77626,3.16163 -0.6696,3.43958 0.10666,0.27795 0.0578,0.50537 -0.10852,0.50537 -0.16634,0 -0.4127,0.59531 -0.54746,1.32291 -0.13476,0.72761 -0.54721,2.22452 -0.91656,3.32647 -0.80297,2.39568 -0.94761,9.10895 -0.19625,9.10895 0.23854,0 1.9988,-1.03188 3.91169,-2.29306 z m -3.33794,-2.01351 c 0,-0.23432 0.64924,-2.179 1.44274,-4.32153 2.22646,-6.01158 2.59391,-6.89138 2.87879,-6.8928 0.41725,-0.002 0.30984,1.27367 -0.22948,2.72556 -0.27173,0.73154 -0.68539,2.12381 -0.91923,3.09395 -0.23384,0.97014 -0.71756,2.39889 -1.07494,3.175 -0.35738,0.77611 -0.73249,1.68892 -0.83359,2.02847 -0.20629,0.69286 -1.26429,0.85298 -1.26429,0.19135 z m 22.57778,-23.2101 c 0,-0.19403 0.16812,-0.35278 0.3736,-0.35278 0.20548,0 0.27548,0.15875 0.15557,0.35278 -0.11992,0.19403 -0.28804,0.35278 -0.3736,0.35278 -0.0856,0 -0.15557,-0.15875 -0.15557,-0.35278 z m -16.34815,-1.67324 c -0.10176,-0.16466 -0.19546,-2.35585 -0.20823,-4.86932 -0.0234,-4.61163 1.04324,-12.51289 1.81885,-13.47309 0.19392,-0.24006 0.2539,-0.69362 0.13329,-1.00791 -0.1206,-0.31429 -0.0395,-1.22913 0.18014,-2.03297 0.21969,-0.80384 0.4451,-2.04064 0.50092,-2.74844 0.0558,-0.7078 0.27449,-1.61018 0.48594,-2.00528 0.21211,-0.39633 0.38446,-2.4985 0.38446,-4.6893 0,-3.35545 -0.14744,-4.42368 -0.95124,-6.89186 -0.52318,-1.60651 -0.83307,-3.0391 -0.68863,-3.18353 1.48192,-1.48193 3.41249,7.6184 2.55837,12.05966 -0.19269,1.00195 -0.16618,1.26064 0.0914,0.89216 0.65257,-0.9334 0.88193,-0.0445 0.42988,1.666 -0.24349,0.92135 -0.88506,4.1358 -1.42573,7.14323 -0.54066,3.00743 -1.25966,6.49993 -1.59777,7.76111 -0.95154,3.54931 -0.95469,3.57855 -0.64678,6.00423 0.3392,2.67218 0.11153,5.34908 -0.47123,5.54047 -0.22476,0.0738 -0.49191,-3.5e-4 -0.59367,-0.16516 z m 8.77247,-34.29546 c -0.12822,-0.20747 -0.19189,-1.80676 -0.14149,-3.55399 0.0711,-2.46616 0.22647,-3.29879 0.69438,-3.72225 0.85244,-0.77144 1.1707,-0.0679 0.66393,1.4676 -0.22648,0.68627 -0.32667,1.91348 -0.22263,2.72713 0.10404,0.81366 0.23837,1.8713 0.29852,2.35031 0.11506,0.91638 -0.84325,1.45844 -1.29271,0.7312 z m -9.50279,-28.32505 c -0.0676,-0.242535 -0.40988,-1.344493 -0.76052,-2.448793 -0.50012,-1.575079 -0.55314,-2.193029 -0.24599,-2.867142 0.24622,-0.540402 0.26763,-0.983223 0.0577,-1.193172 -0.29345,-0.293451 -1.09224,-5.38952 -1.06717,-6.808255 0.008,-0.462693 -0.26631,-5.329731 -0.81845,-14.512312 -0.0891,-1.481843 -0.25493,-3.069343 -0.36851,-3.527778 -0.43226,-1.744822 3.00883,-4.151322 3.58797,-2.509217 0.11975,0.339549 0.6057,0.965949 1.07989,1.392001 0.47419,0.426052 0.75874,0.941992 0.63232,1.146529 -0.35608,0.576163 -0.67316,0.4566 -1.85601,-0.699851 -0.60291,-0.589456 -1.18287,-0.931501 -1.2888,-0.760101 -0.45857,0.741977 -0.63939,3.264837 -0.26623,3.71447 0.21698,0.26144 0.30694,0.562903 0.19992,0.669918 -0.29695,0.296961 -0.53305,3.858429 -0.30368,4.581102 0.31429,0.99024 0.85716,0.369026 0.85716,-0.98086 0,-1.113589 0.42619,-1.598542 0.83027,-0.944739 0.30802,0.498394 -0.66463,6.113212 -1.10627,6.386163 -0.33962,0.209896 -0.36306,1.316281 -0.105,4.955745 0.18272,2.577039 0.44462,4.789104 0.582,4.915701 0.13738,0.126595 0.14809,-0.673107 0.0238,-1.777114 -0.25504,-2.265395 0.2608,-3.078946 0.77392,-1.22058 0.34793,1.260116 0.18418,2.949226 -0.35197,3.630603 -0.4234,0.538084 -0.13427,3.448988 0.60389,6.079761 0.59416,2.117556 0.52836,3.218893 -0.19231,3.218893 -0.2062,0 -0.43026,-0.198437 -0.49791,-0.440972 z m 1.02708,90.91324 c 4.83446,-3.22685 19.57917,-14.80681 19.57917,-15.37677 0,-0.19154 -0.19844,-0.23493 -0.44098,-0.0964 -1.04929,0.59919 -4.79975,3.3333 -4.90811,3.57806 -0.0654,0.14779 -1.46834,1.17128 -3.11758,2.2744 -1.64924,1.10313 -4.58611,3.37153 -6.52639,5.04091 -1.94028,1.66937 -4.28184,3.53199 -5.20347,4.13914 -0.92163,0.60716 -1.6757,1.16727 -1.6757,1.24468 0,0.23698 1.54513,-0.30476 2.29306,-0.80398 z m 3.47198,-1.25397 c 0.62198,-0.5722 1.38669,-0.96143 1.73114,-0.88114 0.33936,0.0791 0.72107,-0.0246 0.84826,-0.23034 0.13597,-0.22 0.0634,-0.27045 -0.17604,-0.12245 -0.22401,0.13845 -0.40728,0.12179 -0.40728,-0.037 0,-0.1588 0.33295,-0.49667 0.7399,-0.75082 0.40695,-0.25414 0.66376,-0.53823 0.57069,-0.63131 -0.0931,-0.0931 -1.25948,0.64905 -2.592,1.64917 -3.21811,2.41532 -3.22032,2.41772 -2.5962,2.80768 0.37573,0.23477 0.5607,0.17042 0.64681,-0.225 0.0663,-0.30459 0.62195,-1.01504 1.23472,-1.57877 z m -12.55189,-1.9962 c 0.0627,-2.57217 0.37961,-4.9805 0.98633,-7.49432 0.49171,-2.03729 1.01769,-4.25979 1.16884,-4.93889 0.15115,-0.67909 0.4599,-1.57874 0.68611,-1.9992 0.55236,-1.02668 0.60888,-5.60702 0.11453,-9.28043 -0.83487,-6.20376 -0.0317,-17.16626 1.65486,-22.58704 0.82898,-2.66443 1.67328,-7.21323 2.00688,-10.81235 0.20604,-2.22294 0.15672,-2.56736 -0.41583,-2.90396 -0.4525,-0.26602 -0.5264,-0.46412 -0.24355,-0.65292 1.0427,-0.69602 -0.0156,-4.93872 -2.72848,-10.93873 -0.37189,-0.8225 -0.67617,-1.63133 -0.67617,-1.7974 0,-0.16607 -0.31868,-0.59035 -0.70818,-0.94284 -0.90069,-0.815118 -1.76126,-2.529678 -1.76126,-3.509048 0,-0.41646 -0.16987,-0.92706 -0.3775,-1.13468 -0.20761,-0.207622 -0.504251,-1.469684 -0.659187,-2.804585 -0.154935,-1.3349 -0.317945,-2.109593 -0.362245,-1.721538 -0.149833,1.312496 0.03019,3.520656 0.402655,4.938893 0.203825,0.77611 0.496077,2.20486 0.649457,3.175 0.30467,1.927148 2.32962,7.837128 3.26357,9.524998 1.87988,3.3974 2.62577,6.96496 2.0461,9.78644 -0.16977,0.82634 -0.50587,2.45495 -0.74688,3.61911 -0.24102,1.16417 -0.63449,2.3548 -0.87438,2.64584 -0.67421,0.81795 -2.17386,5.51066 -2.76207,8.64305 -0.94786,5.04769 -1.38128,11.53571 -1.15965,17.35939 0.31416,8.25508 0.26452,9.51979 -0.501625,12.77871 -0.836358,3.5576 -1.078367,10.93996 -0.385984,11.77423 0.238787,0.28772 0.402952,0.6589 0.364813,0.82485 -0.06979,0.30364 0.648876,2.2439 0.829606,2.23978 0.0533,-0.001 0.13847,-1.70778 0.18924,-3.79236 z m 42.3608,0.2661 c 0.42343,-2.05004 0.19199,-3.53652 -0.62968,-4.04434 -0.67531,-0.41737 -0.84755,0.8789 -0.18149,1.36593 0.58181,0.42544 0.58555,0.4879 0.0471,0.78921 -0.47219,0.26425 -0.52207,0.54554 -0.25923,1.46199 0.27468,0.95777 0.2192,1.19165 -0.35567,1.49931 -0.37462,0.20049 -0.68112,0.60644 -0.68112,0.9021 0,0.29567 -0.15875,0.43947 -0.35278,0.31955 -0.19403,-0.11992 -0.35278,-0.0764 -0.35278,0.0968 0,0.67108 0.49025,0.74386 1.39812,0.20757 0.74083,-0.43762 1.03779,-1.00182 1.3675,-2.59809 z m -3.89987,2.38194 c 0.48478,-0.58851 0.69322,-2.69313 0.27125,-2.7388 -0.24741,-0.0268 -1.2026,2.33888 -1.2483,3.09158 -0.0164,0.27037 0.66701,0.0236 0.97705,-0.35278 z m -24.9713,-0.26458 c 0,-0.19403 -0.07,-0.35278 -0.15557,-0.35278 -0.0856,0 -0.25368,0.15875 -0.37359,0.35278 -0.11992,0.19403 -0.0499,0.35278 0.15556,0.35278 0.20548,0 0.3736,-0.15875 0.3736,-0.35278 z m 19.54973,-0.22688 c 0.28834,-0.7514 0.16434,-0.8468 -0.77972,-0.59993 -0.42809,0.11195 -0.77834,0.42316 -0.77834,0.69157 0,0.68616 1.28867,0.61037 1.55806,-0.0916 z m -8.69123,-2.95493 c 0.59208,-0.94807 0.36911,-0.87811 -0.64634,0.20279 -0.46582,0.49584 -0.60914,0.81027 -0.31849,0.69874 0.29065,-0.11154 0.72482,-0.51722 0.96483,-0.90153 z m 11.19011,0.71237 c 0.11992,-0.19403 0.0593,-0.35278 -0.13475,-0.35278 -0.19403,0 -0.45089,0.15875 -0.5708,0.35278 -0.11992,0.19402 -0.0593,0.35277 0.13475,0.35277 0.19403,0 0.45089,-0.15875 0.5708,-0.35277 z m -12.7,-5.60708 c 2.29879,-1.6441 2.05136,-1.4568 5.20348,-3.93894 2.66973,-2.10229 3.01786,-2.44843 2.4625,-2.44843 -0.40648,0 -10.31181,7.69592 -10.31181,8.01174 0,0.20427 0.62867,-0.18169 2.64583,-1.62437 z m 18.52084,-0.0374 c 0,-0.19403 -0.16812,-0.35278 -0.3736,-0.35278 -0.20548,0 -0.27549,0.15875 -0.15557,0.35278 0.11992,0.19403 0.28804,0.35278 0.3736,0.35278 0.0856,0 0.15557,-0.15875 0.15557,-0.35278 z m -8.99218,-2.58644 c 2.19141,-1.67102 2.84739,-2.52884 1.93382,-2.52884 -0.57582,0 -5.62261,3.84253 -5.63255,4.2885 -0.0159,0.71388 1.23584,0.11836 3.69873,-1.75966 z m -7.74461,-3.00146 c 2.50684,-1.82129 1.60415,-1.70202 -1.12272,0.14835 -2.83546,1.92405 -3.65994,2.60909 -3.65994,3.04094 0,0.17284 0.71123,-0.20895 1.58051,-0.84842 0.86927,-0.63948 2.31024,-1.69287 3.20215,-2.34087 z m 4.99493,-3.08534 c 1.02524,-1.02524 1.85474,-2.07287 1.84333,-2.32806 -0.0121,-0.26996 -0.19647,-0.17465 -0.44097,0.22792 -0.5249,0.86423 -1.78777,2.14008 -3.60458,3.64161 -0.87497,0.72314 -1.07482,1.00144 -0.53181,0.74056 0.47848,-0.22987 1.70879,-1.25679 2.73403,-2.28203 z m 7.67489,2.33947 c 0.30052,-0.48626 -0.18278,-2.16439 -0.55678,-1.93325 -0.42072,0.26002 -0.40583,2.2698 0.0168,2.2698 0.18258,0 0.42556,-0.15145 0.53997,-0.33655 z m 41.46141,-0.36901 c 0,-0.19402 -0.16812,-0.35277 -0.3736,-0.35277 -0.20548,0 -0.27548,0.15875 -0.15557,0.35277 0.11992,0.19403 0.28804,0.35278 0.3736,0.35278 0.0856,0 0.15557,-0.15875 0.15557,-0.35278 z m -46.74305,-2.11663 c 0.35118,-0.38806 0.5241,-0.70556 0.38426,-0.70556 -0.50356,0 -1.61899,0.73771 -1.61899,1.07075 0,0.55357 0.55064,0.39071 1.23473,-0.36519 z m 7.01974,-13.67014 c 0.3207,-0.63059 0.44575,-1.14653 0.27789,-1.14653 -0.33015,0 -1.12402,1.54822 -1.12402,2.19206 0,0.51492 0.14139,0.34021 0.84613,-1.04553 z m -30.4612,-22.53522 c 0.21621,-0.94504 0.46531,-2.03576 0.55355,-2.42381 0.0882,-0.38806 0.0596,-1.57107 -0.0636,-2.62891 -0.17231,-1.47936 -0.30195,-1.7841 -0.56161,-1.32012 -0.18567,0.33177 -0.24507,0.75291 -0.13201,0.93585 0.17794,0.28792 -0.60485,6.28439 -1.08413,8.30484 -0.11809,0.49782 -0.011,0.43245 0.36366,-0.22202 0.29206,-0.51017 0.70792,-1.70079 0.92413,-2.64583 z m 44.60954,-8.24694 c 0.12069,-0.19528 -0.56013,-1.26685 -1.51295,-2.38125 -0.95282,-1.1144 -2.26166,-2.97868 -2.90855,-4.14285 -0.64688,-1.16416 -1.6838,-2.75166 -2.30425,-3.52777 -1.76349,-2.20592 -2.70173,-4.35346 -2.75373,-6.303048 -0.0438,-1.64046 -0.17196,-1.87797 -1.89233,-3.5058 -1.01497,-0.960369 -2.68184,-2.284062 -3.70417,-2.941545 -1.64026,-1.05489 -3.79905,-3.51095 -3.79905,-4.32218 0,-0.159851 -0.55408,-0.987665 -1.2313,-1.839588 -0.67721,-0.851923 -1.23284,-1.72405 -1.23472,-1.938059 -0.002,-0.214009 -0.79732,-1.722134 -1.76764,-3.351389 -0.97032,-1.629255 -2.00931,-3.517908 -2.30887,-4.197005 -1.04918,-2.378488 -1.39737,-3.000879 -1.83537,-3.280724 -0.24285,-0.155162 -0.44154,-0.517934 -0.44154,-0.806161 0,-0.288226 -0.25961,-0.920263 -0.57691,-1.404521 -0.3173,-0.484262 -0.63008,-1.507624 -0.69507,-2.274136 -0.14406,-1.699155 -1.30643,-4.073593 -2.23831,-4.572322 -1.07279,-0.574135 -3.99413,-3.186317 -4.83908,-4.326967 -0.42056,-0.567733 -0.87204,-1.813049 -1.00329,-2.767369 -0.14333,-1.042095 -0.38241,-1.64628 -0.59859,-1.512676 -0.95379,0.589474 0.5298,4.64276 3.2961,9.005242 1.00438,1.583909 2.40771,5.719403 2.4351,7.176012 0.0135,0.720386 0.68603,2.112053 3.52986,7.304857 0.88158,1.609753 2.04611,3.974335 2.58784,5.254629 1.4005,3.309793 3.27999,5.107192 9.51136,9.095948 1.17804,0.75407 3.5324,3.882274 4.5962,6.106922 0.52824,1.10465 1.45266,2.5334 2.05429,3.175 1.65977,1.77006 3.93508,4.86594 3.72822,5.0728 -0.48627,0.48627 -5.34171,-5.08481 -7.60695,-8.72813 -1.71788,-2.762978 -4.44267,-5.92925 -4.7866,-5.562146 -0.30531,0.325875 1.42477,3.451758 2.59335,4.685628 0.6753,0.71303 1.81649,2.366228 2.53599,3.673788 0.7195,1.30756 1.64071,2.97674 2.04714,3.70928 1.01311,1.82603 4.84943,5.66158 6.38782,6.38655 0.69445,0.32726 1.87761,1.2248 2.62924,1.99453 1.43563,1.47023 1.74793,1.62505 2.10676,1.04445 z M 14.187131,88.193907 c 0.03472,-1.688049 -0.190034,-1.244935 -0.432434,0.852548 -0.131145,1.134798 -0.0948,1.512252 0.101895,1.058333 0.168159,-0.388056 0.316901,-1.247951 0.330539,-1.910881 z m 1.419014,-7.359393 c 0.18712,-1.606151 0.41417,-3.039935 0.50456,-3.186187 0.0904,-0.146247 0.25722,-1.270585 0.37075,-2.498524 0.11352,-1.227938 0.29344,-2.373439 0.39982,-2.54556 0.10637,-0.17212 0.20476,-1.940535 0.21863,-3.92981 0.0257,-3.68081 -0.54831,-7.858796 -1.1854,-8.628501 -0.19372,-0.234032 -0.27324,-0.553286 -0.17673,-0.709443 0.0965,-0.15616 -0.0486,-0.590331 -0.32241,-0.964826 -0.67899,-0.928575 -0.6575,-0.15324 0.063,2.272997 0.60501,2.037281 0.82193,8.961999 0.40898,13.05596 -0.39537,3.919725 -0.98275,8.224284 -1.33653,9.794647 -0.1864,0.827401 -0.32829,1.938651 -0.31531,2.469444 0.0411,1.681953 0.99134,-1.874675 1.37062,-5.130197 z m -1.0464,-24.949172 c -0.0232,-0.194028 -0.547555,-0.388177 -1.165167,-0.431442 -1.069127,-0.07489 -1.089451,-0.05328 -0.424198,0.451169 0.750181,0.568844 1.658465,0.557572 1.589365,-0.01972 z m 15.52718,-1.234723 c 0,-0.194027 -0.15875,-0.352777 -0.35278,-0.352777 -0.19402,0 -0.35277,0.15875 -0.35277,0.352777 0,0.194028 0.15875,0.352778 0.35277,0.352778 0.19403,0 0.35278,-0.15875 0.35278,-0.352778 z m -15.875,-0.881944 c 0,-0.291042 0.14158,-0.529167 0.31462,-0.529167 0.17305,0 1.08586,-0.684048 2.02848,-1.520108 0.94261,-0.836059 2.26947,-1.853893 2.94857,-2.261853 1.86712,-1.12165 5.17627,-1.967249 6.92656,-1.769966 1.41399,0.159377 1.5199,0.115061 1.37976,-0.577306 -0.59356,-2.932591 -0.57639,-3.354256 0.15241,-3.744298 0.50597,-0.270786 0.69942,-0.688793 0.6456,-1.395024 -0.0423,-0.554611 0.14866,-1.280082 0.42426,-1.612157 0.27656,-0.333241 0.45491,-1.139635 0.39805,-1.799708 -0.0644,-0.747677 0.0724,-1.263605 0.36502,-1.376475 0.33666,-0.129856 0.45996,-0.946706 0.4392,-2.909739 -0.0381,-3.605771 -0.0376,-3.602951 -0.87396,-4.974744 -0.68353,-1.121167 -0.75065,-1.150604 -1.20667,-0.529167 -0.26559,0.361924 -0.99832,2.18947 -1.62831,4.061213 -0.84831,2.520442 -1.49578,3.78261 -2.49617,4.866025 -0.74291,0.80457 -1.35075,1.688558 -1.35075,1.964417 0,0.915961 -2.03286,2.834837 -4.64889,4.388229 -1.42068,0.843595 -2.66243,1.630316 -2.75945,1.74827 -0.097,0.117953 -0.75428,0.644914 -1.460596,1.171023 -2.090527,1.55716 -3.478289,3.10143 -3.478289,3.870564 0,0.854584 2.492174,3.459138 3.309886,3.459138 0.313868,0 0.570669,-0.238125 0.570669,-0.529167 z m 21.89082,-7.359408 c -0.19465,-0.511979 -0.52067,-0.93087 -0.72448,-0.93087 -0.21716,0 -0.13699,0.451697 0.19367,1.091117 0.66653,1.288926 1.03903,1.176471 0.53081,-0.160247 z m -7.26561,-1.61205 c 0.11163,-0.180621 0.0416,-0.428114 -0.15557,-0.549986 -0.19719,-0.121872 -0.35853,0.02591 -0.35853,0.328401 0,0.619664 0.21169,0.710904 0.5141,0.221585 z m 4.98924,-3.763821 c -0.12556,-0.32718 -0.30765,-0.515498 -0.40467,-0.418484 -0.097,0.09701 -0.0737,0.444082 0.0519,0.771262 0.12555,0.327181 0.30765,0.515499 0.40466,0.418485 0.097,-0.09701 0.0737,-0.444082 -0.0519,-0.771263 z m -2.32834,-2.631375 c 0,-0.182577 -0.15875,-0.331958 -0.35278,-0.331958 -0.19402,0 -0.35277,0.247494 -0.35277,0.549986 0,0.302493 0.15875,0.451874 0.35277,0.331958 0.19403,-0.119916 0.35278,-0.367409 0.35278,-0.549986 z m 11.99445,154.890269 c 0,-0.19403 0.15875,-0.35278 0.35277,-0.35278 0.19403,0 0.35278,0.15875 0.35278,0.35278 0,0.19403 -0.15875,0.35278 -0.35278,0.35278 -0.19402,0 -0.35277,-0.15875 -0.35277,-0.35278 z m 12.34722,-7.3923 c 1.18301,-0.99484 2.11716,-1.51394 2.11444,-1.17497 -10e-4,0.15235 -0.51717,0.59064 -1.14653,0.97398 -1.62058,0.98709 -1.99522,1.06489 -0.96791,0.20099 z m 17.28611,-11.7968 c -1.26118,-0.21809 -2.84868,-0.70769 -3.52778,-1.08798 -0.6791,-0.38029 -1.53968,-0.85509 -1.91242,-1.0551 -0.37273,-0.20001 -0.75051,-0.58419 -0.83951,-0.85373 -0.10466,-0.31695 -0.009,-0.39538 0.27192,-0.22201 0.33505,0.20707 0.34503,0.10231 0.0439,-0.46042 -0.21443,-0.40066 -0.54777,-0.82606 -0.74075,-0.94533 -0.19299,-0.11927 -0.35088,-0.40096 -0.35088,-0.62597 0,-0.22501 0.91741,0.49874 2.0387,1.60832 1.1285,1.11673 2.35701,2.01743 2.75167,2.01743 0.39213,0 0.88524,0.17228 1.09581,0.38285 0.21056,0.21057 1.31388,0.45984 2.4518,0.55394 2.47461,0.20463 2.9509,0.33635 2.9509,0.81603 0,0.4376 -1.16646,0.40233 -4.23333,-0.12803 z m -12.12445,-2.93072 c -0.12252,-0.12253 -0.22974,-0.5535 -0.23826,-0.95773 -0.008,-0.40422 -0.22793,-1.33026 -0.48759,-2.05787 -0.75867,-2.12588 0.21732,-1.65025 1.28183,0.6247 0.8517,1.82012 0.87062,1.96941 0.28907,2.28064 -0.34225,0.18317 -0.72252,0.23279 -0.84505,0.11026 z m 9.7432,-3.91598 c -1.02359,-0.0589 -1.85208,-0.27684 -1.85208,-0.48713 0,-0.24337 0.47674,-0.3017 1.32291,-0.16183 0.72761,0.12026 2.23573,0.22041 3.35139,0.22254 1.17422,0.002 2.02847,0.1593 2.02847,0.37292 0,0.21535 -0.62436,0.32554 -1.4993,0.26458 -0.82462,-0.0575 -2.33274,-0.15243 -3.35139,-0.21108 z m -8.21091,-0.86351 c -1.34458,-0.91102 -1.53564,-1.28794 -1.02823,-2.02847 0.30772,-0.44909 0.45365,-0.39687 0.9644,0.34512 0.33101,0.48086 0.87964,1.15555 1.21918,1.49931 1.21477,1.22983 0.54549,1.33645 -1.15535,0.18404 z m 3.43862,-0.97417 c -0.93363,-1.09039 -0.72026,-1.63593 0.27437,-0.70152 0.87785,0.8247 1.13034,1.41111 0.60757,1.41111 -0.15091,0 -0.54778,-0.31931 -0.88194,-0.70959 z m 11.29513,0.14748 c -0.5216,-0.5216 0.21335,-0.849 1.90585,-0.849 1.26021,0 1.73051,0.12744 1.6273,0.44097 -0.15492,0.47059 -3.12731,0.81386 -3.53315,0.40803 z m -6.80873,-1.2879 c -1.11748,-0.59679 -1.91543,-1.3981 -1.71507,-1.72229 0.19504,-0.31558 2.77487,0.85273 3.12153,1.41363 0.31083,0.50294 -0.64847,0.71346 -1.40646,0.30866 z m 10.97407,-0.23971 c -0.11075,-0.1792 0.82818,-1.40951 2.08652,-2.73402 1.25834,-1.32451 2.29209,-2.70088 2.29722,-3.05859 0.005,-0.35771 0.32683,-0.73342 0.71488,-0.8349 0.38806,-0.10148 0.70556,-0.32474 0.70556,-0.49614 0,-0.47877 -0.84599,-0.37024 -1.60827,0.20632 -0.76842,0.5812 -1.56673,0.69934 -1.56673,0.23184 0,-0.16969 1.09694,-0.66125 2.43764,-1.09234 1.51981,-0.48869 2.93121,-1.2359 3.74851,-1.98452 0.72097,-0.66039 1.48935,-1.2089 1.7075,-1.21891 0.44985,-0.0206 2.68968,-2.70104 2.68968,-3.21872 0,-0.18612 -0.3175,-0.23763 -0.70555,-0.11447 -0.38806,0.12317 -0.70556,0.11962 -0.70556,-0.008 0,-0.37672 1.54723,-1.55515 2.05858,-1.56789 0.46326,-0.0115 2.70274,-2.3064 2.70516,-2.77207 0.003,-0.56877 1.01538,-3.23689 1.22822,-3.23689 0.12903,0 0.23691,-0.51594 0.23975,-1.14653 0.008,-1.83696 0.22191,-3.23074 0.565415,-3.68871 0.17554,-0.23404 0.22322,-0.58077 0.10596,-0.77051 -0.248985,-0.40287 1.13784,-3.2137 1.5856,-3.2137 0.75443,0 1.67474,-7.25373 0.95116,-7.49685 -0.14385,-0.0483 -0.29754,-0.52443 -0.34153,-1.05801 -0.044,-0.53357 -0.18827,-0.97014 -0.32063,-0.97014 -0.13236,0 -0.43118,-0.79424 -0.66406,-1.76497 -0.23288,-0.97074 -0.56621,-1.85324 -0.74074,-1.9611 -0.17453,-0.10787 -0.31733,-0.47966 -0.31733,-0.82619 0,-0.34653 -0.317495,-0.91739 -0.705555,-1.26858 -0.90784,-0.82158 -0.89521,-1.23472 0.0377,-1.23472 0.515775,0 0.681135,-0.16198 0.540235,-0.52917 -0.257055,-0.66989 -0.0564,-0.666 0.98926,0.0192 1.01208,0.66314 1.4963,0.13218 0.61052,-0.66944 -0.7127,-0.64498 -1.972125,-0.91865 -2.059435,-0.44751 -0.0953,0.51424 -0.93811,0.91023 -1.94958,0.91599 -0.52213,0.003 -1.05835,0.18181 -1.19161,0.39743 -0.13326,0.21562 0.422,1.68412 1.2339,3.26335 1.24852,2.42849 1.49514,3.26072 1.59908,5.39621 0.10745,2.20766 0.0154,2.68301 -0.73229,3.7834 -1.04487,1.53767 -1.88631,2.03845 -2.67938,1.59462 -0.35457,-0.19842 -0.66356,-0.19969 -0.78499,-0.003 -0.29946,0.48452 -2.67869,-0.318 -3.90373,-1.31674 -1.29939,-1.05935 -2.7409,-3.12306 -2.56019,-3.66521 0.0734,-0.22022 0.60011,0.22375 1.17044,0.9866 1.59762,2.13689 4.03878,3.84688 4.31382,3.02174 0.0793,-0.23803 0.48767,-0.30977 1.01286,-0.17795 1.25219,0.31428 2.51186,-0.48206 2.80287,-1.77192 0.62885,-2.78725 -0.0581,-6.27265 -1.77104,-8.98616 -0.5015,-0.79445 -0.91181,-1.6643 -0.91181,-1.93303 0,-0.26874 -0.33213,-0.91083 -0.73806,-1.42689 -0.40593,-0.51606 -0.77351,-1.13278 -0.81685,-1.3705 -0.16332,-0.89596 -2.16374,-3.78359 -2.62109,-3.78359 -1.43617,0 -10.08112,-2.98306 -11.08164,-3.82387 -0.34302,-0.28826 -0.61736,-0.35281 -0.61736,-0.14526 0,0.20546 1.34937,2.99141 2.99861,6.19101 1.64923,3.1996 2.99861,5.99298 2.99861,6.20751 0,1.12359 -0.81816,-0.0898 -3.12671,-4.63703 -2.92519,-5.76188 -4.644,-8.72493 -6.80427,-11.72986 -5.16058,-7.178362 -6.08696,-8.374832 -7.01619,-9.061843 -0.56653,-0.418849 -1.21123,-1.329404 -1.43267,-2.023459 -0.22144,-0.694055 -0.54219,-1.41273 -0.71278,-1.597057 -0.17059,-0.184326 -0.31016,-0.612383 -0.31016,-0.951237 0,-0.716336 -2.22306,-4.6768 -3.31211,-5.900642 -0.40966,-0.460358 -1.55158,-1.437838 -2.53761,-2.172177 -1.68543,-1.255215 -6.05275,-5.572887 -8.01806,-7.926917 -1.32965,-1.592647 -6.20999,-6.544268 -7.9538,-8.069983 -1.02362,-0.8956 -1.41915,-1.462341 -1.1844,-1.697094 0.23475,-0.234752 0.63017,-0.209451 1.18408,0.07577 1.01491,0.522609 7.71416,7.223418 10.15992,10.162301 0.97789,1.17505 2.93032,3.093043 4.33873,4.262208 4.98968,4.142081 5.90224,5.108519 7.15105,7.573226 0.67679,1.335754 1.23053,2.736875 1.23053,3.113599 0,0.694394 1.80648,3.216198 4.77771,6.669582 0.89877,1.044603 2.63741,3.407405 3.86367,5.250675 2.19609,3.301088 4.56258,5.963628 4.95328,5.572928 0.10982,-0.10982 0.23208,-0.6212 0.27168,-1.1364 0.0396,-0.5152 0.24822,-1.04949 0.46362,-1.18732 0.8007,-0.51238 0.86451,-1.71114 0.14011,-2.63207 -1.18938,-1.512038 -0.91219,-2.061818 2.02909,-4.024488 1.49997,-1.000924 2.94923,-1.881902 3.22055,-1.957735 0.27992,-0.07823 0.5545,-0.734155 0.63473,-1.51632 0.14891,-1.451437 0.62684,-2.290822 1.30437,-2.290822 0.22317,0 0.95779,-0.669156 1.6325,-1.487012 2.0304,-2.461165 3.53132,-3.804655 4.25048,-3.804655 0.37424,0 0.68044,-0.143937 0.68044,-0.319857 0,-0.175923 1.2056,-0.821753 2.67912,-1.435181 2.548355,-1.060884 2.763915,-1.09359 4.416325,-0.670091 2.40554,0.616522 2.00642,1.220216 -0.70444,1.06552 -1.887895,-0.107732 -2.379125,0.0014 -3.576615,0.79375 -0.76349,0.505251 -1.69836,0.918636 -2.0775,0.918636 -0.37952,0 -0.79,0.317116 -0.91328,0.705556 -0.12317,0.388056 -0.41947,0.705556 -0.65845,0.705556 -0.23897,0 -1.5576,1.114234 -2.93027,2.476073 l -2.49577,2.476077 1.7854,1.538213 c 1.77549,1.529677 1.78552,1.550198 1.80784,3.697532 0.0156,1.50507 -0.11127,2.15933 -0.41885,2.15933 -0.24271,0 -0.44129,-0.3175 -0.44129,-0.70556 0,-0.38805 -0.14577,-0.70555 -0.32393,-0.70555 -0.17816,0 -0.61472,-0.0942 -0.97014,-0.20923 -0.47532,-0.1539 -0.41298,-0.005 0.23573,0.562 0.64872,0.56729 0.71106,0.71591 0.23573,0.56201 -0.35541,-0.11508 -0.99041,-0.20938 -1.41111,-0.20957 -0.68972,-3.1e-4 -0.76673,-0.19118 -0.78359,-1.942 -0.0165,-1.714623 0.0557,-1.918038 0.61736,-1.739766 0.66867,0.212224 0.88886,-0.353345 0.28328,-0.727614 -0.19403,-0.119917 -0.35278,-0.526162 -0.35278,-0.902766 0,-1.071831 -0.69976,-0.801906 -0.93204,0.35953 -0.1669,0.834489 -0.83326,1.45457 -3.31718,3.086806 -1.70958,1.1234 -3.11975,2.21441 -3.13372,2.42447 -0.0238,0.35843 2.52428,2.616678 2.95253,2.616678 0.10839,0 0.19708,-0.24749 0.19708,-0.54999 0,-0.30249 0.15875,-0.45187 0.35278,-0.33195 0.53718,0.332 0.42105,1.44444 -0.20504,1.96405 -0.45078,0.37412 -0.69417,0.37779 -1.26851,0.0191 -0.59283,-0.37023 -0.82074,-0.34426 -1.37415,0.15657 -0.63271,0.5726 -0.61144,1.42891 0.0257,1.03513 0.41906,-0.25899 1.39849,1.20943 1.18236,1.77266 -0.16963,0.44204 0.66391,0.86147 2.16879,1.09131 3.99052,0.60947 6.29708,2.12914 7.96238,5.24598 1.19203,2.23105 1.21467,2.24995 1.91363,1.59804 0.38903,-0.36284 1.18357,-0.7633 1.76566,-0.88991 0.90954,-0.19784 0.84755,-0.11772 -0.44098,0.56993 -1.35287,0.72199 -2.14143,1.89303 -1.05833,1.57165 3.00651,-0.89209 3.72689,-0.95399 5.221795,-0.44866 1.1434,0.38651 1.69267,0.42034 2.15337,0.13264 0.34014,-0.21243 0.70877,-0.2959 0.81917,-0.18549 0.3725,0.37249 -0.20161,1.26182 -1.06999,1.65748 -0.4744,0.21615 -0.86254,0.55515 -0.86254,0.75334 0,0.51608 -1.31865,0.44636 -1.52492,-0.0806 -0.0949,-0.24253 -0.14785,0.0353 -0.11759,0.61736 0.0303,0.58209 0.14303,1.13771 0.25062,1.23472 0.19577,0.17654 2.18822,5.4734 2.62023,6.96581 0.31324,1.08206 0.35943,6.22129 0.0603,6.70533 -0.13298,0.21517 -0.0837,0.48893 0.10952,0.60834 0.22579,0.13955 0.19752,0.46337 -0.0791,0.90632 -0.58798,0.94152 -0.96625,0.86489 -0.96625,-0.19573 0,-0.79701 -0.0702,-0.8411 -0.70647,-0.44373 -0.38856,0.24266 -0.64847,0.60119 -0.57757,0.79674 0.0709,0.19554 -0.0757,0.76147 -0.32572,1.25761 -0.25005,0.49614 -0.63517,2.24239 -0.85584,3.88056 -0.523855,3.88893 -0.711725,4.60617 -1.137595,4.34297 -0.21101,-0.13041 -0.26919,0.0479 -0.14466,0.44341 0.29592,0.9399 -2.36451,5.07125 -3.26571,5.07125 -0.502,0 -0.6341,0.18119 -0.50158,0.68797 0.10092,0.38594 -0.14588,1.14549 -0.5622,1.73015 -0.40815,0.5732 -0.7421,1.20854 -0.7421,1.41186 0,0.20332 -1.20745,0.97256 -2.68322,1.70943 -1.72214,0.85988 -2.44307,1.37673 -2.01274,1.44299 0.51794,0.0798 -0.23137,1.02284 -3.29345,4.14514 -2.18017,2.22305 -4.0432,4.0419 -4.14006,4.0419 -0.0969,0 -0.26673,-0.14662 -0.37748,-0.32583 z m 1.57085,-58.21446 c 0,-0.61117 -0.62093,-0.72425 -1.06156,-0.19333 -0.36279,0.43713 -0.31029,0.52529 0.31281,0.52529 0.41181,0 0.74875,-0.14938 0.74875,-0.33196 z m 8.18444,-10.321932 c -0.32926,-0.329258 -0.42333,-0.235186 -0.42333,0.423334 0,0.65852 0.0941,0.75259 0.42333,0.42333 0.32926,-0.32926 0.32926,-0.517406 0,-0.846664 z M 61.477755,161.9547 c -0.695,-0.56764 -0.78608,-0.8061 -0.44171,-1.15635 0.34714,-0.35306 0.6088,-0.34761 1.30928,0.0273 0.61288,0.328 1.6178,0.40627 3.35078,0.26099 4.35797,-0.36536 3.05337,0.75883 -1.57251,1.35504 -1.47049,0.18953 -1.91855,0.10707 -2.64584,-0.48695 z m -7.04916,-0.92389 c 0,-0.38655 2.24834,-3.44175 2.64474,-3.59386 0.24225,-0.093 0.86478,-0.94865 1.3834,-1.90153 1.01468,-1.8643 1.6163,-2.46711 1.6163,-1.61949 0,0.29104 -0.16804,0.63302 -0.37343,0.75996 -0.20713,0.12801 -0.2787,0.66211 -0.16071,1.19933 0.14556,0.66272 0.0333,1.11741 -0.35538,1.44003 -0.31246,0.25932 -0.80253,0.9248 -1.08904,1.47885 -0.28651,0.55405 -0.68063,0.90867 -0.87582,0.78804 -0.23037,-0.14238 -0.20759,-0.3968 0.0649,-0.72517 0.3407,-0.41051 0.31069,-0.46396 -0.15926,-0.28362 -0.31848,0.12221 -0.57906,0.41567 -0.57906,0.65213 0,0.23647 -0.36742,0.7751 -0.81649,1.19698 -0.76668,0.72027 -1.30018,0.96989 -1.30018,0.60835 z m 14.2875,-0.54685 c 0.11991,-0.19403 0.44678,-0.35278 0.72637,-0.35278 0.27959,0 0.50835,0.15875 0.50835,0.35278 0,0.19402 -0.32687,0.35277 -0.72638,0.35277 -0.3995,0 -0.62826,-0.15875 -0.50834,-0.35277 z m 1.84519,-0.73048 c -1.03651,-0.85438 -1.24504,-1.21244 -0.98694,-1.6947 0.17998,-0.3363 0.20084,-0.81597 0.0463,-1.06593 -0.22891,-0.37039 -0.41685,-0.36957 -1.01578,0.004 -0.47444,0.29629 -0.62136,0.59576 -0.41454,0.84495 0.22116,0.26649 -0.0848,0.40266 -0.98808,0.43979 -1.84826,0.076 -6.64974,-2.27577 -5.99109,-2.93442 0.0828,-0.0828 0.81111,0.16869 1.61853,0.5588 2.51765,1.21639 4.30566,1.27699 6.0061,0.20355 0.80726,-0.50961 1.46776,-1.08332 1.46776,-1.27491 0,-0.1916 0.17952,-0.34836 0.39893,-0.34836 0.38407,0 0.33258,0.65074 -0.25601,3.2356 -0.1816,0.79753 -0.0463,1.02959 0.87956,1.50837 0.6018,0.3112 1.09418,0.79987 1.09418,1.08593 0,0.76434 -0.3929,0.64531 -1.85897,-0.56315 z m -16.43831,-2.27057 c -0.24605,-0.68043 -1.07163,-1.73883 -1.83463,-2.35199 -0.76299,-0.61316 -1.32776,-1.17433 -1.25504,-1.24705 0.0727,-0.0727 0.79403,0.13259 1.60291,0.45624 1.45082,0.5805 2.85071,2.46459 2.85071,3.83674 0,1.01433 -0.91448,0.54908 -1.36395,-0.69394 z m 17.79977,-3.50817 c -1.18975,-0.97273 -1.55597,-2.83767 -0.76866,-3.91438 0.63681,-0.87089 1.10122,-0.4643 0.58066,0.50836 -0.62783,1.17311 -0.1208,2.32873 1.23718,2.81978 1.31171,0.47432 1.53605,0.89848 0.6542,1.23688 -0.68808,0.26404 -0.4939,0.33821 -1.70338,-0.65064 z m -5.47312,-1.58011 c -1.89369,-0.56463 -2.54266,-1.14719 -1.79365,-1.6101 0.21277,-0.1315 0.57834,-0.0846 0.81237,0.10417 0.23404,0.18879 1.10021,0.45454 1.92483,0.59054 0.90334,0.149 1.49931,0.43703 1.49931,0.72463 0,0.76448 -0.41104,0.79658 -2.44286,0.19076 z m 32.54374,0.0872 c -0.30397,-0.11211 -0.26789,-0.49984 0.13544,-1.45521 0.71214,-1.68684 1.484505,-4.89355 1.503275,-6.24127 0.008,-0.58208 0.25357,-1.51628 0.54548,-2.076 0.31758,-0.60897 0.40686,-1.17569 0.2223,-1.41112 -0.36933,-0.47111 -0.39224,-1.62815 -0.0322,-1.62815 0.14013,0 0.23441,-0.19844 0.20951,-0.44098 -0.0769,-0.7496 0.94593,-4.14513 1.24869,-4.14513 0.36912,0 0.36128,0.22624 -0.087,2.50948 -0.20517,1.04513 -0.44172,2.53471 -0.52567,3.31018 -0.0839,0.77547 -0.31393,1.46372 -0.51109,1.52944 -0.19716,0.0657 -0.27975,0.24687 -0.18353,0.40256 0.2799,0.45287 -0.47349,5.66535 -1.09762,7.59417 -0.643795,1.9896 -0.838405,2.26933 -1.427585,2.05203 z m -24.63319,-1.87622 c -0.13606,-0.22017 -0.48415,-0.30945 -0.77352,-0.19841 -0.33036,0.12677 -0.59256,-0.0521 -0.70464,-0.48071 -0.0982,-0.37543 -0.40099,-0.76798 -0.67291,-0.87233 -0.27192,-0.10434 -0.4944,-0.42494 -0.4944,-0.71243 0,-0.28749 -0.232,-0.65254 -0.51556,-0.81123 -0.28356,-0.15868 -1.29742,-1.03782 -2.25301,-1.95363 -1.20418,-1.15403 -1.81023,-2.05306 -1.97457,-2.92906 -0.13042,-0.69517 -0.32417,-1.4908 -0.43057,-1.76806 -0.11007,-0.28684 0.0129,-0.49823 0.28527,-0.49047 0.45594,0.013 2.41899,3.62134 2.41899,4.44641 0,0.21584 0.25531,0.60432 0.56734,0.86329 0.47648,0.39544 0.63186,0.38565 0.97014,-0.0612 0.29014,-0.38321 0.87149,-0.49289 2.0785,-0.39213 2.22138,0.18543 2.1543,0.77439 -0.0882,0.77439 -1.8249,0 -2.34397,0.4739 -0.98984,0.90368 0.79641,0.25277 2.0156,1.49036 2.03643,2.06715 0.007,0.17875 0.27535,0.61629 0.59754,0.9723 0.32219,0.35602 0.49684,0.73627 0.3881,0.845 -0.10873,0.10873 -0.30902,0.0176 -0.44509,-0.2026 z m 14.67332,-5.5828 c -0.4578,-0.85541 -0.52224,-5.70551 -0.0758,-5.70551 0.4947,0 1.2634,5.62362 0.82818,6.05883 -0.25403,0.25404 -0.4855,0.14534 -0.75237,-0.35332 z m -25.43268,-4.62636 c 0,-0.52202 0.5158,-0.70994 1.34989,-0.49182 1.12296,0.29366 0.93534,0.82378 -0.29156,0.82378 -0.58208,0 -1.05833,-0.14938 -1.05833,-0.33196 z m 3.64394,-2.75636 c -0.22715,-0.14858 -0.52217,-0.70511 -0.6556,-1.23674 -0.22225,-0.88548 -0.15798,-0.96615 0.76578,-0.96121 1.40082,0.008 1.97257,0.45842 1.83299,1.44561 -0.12281,0.8686 -1.15465,1.2681 -1.94317,0.75234 z m 35.432495,-24.50998 c -1.11219,-0.39144 -1.93626,-0.8507 -1.83126,-1.02059 0.105,-0.16989 -0.009,-0.30889 -0.25325,-0.30889 -0.32132,0 -0.33751,-0.10664 -0.0585,-0.38562 0.27898,-0.27898 0.64044,-0.21865 1.30704,0.21812 0.74369,0.48728 1.02316,0.51931 1.44883,0.16604 0.35224,-0.29234 0.5274,-0.3091 0.5274,-0.0505 0,0.26249 0.2715,0.28402 0.84274,0.0668 0.75043,-0.28532 0.8233,-0.23607 0.66531,0.4497 -0.17263,0.74936 -0.1608,0.74768 0.43888,-0.062 0.48055,-0.64885 0.51775,-0.89305 0.16888,-1.10866 -0.5698,-0.35216 -0.14932,-2.22436 0.45484,-2.02515 0.23538,0.0776 0.61832,0.5198 0.85098,0.98265 0.38784,0.77155 0.44385,0.78725 0.6735,0.18877 0.29004,-0.75584 -0.11565,-1.52272 -1.17908,-2.22881 -0.68723,-0.4563 -0.79077,-0.41814 -1.25152,0.46122 -0.35406,0.67576 -0.58287,0.82833 -0.77531,0.51696 -0.3816,-0.61745 1.53994,-2.24827 2.10071,-1.78287 0.2733,0.22682 0.56767,0.19651 0.86811,-0.0894 0.36599,-0.34826 0.41093,-0.28758 0.23059,0.31137 -0.13167,0.43728 -0.0322,0.90308 0.24118,1.13001 0.37137,0.30821 0.46681,0.10859 0.47322,-0.98985 0.004,-0.75675 -0.10473,-1.30622 -0.24256,-1.22104 -0.13783,0.0852 -0.31645,-0.4091 -0.39692,-1.09843 -0.0805,-0.68931 -0.0183,-1.33241 0.13812,-1.42909 0.15644,-0.0967 0.28444,-0.47323 0.28444,-0.83676 0,-0.36353 0.3175,-0.76173 0.70556,-0.8849 0.38805,-0.12316 0.70555,-0.38136 0.70555,-0.57376 0,-0.1924 -0.15875,-0.25171 -0.35278,-0.13179 -0.44343,0.27405 -0.44072,0.18118 0.0345,-1.18209 0.21301,-0.611028 0.53051,-1.110968 0.70556,-1.110968 0.53378,0 0.35735,1.494598 -0.41705,3.532758 -1.07527,2.83006 -1.15216,3.17002 -0.71693,3.17002 0.21666,0 0.39392,-0.16812 0.39392,-0.3736 0,-0.20548 0.16004,-0.27469 0.35564,-0.1538 0.52639,0.32533 1.74794,-2.80509 1.81807,-4.65913 0.0555,-1.466828 0.10466,-1.550448 0.55598,-0.945348 0.27231,0.365098 0.64266,0.624128 0.82299,0.575628 0.18033,-0.0485 0.31534,0.26899 0.30003,0.70555 -0.0153,0.43657 -0.11013,0.58869 -0.2107,0.33806 -0.26625,-0.66358 -1.17256,0.16702 -1.17256,1.07461 0,0.69114 -1.25938,3.05973 -1.8418,3.464 -0.16035,0.1113 0.026,0.4897 0.41403,0.8409 0.38806,0.35119 0.62057,0.77607 0.51668,0.94417 -0.32228,0.52146 -0.79506,0.33774 -1.02919,-0.39993 -0.27621,-0.87025 -0.78876,-0.91779 -0.95079,-0.0882 -0.15985,0.81841 1.57767,2.2806 2.35538,1.98216 0.48327,-0.18544 0.57057,-0.0401 0.47561,0.79154 -0.0956,0.83694 -0.2893,1.02502 -1.08599,1.05426 -0.78456,0.0288 -0.89282,-0.057 -0.56709,-0.4495 0.22142,-0.2668 0.32331,-0.56436 0.22642,-0.66125 -0.31946,-0.31947 -1.33549,0.25882 -1.33549,0.76012 0,0.27028 -0.15345,0.49142 -0.34102,0.49142 -0.18755,0 -0.8785,0.5375 -1.53544,1.19443 -1.57838,1.57838 -2.15621,1.68501 -4.55543,0.84061 z m 3.96245,-2.71977 c 0,-0.18258 -0.15875,-0.43007 -0.35278,-0.54999 -0.19403,-0.11991 -0.35278,0.0295 -0.35278,0.33196 0,0.30249 0.15875,0.54999 0.35278,0.54999 0.19403,0 0.35278,-0.14938 0.35278,-0.33196 z m -4.36091,0.15557 c 0.11169,-0.29104 0.26545,-0.52917 0.34171,-0.52917 0.0763,0 0.13864,0.23813 0.13864,0.52917 0,0.29104 -0.15377,0.52916 -0.34171,0.52916 -0.18793,0 -0.25032,-0.23812 -0.13864,-0.52916 z m -8.868255,-0.52917 c -0.11991,-0.19403 0.11821,-0.35278 0.52917,-0.35278 0.41096,0 0.64908,0.15875 0.52916,0.35278 -0.11991,0.19403 -0.35804,0.35278 -0.52916,0.35278 -0.17113,0 -0.40925,-0.15875 -0.52917,-0.35278 z m 2.15441,-0.9108 c -0.56168,-1.46372 0.16666,-2.13763 1.03172,-0.9546 0.38844,0.53123 0.51571,0.54262 1.05569,0.0945 0.33771,-0.28027 1.29542,-0.53122 2.12825,-0.55767 1.766485,-0.0561 3.526445,-1.2524 3.840145,-2.61029 0.28358,-1.2275 -0.18082,-1.76819 -1.63043,-1.89826 -1.40378,-0.12597 -2.053395,-0.43853 -2.053395,-0.98798 0,-0.25229 0.158345,-0.24373 0.483535,0.0262 0.28032,0.23264 1.02166,0.31578 1.76389,0.19782 0.85765,-0.1363 1.28035,-0.0674 1.28035,0.2088 0,0.22676 0.23812,0.32091 0.52916,0.20922 0.64156,-0.24619 0.6805,0.45024 0.13505,2.415 -0.48603,1.75071 -2.57489,3.35702 -4.365505,3.35702 -0.43913,0 -0.99605,0.23812 -1.23759,0.52917 -0.59276,0.71423 -2.68354,0.69386 -2.96087,-0.0289 z m 16.522045,-0.66548 c -0.37664,-0.28487 -0.52604,-0.51795 -0.33201,-0.51795 0.19402,0 0.66093,0.23308 1.03756,0.51795 0.37663,0.28487 0.52604,0.51795 0.33201,0.51795 -0.19403,0 -0.66093,-0.23308 -1.03756,-0.51795 z m 1.55376,-1.33414 c 0.38972,-0.63059 0.73919,-1.30527 0.77659,-1.4993 0.17914,-0.92943 0.6887,-1.88727 1.1072,-2.08129 0.25507,-0.11826 0.0272,-0.15692 -0.50637,-0.0859 -1.07829,0.14348 -1.24253,-0.16617 -0.44097,-0.8314 0.29104,-0.24155 0.52916,-0.30861 0.52916,-0.14903 0,0.66399 0.80306,-0.57506 0.84079,-1.29727 0.0303,-0.57948 0.29767,-0.82208 1.0113,-0.91753 1.01082,-0.13519 1.17129,0.0889 0.6514,0.90972 -0.17693,0.27934 -0.49557,0.37021 -0.74898,0.21359 -0.33656,-0.20801 -0.38475,0.0275 -0.20342,0.99408 0.19781,1.05445 0.11734,1.33104 -0.48034,1.65091 -0.39488,0.21133 -0.71797,0.61678 -0.71797,0.90099 0,0.28422 -0.15875,0.51676 -0.35278,0.51676 -0.19402,0 -0.35277,0.28218 -0.35277,0.62706 0,0.75707 -0.9564,2.19516 -1.45989,2.19516 -0.19885,0 -0.0427,-0.51594 0.34705,-1.14653 z m -0.99843,-0.32392 c -0.003,-0.32368 -0.10176,-0.83962 -0.21953,-1.14653 -0.11777,-0.30691 -0.0569,-0.55802 0.13524,-0.55802 0.49061,0 0.75918,1.23639 0.39383,1.81303 -0.24085,0.38014 -0.30526,0.35756 -0.30954,-0.10848 z m -11.64707,-0.26404 c 0,-0.2102 0.14711,-0.38217 0.32692,-0.38217 0.1798,0 0.40755,-0.27782 0.5061,-0.61737 0.10788,-0.37164 0.15328,-0.27734 0.11406,0.23695 -0.0629,0.82525 -0.94708,1.53718 -0.94708,0.76259 z m 4.10615,0.0786 c -0.38501,-0.38501 -0.24938,-0.69597 0.30358,-0.69597 0.29104,0 0.52916,0.12292 0.52916,0.27316 0,0.39734 -0.5692,0.68634 -0.83274,0.42281 z m -18.922805,-0.28358 c 0,-0.37293 2.56639,-3.72562 2.72809,-3.56393 0.22757,0.22758 -2.05898,3.7395 -2.43473,3.7395 -0.16135,0 -0.29336,-0.079 -0.29336,-0.17557 z m 12.23874,-0.0673 c -0.1224,-0.19806 0.12974,-0.67869 0.56032,-1.06807 0.91353,-0.82611 3.075935,-1.63236 3.075935,-1.14685 0,0.18024 -0.43657,0.43152 -0.97014,0.5584 -0.53358,0.12688 -1.301655,0.63253 -1.706845,1.12366 -0.42513,0.51529 -0.83084,0.74066 -0.95927,0.53286 z m -5.88874,-2.57933 c -0.48507,-0.37943 -1.08039,-0.69339 -1.32292,-0.69771 -0.24253,-0.004 -0.44097,-0.18358 -0.44097,-0.39837 0,-0.23559 0.24491,-0.28757 0.61736,-0.13102 0.33955,0.14273 1.01424,0.34212 1.4993,0.4431 0.84266,0.17542 1.3941,0.65595 1.40571,1.22497 0.01,0.47924 -0.86134,0.26079 -1.75848,-0.44097 z m 12.710715,-0.0716 c -0.0287,-0.66326 0.8751,-2.05474 1.45393,-2.23845 0.78198,-0.24819 0.85236,-1.31976 0.13387,-2.038248 -0.43529,-0.43529 -0.45185,-0.83416 -0.10356,-2.49464 0.22802,-1.087077 0.55125,-1.976504 0.7183,-1.976504 0.16705,0 0.22525,0.277813 0.12934,0.617361 -0.48915,1.731633 -0.61712,3.615973 -0.24558,3.615973 0.21734,0 0.55169,-0.35719 0.743,-0.79375 0.27492,-0.62733 0.30553,-0.49789 0.14599,0.61736 -0.11102,0.77611 -0.51079,1.841248 -0.88838,2.366968 -0.37759,0.52572 -0.68652,1.1304 -0.68652,1.34373 0,0.21334 -0.14899,0.2958 -0.3311,0.18326 -0.1821,-0.11255 -0.49477,0.0765 -0.69483,0.42015 -0.20005,0.34363 -0.36856,0.51319 -0.37446,0.37679 z m -6.155065,-1.99772 c -0.15197,-0.24589 -0.18103,-0.54234 -0.0646,-0.65878 0.31572,-0.31572 0.65996,0.14863 0.48944,0.66021 -0.11949,0.35848 -0.20259,0.3582 -0.42485,-0.001 z m 15.517385,-0.88477 c 0.0844,-0.6805 0.30794,-1.643588 0.49676,-2.140198 0.22285,-0.58616 0.22259,-0.90293 -7.6e-4,-0.90293 -0.18922,0 -0.34404,-0.3175 -0.34404,-0.70556 0,-0.38805 0.14902,-0.70555 0.33116,-0.70555 0.51358,0 0.84622,2.99893 0.42081,3.793818 -0.20591,0.38474 -0.29675,0.77715 -0.20187,0.87202 0.0949,0.0949 -0.0588,0.36447 -0.34151,0.59909 -0.43717,0.36282 -0.49107,0.24163 -0.36055,-0.81069 z m -16.821995,-0.13271 c -0.10164,-0.661978 0.14528,-1.686118 0.56791,-2.355448 0.25398,-0.40225 0.57157,-1.25737 0.70575,-1.90026 0.22544,-1.080147 0.28079,-1.120325 0.72897,-0.529168 0.572035,0.754548 0.667475,1.662228 0.14052,1.336548 -0.23421,-0.14475 -0.29078,0.0766 -0.15641,0.61198 0.1474,0.58727 -0.007,1.0356 -0.51502,1.49535 -0.39905,0.36113 -0.72554,0.870118 -0.72554,1.131088 0,0.49032 -0.67401,0.67993 -0.74618,0.20991 z m 3.215615,-0.47287 c 0,-0.393418 0.149,-0.623218 0.3311,-0.510668 0.1821,0.11254 0.51159,-0.0765 0.73219,-0.42016 0.37834,-0.58933 0.38958,-0.58812 0.19807,0.0215 -0.11166,0.35542 -0.20302,0.775 -0.20302,0.932398 0,0.1574 -0.23813,0.37755 -0.52917,0.48924 -0.36315,0.13935 -0.52917,-0.0213 -0.52917,-0.51224 z m 16.22778,-0.756428 c 0,-0.99161 -1.1695,-5.424729 -1.58915,-6.023869 -0.29013,-0.414221 -0.52752,-0.955933 -0.52752,-1.203805 0,-0.666693 0.69128,-0.546848 0.96148,0.166691 0.12857,0.339549 0.41234,0.798389 0.63059,1.019644 0.66922,0.678424 1.41959,5.370239 0.93618,5.853639 -0.22637,0.22637 -0.41158,0.31083 -0.41158,0.1877 z m -15.83983,-1.57213 c -0.0193,-0.61914 0.12358,-1.22382 0.31761,-1.34373 0.40569,-0.25073 0.40569,0.32074 0,1.5875 -0.26974,0.84225 -0.28403,0.83128 -0.31761,-0.24377 z m 10.21389,0.53775 c -0.0102,-0.32338 0.17993,-0.68057 0.42247,-0.79375 0.35211,-0.16432 0.35167,-0.24741 -0.002,-0.41231 -0.24375,-0.11359 -0.34752,-0.36129 -0.23061,-0.55046 0.11692,-0.18917 0.0132,-0.825266 -0.23048,-1.413562 -0.36745,-0.887106 -0.3582,-1.123336 0.0542,-1.384417 0.40875,-0.258755 0.39409,-0.315753 -0.0823,-0.320195 -0.31879,-0.0028 -0.67972,-0.266248 -0.80206,-0.585061 -0.12234,-0.318812 -0.31248,-0.489609 -0.42254,-0.37955 -0.11006,0.11006 -0.89089,-0.32718 -1.73518,-0.971642 -0.8443,-0.644465 -1.72682,-1.235664 -1.96118,-1.313783 -0.23435,-0.07812 -0.35951,-0.341792 -0.27812,-0.585943 0.10092,-0.302771 0.62248,-0.100174 1.64041,0.637212 0.82085,0.594618 1.49245,0.981315 1.49245,0.859328 0,-0.12199 0.218,-0.04087 0.48445,0.180263 0.5313,0.440937 1.63222,0.173429 1.63222,-0.396607 0,-0.206485 0.22416,-0.172198 0.52916,0.08094 0.80176,0.665392 0.6984,1.526505 -0.13,1.083159 -1.03868,-0.555883 -1.14542,-0.03793 -0.20189,0.979625 0.47358,0.510741 0.84853,1.08899 0.83321,1.285 -0.0153,0.196011 -0.10825,0.156958 -0.20652,-0.08679 -0.0983,-0.243744 -0.32386,-0.353437 -0.50132,-0.243762 -0.5666,0.350178 -0.34638,0.863321 0.3705,0.863321 0.87578,0 1.43538,1.025814 1.3826,2.534444 -0.0225,0.64335 -0.11352,0.89191 -0.20226,0.55236 -0.2174,-0.83193 -0.61783,-0.77686 -1.28278,0.17639 -0.4405,0.63148 -0.55748,0.67355 -0.5722,0.20579 z m 1.569,-1.70509 c 0.11991,-0.19403 0.0499,-0.35278 -0.15557,-0.35278 -0.20548,0 -0.3736,0.15875 -0.3736,0.35278 0,0.19402 0.07,0.35277 0.15557,0.35277 0.0856,0 0.25368,-0.15875 0.3736,-0.35277 z m -3.35139,1.02893 c 0,-0.85974 0.82436,-0.73821 0.996,0.14683 0.0675,0.3481 -0.11245,0.58812 -0.44097,0.58812 -0.32725,0 -0.55503,-0.30162 -0.55503,-0.73495 z M 68.627895,95.658057 c -1.4508,-1.571512 -1.80049,-2.20188 -1.22146,-2.20188 0.34467,0 3.60271,3.280995 3.60271,3.628095 0,0.65838 -1.0217,0.0465 -2.38125,-1.426215 z m 35.430645,1.449375 c -0.13259,-0.13259 -0.24106,-0.47992 -0.24106,-0.77186 0,-0.29193 -0.26273,-0.821095 -0.58385,-1.175923 -0.32111,-0.354827 -0.40986,-0.645139 -0.1972,-0.645139 0.21264,0 0.48474,0.15875 0.60466,0.352778 0.11991,0.194028 0.4231,0.352778 0.67375,0.352778 0.33544,0 0.43216,-0.614733 0.36644,-2.329127 -0.0491,-1.281018 0.0444,-2.19383 0.2077,-2.028473 0.33927,0.343472 0.47017,3.330512 0.21224,4.842934 -0.19195,1.125512 -0.67273,1.771982 -1.04268,1.402032 z m 6.34412,-1.416997 c -0.12935,-0.129349 -0.23036,-0.486537 -0.22446,-0.79375 0.009,-0.458717 0.0777,-0.443477 0.38512,0.08526 0.37986,0.653235 0.26973,1.138887 -0.16066,0.708494 z m 3.64537,-0.117591 c 0,-0.194028 0.16812,-0.352778 0.3736,-0.352778 0.20548,0 0.27548,0.15875 0.15557,0.352778 -0.11992,0.194028 -0.28804,0.352778 -0.3736,0.352778 -0.0856,0 -0.15557,-0.15875 -0.15557,-0.352778 z m -13.23516,-1.773587 c -0.12713,-0.205694 -0.0771,-0.565471 0.11128,-0.799504 0.18832,-0.234036 0.45008,-0.929404 0.58168,-1.545258 0.17458,-0.817002 0.51942,-1.217398 1.27546,-1.480954 1.26734,-0.441798 1.31453,-0.09573 0.1572,1.153047 -0.48344,0.521642 -0.97727,1.340072 -1.09741,1.818735 -0.25493,1.015736 -0.69985,1.385239 -1.02821,0.853934 z m 7.46182,-0.548707 c -0.55596,-0.48889 -0.9429,-0.956832 -0.85986,-1.039873 0.083,-0.08304 0.69667,0.315521 1.36362,0.885698 0.66695,0.570178 1.05389,1.03812 0.85986,1.039873 -0.19403,0.0018 -0.80766,-0.396812 -1.36362,-0.885698 z m 5.63661,0.04025 c -0.3218,-0.491126 -0.42826,-0.892954 -0.23659,-0.892954 0.39112,0 1.22316,1.384423 0.97886,1.628722 -0.0865,0.08645 -0.42048,-0.244645 -0.74227,-0.735768 z M 63.980925,91.996263 c -0.83481,-0.67599 -1.23395,-1.287428 -2.54426,-3.897518 -0.35908,-0.715271 -0.81279,-1.399325 -1.00825,-1.520126 -0.19546,-0.120802 -0.35538,-0.772979 -0.35538,-1.449286 0,-0.919081 -0.31052,-1.559796 -1.22947,-2.536821 -3.29482,-3.503031 -4.41497,-4.837 -4.41497,-5.257719 0,-0.85035 0.72988,-0.46874 2.39805,1.253775 2.81608,2.907846 3.56975,4.001898 4.15447,6.030779 0.72344,2.510229 2.38194,5.424901 3.50593,6.161363 0.85321,0.559047 1.15096,1.406585 0.61131,1.740105 -0.14649,0.09054 -0.64933,-0.14551 -1.11743,-0.524552 z m 47.000405,-2.869738 c -1.12672,-1.023113 -2.72326,-2.314703 -3.54788,-2.870201 -1.52468,-1.027087 -1.89369,-1.619592 -1.00866,-1.619592 0.84425,0 3.81834,2.262297 4.41823,3.360808 0.31504,0.576901 0.88724,1.103687 1.27155,1.17063 0.91078,0.158655 1.58068,0.72341 1.58068,1.33259 0,0.845862 -0.60811,0.537933 -2.71392,-1.374235 z m -2.53059,-0.126605 c -0.65316,-0.284981 -1.0954,-0.610313 -0.98275,-0.722962 0.20735,-0.207356 2.69949,0.843993 2.69949,1.138827 0,0.249442 -0.43141,0.144938 -1.71674,-0.415865 z m -5.25063,-0.01071 c -0.24253,-0.09786 -0.44097,-0.393831 -0.44097,-0.657701 0,-0.653497 -1.3024,-1.518536 -2.961455,-1.966973 l -1.37397,-0.371376 0.7533,-0.753308 c 0.53113,-0.531125 1.144465,-0.737249 2.079515,-0.698874 1.48177,0.06082 3.78657,0.921343 4.18219,1.561476 0.18357,0.297007 0.0628,0.338046 -0.41685,0.141711 -0.37137,-0.152002 -0.99273,-0.349511 -1.38078,-0.438912 -0.68779,-0.158458 -0.68876,-0.148887 -0.0382,0.380079 0.36706,0.298443 0.84331,0.605991 1.05833,0.68344 0.21502,0.07745 0.28548,0.254787 0.15658,0.394084 -0.12891,0.139295 -0.57907,0.06879 -1.00036,-0.156675 -0.42129,-0.225468 -0.84625,-0.329668 -0.94437,-0.231557 -0.3396,0.339602 0.28847,1.642668 0.79176,1.642668 0.27796,0 0.50539,0.15875 0.50539,0.352778 0,0.375323 -0.25703,0.406887 -0.97014,0.11914 z m -0.97013,-3.294141 c -0.27556,-0.445861 -1.25036,-0.445861 -1.94028,0 -0.392805,0.253856 -0.18292,0.343366 0.81457,0.347377 0.80714,0.0032 1.25667,-0.135473 1.12571,-0.347377 z M 47.284845,69.787316 c -1.71063,-1.463135 -2.05931,-2.214005 -1.18408,-2.54986 0.51349,-0.197048 1.45835,0.677041 2.49347,2.306722 1.03703,1.632681 0.44395,1.742807 -1.30939,0.243138 z m -2.02847,-3.163073 c 0,-0.205478 0.15875,-0.275484 0.35277,-0.155567 0.19403,0.119916 0.35278,0.288036 0.35278,0.373598 0,0.08556 -0.15875,0.155568 -0.35278,0.155568 -0.19402,0 -0.35277,-0.16812 -0.35277,-0.373599 z m -10.17577,-6.589169 c -1.43353,-2.203768 -0.87747,-2.859483 0.80701,-0.951632 0.67402,0.763407 1.23211,1.665824 1.24018,2.005372 0.027,1.136386 -0.9495,0.633741 -2.04719,-1.05374 z m -7.8159,-34.312234 c 0,-0.194028 0.15875,-0.352778 0.35278,-0.352778 0.19402,0 0.35277,0.15875 0.35277,0.352778 0,0.194028 -0.15875,0.352778 -0.35277,0.352778 -0.19403,0 -0.35278,-0.15875 -0.35278,-0.352778 z"
       style="fill:#000000;stroke-width:0.35277778" />
  </g>
</svg>
