<?xml version="1.0" encoding="UTF-8" standalone="no"?>
<svg
   xmlns:dc="http://purl.org/dc/elements/1.1/"
   xmlns:cc="http://creativecommons.org/ns#"
   xmlns:rdf="http://www.w3.org/1999/02/22-rdf-syntax-ns#"
   xmlns:svg="http://www.w3.org/2000/svg"
   xmlns="http://www.w3.org/2000/svg"
   id="svg8662"
   version="1.1"
   viewBox="0 0 50.373596 102.28185"
   height="102.28185mm"
   width="50.373596mm">
  <defs
     id="defs8656" />
  <metadata
     id="metadata8659">
    <rdf:RDF>
      <cc:Work
         rdf:about="">
        <dc:format>image/svg+xml</dc:format>
        <dc:type
           rdf:resource="http://purl.org/dc/dcmitype/StillImage" />
        <dc:title></dc:title>
      </cc:Work>
    </rdf:RDF>
  </metadata>
  <g
     transform="translate(-36.376612,-92.895283)"
     id="layer1">
    <path
       id="path9269"
       d="m 37.03462,194.70337 c -0.565574,-0.68147 -0.889024,-2.89121 -0.461846,-3.15522 0.194973,-0.1205 0.446223,0.40196 0.572216,1.18988 0.167299,1.04622 0.389938,1.4047 0.872429,1.4047 0.715209,0 1.456844,-1.52073 2.135219,-4.37827 0.687325,-2.89524 -0.725881,-3.22077 -2.12556,-0.48962 -1.114011,2.17374 -1.266862,0.98447 -0.170954,-1.33012 0.503943,-1.06434 0.91626,-2.17939 0.91626,-2.47789 0,-0.29849 0.170083,-0.86051 0.377962,-1.24894 0.20788,-0.38843 0.496774,-3.35455 0.641987,-6.59139 0.255517,-5.69554 0.300149,-5.95337 1.38517,-8.00183 0.61663,-1.16417 1.121486,-2.47895 1.121902,-2.92175 4.23e-4,-0.44279 0.259501,-1.39529 0.575744,-2.11667 0.601626,-1.37235 0.744366,-2.01121 1.672395,-7.48519 1.362007,-8.0338 1.369975,-8.11005 0.905985,-8.66913 -0.597867,-0.72038 -0.509318,-3.2068 0.171417,-4.81329 0.305675,-0.72138 0.555771,-1.64937 0.555771,-2.06221 0,-0.41284 0.336497,-1.22319 0.747771,-1.80077 0.411273,-0.57758 0.967214,-1.7793 1.235423,-2.6705 0.268209,-0.89119 0.905664,-2.33362 1.416566,-3.20541 0.864265,-1.47476 0.901044,-1.70581 0.528466,-3.31991 -0.447364,-1.93809 -0.510247,-3.86604 -0.179962,-5.51746 0.397816,-1.98908 0.678666,-1.15725 0.669986,1.98437 -0.01384,5.01095 0.127481,5.34003 2.95425,6.87917 2.751637,1.49823 3.09426,1.57103 3.320433,0.70555 0.129085,-0.49396 0.169513,-0.46848 0.202256,0.12747 0.03385,0.616 0.208726,0.71299 1.011062,0.56073 2.02964,-0.38515 6.68344,-6.55559 6.2492,-8.28576 -0.11009,-0.43862 -0.0433,-1.19064 0.14844,-1.67115 0.19174,-0.48051 0.35867,-0.65577 0.37097,-0.38948 0.0149,0.32316 0.169,0.37689 0.46333,0.16158 0.24254,-0.17742 1.39348,-0.34394 2.55764,-0.37004 l 2.11667,-0.0474 -1.94028,0.41503 c -2.46564,0.52742 -2.69569,0.68965 -2.95922,2.08684 -0.11935,0.63274 -0.79843,2.10293 -1.50908,3.26709 -1.07791,1.76583 -1.29121,2.43828 -1.28682,4.05695 0.01,3.69757 0.39273,6.74538 0.92204,7.34321 0.7897,0.89194 1.61663,3.65067 1.41323,4.71471 -0.10698,0.55962 0.1849,1.84785 0.72398,3.19533 0.85066,2.12631 1.38913,6.98498 0.83548,7.53862 -0.10784,0.10784 0.18726,0.76094 0.65577,1.45133 0.49415,0.72817 0.85184,1.76721 0.85184,2.47449 0,0.67057 0.32334,1.67331 0.71853,2.22831 1.21833,1.71099 2.07577,4.00205 2.7853,7.4423 0.37424,1.81456 0.79468,3.6167 0.93432,4.00476 0.6241,1.73445 2.20562,3.63867 3.96139,4.76969 2.69974,1.73909 3.84443,4.74851 2.15094,5.65484 -1.02614,0.54917 -2.11525,0.19511 -3.84486,-1.24994 -0.81439,-0.6804 -1.67921,-1.23709 -1.92182,-1.23709 -0.8595,0 -1.74792,-1.46675 -2.36845,-3.91023 -0.64032,-2.52141 -1.18548,-3.50653 -3.49763,-6.32033 -1.53327,-1.86593 -2.30332,-3.57353 -2.64799,-5.87198 -0.18206,-1.21408 -0.5232,-1.8957 -1.25836,-2.51429 -0.55472,-0.46677 -1.00859,-1.07484 -1.00859,-1.35126 0,-0.27643 -0.1551,-0.77826 -0.34467,-1.11517 -0.18956,-0.33692 -0.50924,-1.27261 -0.71038,-2.07932 -0.20114,-0.8067 -0.98476,-2.21586 -1.74136,-3.13145 -0.75661,-0.9156 -1.550471,-2.35901 -1.764143,-3.20757 -0.423933,-1.68359 -0.570277,-1.77545 -1.594551,-1.00081 -0.377877,0.28578 -0.939436,0.4395 -1.247909,0.34159 -0.441272,-0.14005 -0.801443,0.55598 -1.689192,3.26437 -0.735506,2.24392 -1.611625,4.08558 -2.516512,5.28987 -0.763498,1.01612 -1.578846,2.4436 -1.811885,3.17217 -0.233038,0.72858 -0.698962,1.88031 -1.035387,2.55941 -1.595342,3.22031 -2.124565,4.71508 -2.124565,6.00076 0,0.76768 -0.561514,3.02562 -1.247808,5.01765 -0.686294,1.99202 -1.335134,4.57436 -1.441865,5.73853 -0.106732,1.16417 -0.577093,3.11052 -1.045248,4.32524 -0.468155,1.21472 -0.85119,2.58439 -0.85119,3.04372 0,1.2481 -0.964329,3.31563 -1.740115,3.73082 -0.911636,0.48789 -1.269185,0.46106 -1.761538,-0.13219 z m 4.152083,-8.43172 c 0.31844,-0.3837 0.477529,-3.74281 0.358246,-7.56427 -0.01365,-0.43729 0.09392,-1.07229 0.23904,-1.41111 0.145121,-0.33883 0.288585,-1.1721 0.318808,-1.85172 0.03656,-0.82203 0.374022,-1.55474 1.008103,-2.18883 0.889822,-0.88982 1.379829,-2.70167 0.600373,-2.21994 -0.194028,0.11992 -0.352778,0.47324 -0.352778,0.78517 0,0.31193 -0.100743,0.4664 -0.223873,0.34327 -0.123131,-0.12313 -0.01842,-0.71987 0.232684,-1.3261 0.642926,-1.55216 -0.139174,-2.01896 -1.29433,-0.77252 -1.1749,1.26773 -1.438473,2.67314 -1.703644,9.08407 -0.128408,3.10444 -0.381501,5.79526 -0.56243,5.97958 -0.18093,0.18433 -0.328963,0.62089 -0.328963,0.97014 0,0.74823 1.135728,0.86272 1.708764,0.17226 z m 36.562595,-1.99856 c 0.11715,-0.18955 0.042,-0.97961 -0.16696,-1.7557 -0.30288,-1.12482 -0.70339,-1.6006 -1.9744,-2.34546 l -1.59445,-0.93441 -0.86222,0.81002 c -0.47422,0.4455 -0.9757,0.69652 -1.1144,0.55782 -0.1387,-0.13871 0.21786,-0.63633 0.79236,-1.10584 0.80455,-0.65751 0.9027,-0.85656 0.42718,-0.86633 -0.38157,-0.008 -0.61736,-0.28689 -0.61736,-0.73065 0,-0.39489 -0.22058,-1.06957 -0.49018,-1.49931 -0.26961,-0.42974 -0.68576,-1.65446 -0.92478,-2.72162 -1.28215,-5.72444 -2.3184,-8.70432 -3.40465,-9.79057 -0.45366,-0.45366 -0.82483,-0.97138 -0.82483,-1.1505 0,-0.17912 -0.24498,-0.23166 -0.5444,-0.11677 -0.49067,0.18829 -0.49067,0.26827 0,0.81046 0.82842,0.91539 0.6531,1.14949 -0.43822,0.58515 -0.54043,-0.27947 -1.2094,-0.95823 -1.48659,-1.50837 -0.27719,-0.55012 -0.78751,-1.42161 -1.13405,-1.93663 -0.38563,-0.57311 -0.63007,-1.58821 -0.63007,-2.61644 0,-2.00263 0.45745,-1.80838 0.56196,0.23863 0.0454,0.88839 0.3535,1.72828 0.81385,2.21831 0.40747,0.43373 0.74085,1.13555 0.74085,1.55961 0,0.97996 0.17126,0.96788 1.31505,-0.0927 0.82225,-0.76243 0.88338,-0.96928 0.52134,-1.76389 -0.22558,-0.4951 -0.56732,-0.90018 -0.75942,-0.90018 -0.1921,0 -0.25789,-0.23812 -0.14621,-0.52916 0.12859,-0.33509 -0.005,-0.52917 -0.36385,-0.52917 -0.69773,0 -0.71869,-0.30304 -0.0713,-1.03055 0.38693,-0.43481 0.437,-1.13718 0.22832,-3.20278 -0.24967,-2.47143 -1.54813,-6.35 -2.12584,-6.35 -1.62429,0 -6.00592,3.15541 -6.00625,4.32537 -3.5e-4,1.25999 1.55572,3.87442 3.04884,5.12251 1.53167,1.28032 2.01342,2.09927 1.00793,1.71343 -0.65575,-0.25164 -0.66719,-0.38405 0.17927,2.07623 0.74744,2.17245 1.56449,3.34301 2.33343,3.34301 0.50916,0 3.51443,3.79186 3.23039,4.0759 -0.0971,0.0971 -0.60373,-0.3833 -1.12573,-1.06768 -1.24519,-1.63253 -1.7665,-1.61339 -1.45381,0.0534 0.37811,2.01551 1.51894,4.15488 2.66903,5.00519 0.94644,0.69973 1.04511,0.71369 1.03111,0.14585 -0.009,-0.34536 -0.23949,-1.25685 -0.51328,-2.02553 -0.27378,-0.76868 -0.43486,-1.46053 -0.35796,-1.53743 0.18859,-0.1886 1.23314,2.34477 1.26429,3.06631 0.0136,0.31586 0.17005,0.89178 0.34758,1.27984 0.21489,0.46972 0.26414,-0.11987 0.14734,-1.76389 -0.13194,-1.85731 -0.0867,-2.26455 0.18237,-1.64287 0.57963,1.33903 0.89587,4.79859 0.41127,4.49909 -0.62739,-0.38774 -0.48279,0.82492 0.30551,2.56216 0.38379,0.84581 0.70941,1.87769 0.72359,2.29306 0.049,1.43504 1.18369,2.83945 2.55645,3.1641 0.71407,0.16888 1.29832,0.51004 1.29832,0.75814 0,0.99682 2.50396,2.04308 2.99358,1.25085 z m -9.315,-16.88807 c -0.20975,-0.39192 -0.37514,-1.00083 -0.36755,-1.35313 0.008,-0.38342 0.22286,-0.15888 0.53458,0.55936 0.57186,1.3176 0.44245,1.93259 -0.16703,0.79377 z m -8.26796,-11.6163 c -0.15812,-0.63577 -0.68439,-1.86608 -1.16949,-2.73403 -0.4851,-0.86794 -0.70968,-1.57808 -0.49907,-1.57808 0.21062,0 0.38294,0.1366 0.38294,0.30355 0,0.16695 0.40546,0.90103 0.90103,1.63129 0.60629,0.89343 0.86358,1.68846 0.78655,2.43048 l -0.11447,1.10274 z m -15.750806,18.10692 c 0.0019,-1.55559 -0.534732,-0.72264 -1.376917,2.13706 -1.094794,3.71747 -0.895043,4.65331 0.330727,1.54947 0.574692,-1.45521 1.045477,-3.11415 1.04619,-3.68653 z m 1.412408,-5.05878 c 0,-0.33593 -0.251551,-0.20227 -0.705556,0.3749 -0.388056,0.49334 -0.705556,1.0156 -0.705556,1.16059 0,0.14499 0.3175,-0.0237 0.705556,-0.3749 0.388056,-0.35119 0.705556,-0.87345 0.705556,-1.16059 z m -0.705556,-0.83396 c 0,-0.55978 -1.117229,-0.77402 -1.426535,-0.27355 -0.439575,0.71125 0.320647,1.51201 0.944175,0.99453 0.265298,-0.22018 0.48236,-0.54462 0.48236,-0.72098 z m -1.385244,-1.70962 c 0.179801,0 0.326911,0.14024 0.326911,0.31163 0,0.62157 1.447641,0.70973 1.674042,0.10196 0.120875,-0.32449 0.496974,-0.78967 0.835778,-1.03373 0.338802,-0.24407 1.03292,-1.35532 1.542482,-2.46945 0.509562,-1.11413 1.297917,-2.42256 1.751901,-2.90763 0.862933,-0.92202 1.840376,-3.10164 2.825379,-6.30037 0.551487,-1.79092 0.548589,-1.92867 -0.05494,-2.61156 -0.69606,-0.78758 -4.624376,-3.4353 -5.09682,-3.4353 -0.563797,0 -1.351176,2.54908 -1.72476,5.58378 -0.207136,1.6826 -0.605347,4.16418 -0.884914,5.51462 -0.335443,1.62034 -0.389535,2.5741 -0.159058,2.80458 0.443202,0.4432 0.457935,1.02251 0.01911,0.75129 -0.181576,-0.11221 -0.436039,0.50217 -0.565473,1.36529 -0.171116,1.14109 -0.369826,1.51772 -0.728195,1.3802 -0.365909,-0.14042 -0.482319,0.11592 -0.451938,0.99514 0.02251,0.65135 0.113523,0.90646 0.202256,0.56691 0.08873,-0.33955 0.308443,-0.61736 0.488244,-0.61736 z m 2.531772,-4.46852 c -0.769974,-0.30799 -0.475597,-0.82315 0.47037,-0.82315 0.546703,0 0.855471,0.16762 0.771702,0.41893 -0.165432,0.49629 -0.632161,0.64819 -1.242072,0.40422 z m 1.698055,-1.48669 c -0.03279,-0.71434 3.492695,-7.80312 3.88075,-7.80312 0.181623,0 0.330223,0.06 0.330223,0.1333 0,0.4712 -1.319175,3.13057 -2.360086,4.75778 -0.678493,1.06065 -1.367476,2.25938 -1.531074,2.66383 -0.163598,0.40445 -0.307514,0.51614 -0.319813,0.24821 z m 9.855421,-12.03646 c 0,-0.19403 -0.23813,-0.35278 -0.52917,-0.35278 -0.291042,0 -0.529167,0.15875 -0.529167,0.35278 0,0.19403 0.238125,0.35278 0.529167,0.35278 0.29104,0 0.52917,-0.15875 0.52917,-0.35278 z m -9.877782,-1.05833 c 0,-0.19403 -0.168119,-0.35278 -0.373597,-0.35278 -0.205479,0 -0.275485,0.15875 -0.155569,0.35278 0.119916,0.19403 0.288034,0.35278 0.373597,0.35278 0.08556,0 0.155569,-0.15875 0.155569,-0.35278 z m 9.877782,0 c 0,-0.19403 -0.16812,-0.35278 -0.3736,-0.35278 -0.20548,0 -0.275486,0.15875 -0.15557,0.35278 0.11992,0.19403 0.28803,0.35278 0.3736,0.35278 0.0856,0 0.15557,-0.15875 0.15557,-0.35278 z m -7.231948,-1.76389 c -0.119916,-0.19403 -0.36741,-0.35278 -0.549987,-0.35278 -0.182577,0 -0.331958,0.15875 -0.331958,0.35278 0,0.19403 0.247494,0.35278 0.549987,0.35278 0.302492,0 0.451874,-0.15875 0.331958,-0.35278 z m 2.645833,-0.15557 c 0,-0.37235 -0.67702,-0.52878 -0.878388,-0.20296 -0.121872,0.19719 0.02591,0.35853 0.328402,0.35853 0.302492,0 0.549986,-0.07 0.549986,-0.15557 z m 7.265025,-1.66184 c 0.1381,-0.22346 -0.0394,-0.61869 -0.3944,-0.8783 -0.7925,-0.57948 -1.01052,-0.40874 -0.70545,0.55246 0.25757,0.81152 0.71578,0.94727 1.09985,0.32584 z m -8.746065,-2.25213 c -0.217856,-0.47814 -0.529369,-0.86935 -0.692253,-0.86935 -0.162883,0 -0.296151,-0.15694 -0.296151,-0.34874 0,-0.54208 -1.14971,-1.75309 -1.47404,-1.55265 -0.491953,0.30405 -0.320148,0.84306 0.268715,0.84306 0.687697,0 0.460352,0.87346 -0.235185,0.90358 -0.274872,0.0119 -0.684073,-0.11486 -0.909333,-0.28171 -0.233091,-0.17265 -0.497392,-0.16125 -0.613394,0.0265 -0.222278,0.35965 1.033617,0.86765 1.943501,0.78612 0.31227,-0.028 0.835182,0.35726 1.162026,0.85609 0.738175,1.12659 1.39618,0.84442 0.846114,-0.36285 z m 2.186596,0.73056 c 0,-0.0902 -0.357188,-0.3543 -0.79375,-0.58692 -0.719745,-0.38351 -0.748609,-0.36822 -0.309582,0.16398 0.450788,0.54646 1.103332,0.7966 1.103332,0.42294 z m 7.761109,0.008 c 0,-0.37235 -0.67702,-0.52878 -0.87839,-0.20297 -0.12187,0.19721 0.0259,0.35855 0.32841,0.35855 0.30249,0 0.54998,-0.07 0.54998,-0.15557 z m -1.79724,-1.2041 c -0.52137,-0.17919 -0.78622,0.18422 -0.48704,0.6683 0.18967,0.3069 0.3327,0.29017 0.55319,-0.0647 0.17466,-0.28114 0.14737,-0.53019 -0.0661,-0.60358 z m -1.02498,-0.0514 c 0,-0.19403 -0.16812,-0.35278 -0.3736,-0.35278 -0.20548,0 -0.27548,0.15875 -0.15557,0.35278 0.11992,0.19403 0.28804,0.35278 0.3736,0.35278 0.0856,0 0.15557,-0.15875 0.15557,-0.35278 z m -6.152844,-1.9515 c -0.694031,-0.52494 -1.25549,-0.6726 -1.25549,-0.33019 0,0.17143 1.347149,0.81067 1.763889,0.837 0.09701,0.006 -0.131765,-0.22194 -0.508399,-0.50681 z m 5.843844,-0.25924 c -0.34841,-0.34582 -0.38893,-0.3053 -0.19749,0.19748 0.13248,0.34792 0.32974,0.54371 0.43836,0.43509 0.10861,-0.10861 2.2e-4,-0.39327 -0.24087,-0.63257 z m -4.982667,-1.62662 c 0,-0.55833 -0.235494,-1.21058 -0.52332,-1.44946 -0.435072,-0.36107 -0.587306,-0.26602 -0.902758,0.56368 -0.314693,0.82771 -0.274088,1.07503 0.237969,1.44946 0.9278,0.67842 1.188109,0.55492 1.188109,-0.56368 z m 7.584727,-2.51264 c 0.11991,-0.19403 -0.0295,-0.35278 -0.33196,-0.35278 -0.3025,0 -0.54999,0.15875 -0.54999,0.35278 0,0.19403 0.14938,0.35278 0.33196,0.35278 0.18258,0 0.43007,-0.15875 0.54999,-0.35278 z m -7.231949,-1.39029 c 0,-0.39951 0.15875,-0.72638 0.352777,-0.72638 0.194028,0 0.352778,0.22876 0.352778,0.50835 0,0.27959 -0.15875,0.60646 -0.352778,0.72637 -0.194027,0.11992 -0.352777,-0.10884 -0.352777,-0.50834 z m 2.834723,0.42015 c 0.0069,-0.14552 0.239375,-0.66146 0.516666,-1.14653 0.36008,-0.62989 0.50774,-0.71375 0.51667,-0.29344 0.0176,0.82861 -0.35795,1.70455 -0.730803,1.70455 -0.173268,0 -0.309409,-0.11906 -0.302533,-0.26458 z m 2.280556,-1.49931 c -0.11992,-0.19402 -0.0896,-0.35494 0.0674,-0.35759 0.15697,-0.003 0.68228,-0.10955 1.16735,-0.23757 0.79187,-0.20898 0.8325,-0.17245 0.39778,0.3576 -0.54205,0.66092 -1.30246,0.77157 -1.6325,0.23756 z m -3.35139,-0.70555 c 0,-0.19403 0.149381,-0.35278 0.331958,-0.35278 0.182576,0 0.43007,0.15875 0.549986,0.35278 0.119916,0.19403 -0.02946,0.35278 -0.331958,0.35278 -0.302492,0 -0.549986,-0.15875 -0.549986,-0.35278 z m 2.14452,-0.91134 c 0.0169,-0.41097 0.10052,-0.49456 0.21313,-0.21314 0.10191,0.25466 0.0894,0.55893 -0.0279,0.67616 -0.11722,0.11722 -0.2006,-0.0911 -0.18528,-0.46302 z m -5.872462,-1.99908 c -0.13624,-0.43656 -0.423424,-0.9062 -0.638185,-1.04364 -0.279844,-0.17909 -0.266373,-0.374 0.04755,-0.68792 0.348846,-0.34884 0.438023,-0.31592 0.438023,0.1617 0,0.32985 0.124125,0.59972 0.275834,0.59972 0.151709,0 0.308681,0.39688 0.348826,0.88195 0.09077,1.09672 -0.143643,1.14051 -0.472046,0.0882 z m 2.669608,-0.22684 c 0,-0.17327 0.26058,-0.41503 0.579065,-0.53724 0.484178,-0.1858 0.506003,-0.13418 0.133193,0.31503 -0.508044,0.61216 -0.712258,0.67587 -0.712258,0.22221 z m 5.291664,-0.0377 c 0,-0.19403 0.16812,-0.35278 0.3736,-0.35278 0.20548,0 0.27549,0.15875 0.15557,0.35278 -0.11992,0.19403 -0.28803,0.35278 -0.3736,0.35278 -0.0856,0 -0.15557,-0.15875 -0.15557,-0.35278 z m -0.86319,-1.6757 c 0.27834,-0.53357 0.50705,-1.31795 0.50824,-1.74307 0.001,-0.42511 0.16093,-0.87104 0.35495,-0.99095 0.45443,-0.28085 0.44674,0.70583 -0.0186,2.38125 -0.20206,0.7276 -0.58864,1.32291 -0.85905,1.32291 -0.41688,0 -0.41468,-0.14757 0.0144,-0.97014 z m 3.68542,0.59654 c 0,-0.20547 0.15875,-0.27548 0.35277,-0.15556 0.19403,0.11991 0.35278,0.28803 0.35278,0.37359 0,0.0856 -0.15875,0.15557 -0.35278,0.15557 -0.19402,0 -0.35277,-0.16812 -0.35277,-0.3736 z m -9.877783,-1.01669 c 0,-0.8518 0.196184,-0.93774 0.476016,-0.20851 0.109299,0.28483 0.04691,0.6117 -0.138645,0.72638 -0.185554,0.11468 -0.337371,-0.11836 -0.337371,-0.51787 z m 3.513487,0.006 c 0.402882,-0.7528 1.072626,-0.99749 1.072626,-0.3919 0,0.1872 -0.329518,0.51672 -0.73226,0.73226 -0.669952,0.35855 -0.698913,0.32959 -0.340366,-0.34037 z m -4.569647,-1.10581 c -0.0012,-0.30246 0.230903,-0.85809 0.515774,-1.23472 0.673858,-0.89092 0.680535,-0.505 0.01339,0.77419 -0.289847,0.55576 -0.527972,0.76299 -0.529167,0.46053 z m 9.346443,-0.33201 c -0.11992,-0.19403 -0.0499,-0.35278 0.15556,-0.35278 0.20548,0 0.3736,0.15875 0.3736,0.35278 0,0.19403 -0.07,0.35278 -0.15557,0.35278 -0.0856,0 -0.25368,-0.15875 -0.37359,-0.35278 z m -2.64584,-0.30958 c 0,-0.17027 0.26412,-0.52746 0.58693,-0.79375 0.5322,-0.43903 0.54749,-0.41016 0.16397,0.30958 -0.43741,0.8209 -0.7509,1.02303 -0.7509,0.48417 z m 12.34722,-0.21959 c 0.24155,-0.29104 0.60567,-0.52916 0.80917,-0.52916 0.2035,0 0.65381,-0.25685 1.00069,-0.57077 0.34688,-0.31392 1.15313,-0.67699 1.79167,-0.80681 0.84001,-0.17079 1.19233,-0.45332 1.27439,-1.02197 0.0624,-0.43225 0.24726,-0.7032 0.41084,-0.6021 0.16359,0.1011 0.64144,-0.37279 1.06189,-1.0531 0.42045,-0.68031 0.92962,-1.23692 1.13149,-1.23692 0.20187,0 0.10734,0.35719 -0.21006,0.79375 -0.3174,0.43656 -0.92997,1.29797 -1.36126,1.91424 -0.46052,0.65802 -1.80536,1.64305 -3.2583,2.38656 -2.67941,1.37111 -3.33469,1.55067 -2.65052,0.72628 z m -6.35,-1.40004 c 0,-0.62917 0.14687,-0.81451 0.52917,-0.66781 0.60364,0.23164 0.60311,0.22997 0.31504,0.98067 -0.32797,0.85465 -0.84421,0.66334 -0.84421,-0.31286 z M 50.217282,122.4644 c -0.464567,-1.46372 -0.215494,-4.3306 0.515458,-5.93301 0.398282,-0.87312 0.727635,-2.11132 0.731896,-2.75155 0.0095,-1.43124 0.788394,-3.00497 2.348878,-4.74599 0.652656,-0.72817 1.186648,-1.48852 1.186648,-1.68967 0,-0.20115 0.595313,-0.97148 1.322917,-1.71185 0.727604,-0.74036 2.648059,-2.71265 4.267669,-4.38287 1.61961,-1.670215 3.28649,-3.138455 3.70417,-3.262755 0.41767,-0.1243 1.12537,-0.457 1.57264,-0.73933 0.44728,-0.28233 1.32041,-0.46424 1.94028,-0.40424 0.99199,0.096 0.78885,0.23295 -1.69518,1.14269 -2.37544,0.86998 -3.1573,1.37434 -4.93888,3.185975 -4.199013,4.26983 -5.782186,6.38248 -7.015956,9.36237 -0.465402,1.12407 -0.51512,1.15568 -0.554781,0.35278 -0.04118,-0.83373 -0.08052,-0.81444 -0.719546,0.35277 -0.725848,1.32581 -0.90452,2.46945 -0.385805,2.46945 0.442371,0 0.05176,1.40581 -0.686151,2.46944 -0.637502,0.91891 -1.392124,3.25576 -1.395521,4.32153 -0.0011,0.33955 0.214144,0.61736 0.478279,0.61736 0.322789,0 0.424643,0.29087 0.310656,0.88716 -0.229024,1.19806 -0.685848,1.4107 -0.987671,0.45974 z m 16.777326,0.30418 c 0,-0.35689 2.11071,-1.24055 2.28595,-0.95702 0.0965,0.15623 -0.10047,0.36347 -0.43784,0.46053 -0.33736,0.0971 -0.8912,0.29085 -1.23075,0.43063 -0.33955,0.13979 -0.61736,0.16943 -0.61736,0.0659 z m -13.349855,-0.94552 c 0,-0.48507 0.08007,-0.68351 0.177936,-0.44097 0.09786,0.24253 0.09786,0.63941 0,0.88194 -0.09786,0.24253 -0.177936,0.0441 -0.177936,-0.44097 z m 6.305105,0.17639 c 0,-0.38806 0.15389,-0.94368 0.34197,-1.23473 0.28318,-0.43818 0.34197,-0.40785 0.34197,0.17639 0,0.38806 -0.15388,0.94368 -0.34197,1.23473 -0.28318,0.43818 -0.34197,0.40785 -0.34197,-0.17639 z m 4.87897,-2.31298 c -0.78903,-0.68732 -0.79212,-0.70577 -0.0587,-0.35088 0.42576,0.20603 0.87169,0.53249 0.99096,0.72548 0.3468,0.56113 -0.0334,0.40835 -0.93223,-0.3746 z m 5.34078,0.0338 c -0.97412,-0.19406 -1.10426,-0.30397 -0.61657,-0.52077 0.33998,-0.15114 1.03967,-0.169 1.55485,-0.0397 0.83767,0.21024 1.26656,-0.11115 4.05616,-3.03954 1.7157,-1.80106 3.11945,-3.38283 3.11945,-3.51507 0,-0.13223 0.54606,-0.89401 1.21347,-1.69285 0.66741,-0.79883 1.3131,-1.76635 1.43488,-2.15004 0.12178,-0.38369 0.3727,-0.69762 0.55759,-0.69762 0.43511,0 -0.7759,2.20875 -2.32103,4.23334 -1.39544,1.82844 -1.64034,2.09623 -3.84309,4.20234 -0.89537,0.85608 -1.62793,1.81652 -1.62793,2.13431 0,1.3132 -0.93737,1.60166 -3.52778,1.0856 z M 56.411273,118.8538 c 0,-0.30721 0.251354,-0.55856 0.558565,-0.55856 0.62298,0 0.51449,0.75945 -0.139641,0.97749 -0.230408,0.0768 -0.418924,-0.11171 -0.418924,-0.41893 z m 4.118955,0.2678 c -0.13112,-0.13112 -0.2384,-0.50302 -0.2384,-0.82646 0,-0.32343 -0.64926,-1.28916 -1.4428,-2.14606 -0.79354,-0.85691 -1.600864,-1.85074 -1.794049,-2.20853 -0.336994,-0.62413 -0.383153,-0.62055 -1.137574,0.0882 -0.986145,0.92643 -1.270021,0.93039 -1.270021,0.0177 0,-0.48174 0.197127,-0.68662 0.593992,-0.61736 0.378458,0.0661 1.431748,-0.89672 2.902772,-2.65331 1.26983,-1.51633 2.36514,-2.58789 2.43402,-2.38125 0.0689,0.20665 0.50888,0.37572 0.97778,0.37572 0.62551,0 0.85255,0.19344 0.85255,0.72637 0,0.40219 -0.16002,0.62749 -0.35853,0.5048 -0.1972,-0.12188 -0.2461,-0.40906 -0.10867,-0.63819 0.18446,-0.30756 0.11672,-0.31751 -0.25883,-0.038 -0.27978,0.2082 -0.90557,0.39945 -1.39064,0.42498 -0.48507,0.0255 -1.15976,0.3887 -1.4993,0.80705 -0.78357,0.9654 -0.80421,1.62865 -0.0308,0.99024 0.50295,-0.41517 0.5616,-0.40876 0.41157,0.045 -0.0962,0.29104 -0.39985,0.52917 -0.67473,0.52917 -0.64179,0 -1.04918,0.56543 -0.7504,1.04149 0.12759,0.20329 0.23618,0.53539 0.24131,0.738 0.005,0.2026 0.61589,1.07573 1.35725,1.94027 1.29106,1.50559 1.3692,1.54301 1.85208,0.88712 0.61517,-0.83557 0.63652,-1.3348 0.0808,-1.89049 -0.32926,-0.32926 -0.30966,-0.42508 0.0882,-0.43118 0.28134,-0.004 0.90841,-0.33559 1.39348,-0.73617 0.48506,-0.40058 0.67637,-0.62139 0.42511,-0.4907 -0.36182,0.1882 -0.41081,-0.24297 -0.23557,-2.07307 0.208,-2.1722 0.1652,-2.36676 -0.71407,-3.24604 l -0.93534,-0.93533 0.99452,-2.07426 c 0.65425,-1.36457 1.15883,-2.01322 1.47476,-1.89587 0.31602,0.11739 0.41029,-0.004 0.27566,-0.35477 -0.14631,-0.38126 0.0285,-0.53317 0.61363,-0.53317 1.35358,0 3.13368,-0.75566 4.62768,-1.96448 1.57056,-1.270755 3.91779,-2.050905 5.88042,-1.954465 1.59166,0.0782 2.06037,-0.52005 0.84226,-1.07506 -1.11233,-0.50681 -1.10919,-0.55087 0.14356,-2.01556 0.5592,-0.6538 0.93264,-1.407863 0.82987,-1.675691 -0.10278,-0.267828 -0.0111,-0.486961 0.20365,-0.486961 0.21479,0 0.37172,0.119063 0.34875,0.264584 -0.10852,0.687282 0.0866,0.842907 0.56214,0.44827 0.74153,-0.61541 1.40736,0.949038 1.10037,2.585438 -0.34387,1.83296 -2.81222,2.94518 -5.85407,2.6378 -0.86777,-0.0877 -3.64948,1.290905 -5.00338,2.479645 -0.69486,0.61009 -1.39889,1.10926 -1.56452,1.10926 -0.16563,0 -1.10595,0.40719 -2.0896,0.90488 -1.95968,0.9915 -2.97876,2.60099 -2.10567,3.32559 0.61008,0.50632 1.23817,3.11138 1.23817,5.13539 0,1.31319 -0.16966,1.77855 -0.84093,2.30657 -0.46251,0.36381 -0.92376,1.10103 -1.02501,1.63827 -0.29823,1.58251 -1.16557,3.64853 -1.42344,3.39066 z m 17.33287,-22.322985 c -0.23451,-0.3755 -0.55177,-0.60524 -0.70503,-0.51051 -0.15326,0.0947 -0.0818,0.39591 0.1588,0.66931 0.65046,0.73914 1.03685,0.62681 0.54623,-0.1588 z M 53.947231,116.97232 c 0.003,-0.33955 0.15929,-0.85548 0.347375,-1.14652 0.259503,-0.40156 0.343277,-0.25267 0.347376,0.61736 0.003,0.63059 -0.153348,1.14652 -0.347376,1.14652 -0.194027,0 -0.350346,-0.27781 -0.347375,-0.61736 z m 21.337657,0.26459 c 0.11991,-0.19403 0.28803,-0.35278 0.3736,-0.35278 0.0856,0 0.15556,0.15875 0.15556,0.35278 0,0.19402 -0.16812,0.35277 -0.3736,0.35277 -0.20547,0 -0.27548,-0.15875 -0.15556,-0.35277 z m 4.44535,-1.63825 c 1.53789,-2.78146 3.5236,-5.23167 3.83349,-4.73025 0.40283,0.65179 1.42255,0.006 1.42255,-0.90119 0,-0.46431 -0.16571,-0.8442 -0.36825,-0.8442 -0.20253,0 -0.32159,0.22771 -0.26458,0.50603 0.057,0.27832 -0.0154,0.51644 -0.16092,0.52917 -0.93431,0.0817 -1.03393,-0.004 -0.60496,-0.52099 0.33501,-0.40366 0.34894,-0.64676 0.054,-0.94174 -0.29498,-0.29499 -0.49038,-0.1773 -0.75695,0.45592 -0.33328,0.79167 -0.34928,0.77174 -0.22079,-0.27479 0.0762,-0.62059 -0.008,-1.17704 -0.1861,-1.23656 -0.17855,-0.0595 -0.075,-0.46458 0.23004,-0.90013 0.39151,-0.55896 0.91061,-0.79191 1.76466,-0.79191 1.05716,0 1.27742,0.16139 1.74388,1.2778 0.29365,0.70279 0.5339,1.707 0.5339,2.23156 0,1.29762 -1.36218,2.50222 -2.94396,2.60341 -1.54711,0.099 -1.63702,0.18592 -3.14313,3.03919 -0.65984,1.25004 -1.39667,2.33846 -1.6374,2.4187 -0.24073,0.0803 0.0763,-0.78376 0.70457,-1.92002 z m 4.37409,-7.88675 c 0.11992,-0.19403 0.0499,-0.35278 -0.15557,-0.35278 -0.20548,0 -0.3736,0.15875 -0.3736,0.35278 0,0.19402 0.07,0.35277 0.15557,0.35277 0.0856,0 0.25369,-0.15875 0.3736,-0.35277 z m -23.10154,5.57707 c -0.003,-0.3281 0.15335,-0.69466 0.34737,-0.81457 0.44648,-0.27594 0.44648,0.19107 0,0.88194 -0.29471,0.45603 -0.34272,0.44672 -0.34737,-0.0674 z m -1.21046,-0.51169 c -0.18579,-0.48418 -0.13417,-0.50601 0.31504,-0.1332 0.61215,0.50805 0.67586,0.71226 0.2222,0.71226 -0.17326,0 -0.41502,-0.26058 -0.53724,-0.57906 z m -4.849406,-0.33595 c -0.09186,-0.17584 0.597809,-1.06698 1.532607,-1.9803 0.934799,-0.91333 1.699629,-1.4994 1.699629,-1.30238 0,0.55348 -3.043318,3.6443 -3.232236,3.28268 z m 5.701686,-1.04609 c 0,-0.30249 0.15875,-0.45187 0.35278,-0.33196 0.19402,0.11992 0.35277,0.36741 0.35277,0.54999 0,0.18258 -0.15875,0.33196 -0.35277,0.33196 -0.19403,0 -0.35278,-0.24749 -0.35278,-0.54999 z m -0.35278,-5.74533 c 0,-0.16396 0.34208,-0.60052 0.76017,-0.97014 l 0.76016,-0.67204 -0.62435,0.97014 c -0.64377,1.00032 -0.89598,1.18949 -0.89598,0.67204 z m 9.00405,-8.860825 c -0.10107,-0.16354 0.31598,-0.47156 0.92679,-0.68449 1.34922,-0.47034 1.81672,-0.4911 1.55591,-0.0691 -0.30272,0.48981 -2.27561,1.08866 -2.4827,0.75359 z m 3.51956,-1.07163 c 0.11992,-0.19403 0.41912,-0.35278 0.66488,-0.35278 0.24577,0 0.81911,-0.396246 1.27409,-0.88055 0.45498,-0.484305 0.90765,-0.800149 1.00592,-0.701876 0.32275,0.322752 -1.82677,2.287986 -2.50254,2.287986 -0.36321,0 -0.56226,-0.15875 -0.44235,-0.35278 z"
       style="fill:#000000;stroke-width:0.35277778" />
  </g>
</svg>
