<?xml version="1.0" encoding="UTF-8" standalone="no"?>
<svg
   xmlns:dc="http://purl.org/dc/elements/1.1/"
   xmlns:cc="http://creativecommons.org/ns#"
   xmlns:rdf="http://www.w3.org/1999/02/22-rdf-syntax-ns#"
   xmlns:svg="http://www.w3.org/2000/svg"
   xmlns="http://www.w3.org/2000/svg"
   id="svg8"
   version="1.1"
   viewBox="0 0 100.07471 151.3046"
   height="151.30461mm"
   width="100.07471mm">
  <defs
     id="defs2" />
  <metadata
     id="metadata5">
    <rdf:RDF>
      <cc:Work
         rdf:about="">
        <dc:format>image/svg+xml</dc:format>
        <dc:type
           rdf:resource="http://purl.org/dc/dcmitype/StillImage" />
        <dc:title></dc:title>
      </cc:Work>
    </rdf:RDF>
  </metadata>
  <g
     transform="translate(-21.001082,14.453396)"
     id="layer1">
    <path
       id="path3842"
       d="m 67.277308,136.43538 c -1.457942,-0.63506 -2.515506,-2.25258 -1.964397,-3.00452 1.048308,-1.43032 1.573544,-3.12689 1.497119,-4.83586 -0.0485,-1.08463 0.19371,-2.59133 0.604431,-3.75991 0.43537,-1.2387 0.562483,-2.07289 0.348481,-2.2869 -0.185293,-0.18529 -0.30892,-0.87458 -0.274729,-1.53175 0.186503,-3.58472 0.04447,-4.96506 -0.725823,-7.05375 -0.457397,-1.24025 -1.027892,-2.5725 -1.26777,-2.96056 -0.84189,-1.36194 -1.229755,-3.75435 -1.330501,-8.20673 -0.07984,-3.528402 -0.25532,-4.872043 -0.817196,-6.257158 -0.393538,-0.970139 -0.918281,-2.398889 -1.166093,-3.175 -0.247809,-0.776111 -0.731365,-1.811218 -1.074568,-2.300238 -0.3432,-0.489021 -0.908473,-1.759021 -1.256164,-2.822222 -0.347691,-1.063202 -1.611549,-3.851364 -2.808573,-6.195914 -1.197025,-2.344551 -2.528701,-5.202051 -2.959284,-6.35 -0.826414,-2.203274 -2.27232,-7.532095 -2.648272,-9.760099 -0.292534,-1.733638 -0.686427,-1.674184 -1.168558,0.176389 -1.529277,5.869845 -5.422071,14.68881 -7.972336,18.060995 -1.428389,1.888741 -1.609974,2.348389 -1.822123,4.612337 -0.170234,1.81664 -0.07887,3.119204 0.329175,4.693172 0.310644,1.198248 0.819855,3.162177 1.131581,4.364281 0.735986,2.838187 0.741555,5.614957 0.01624,8.097927 -0.764062,2.61562 -0.756461,8.8106 0.01281,10.43926 0.297105,0.62902 0.454219,1.36772 0.34914,1.64155 -0.257295,0.6705 0.434453,5.59514 0.84513,6.01659 0.179619,0.18433 0.326578,1.01369 0.326578,1.84302 0,1.33616 -0.127186,1.57366 -1.116754,2.08539 -0.844998,0.43696 -1.553234,0.51578 -2.910417,0.32389 -3.32495,-0.4701 -5.294415,-0.44811 -7.069175,0.0789 -1.991826,0.59151 -7.553801,0.4616 -9.785449,-0.22855 -1.614245,-0.49921 -2.067088,-1.57768 -1.077842,-2.56693 0.489908,-0.48991 1.505213,-0.79024 3.476516,-1.02836 2.437198,-0.2944 3.074673,-0.53293 5.110838,-1.91236 1.279479,-0.86681 2.485188,-1.57601 2.679351,-1.57601 0.194163,0 0.641905,-0.31921 0.994981,-0.70936 0.525975,-0.58119 0.653827,-1.39026 0.707656,-4.47811 0.03614,-2.07282 -0.08416,-4.3333 -0.267327,-5.02328 -0.183165,-0.68999 -0.416443,-1.81016 -0.518397,-2.48925 -0.101953,-0.6791 -0.305778,-1.39348 -0.452944,-1.5875 -0.463685,-0.61134 -1.019146,-4.82011 -1.047566,-7.937502 -0.01503,-1.649236 -0.173945,-3.629156 -0.353132,-4.39982 -0.179187,-0.770661 -0.25657,-1.470431 -0.171961,-1.555041 0.08461,-0.08461 0.0089,-0.328517 -0.168331,-0.542019 -0.503145,-0.606252 -0.773802,-3.785048 -0.36429,-4.278481 0.212103,-0.25557 0.37628,-2.703326 0.39366,-5.869189 0.03559,-6.482278 0.999207,-12.69038 2.751394,-17.725807 L 35.020092,62.369716 34.31196,61.615942 C 33.434642,60.68208 33.425923,60.145378 34.2657,58.76826 c 0.698749,-1.14585 2.419638,-5.727061 2.70808,-7.209226 0.0944,-0.485069 1.201608,-2.945694 2.460465,-5.468055 1.630859,-3.267735 2.288062,-4.976111 2.286153,-5.942764 -0.0016,-0.801183 0.290303,-1.768108 0.712889,-2.361576 0.713387,-1.001861 0.713474,-1.010881 0.02849,-2.959767 -0.627792,-1.786184 -0.658132,-2.389021 -0.351644,-6.987035 0.301958,-4.530041 0.439926,-5.235124 1.382616,-7.065822 0.682126,-1.324677 1.047189,-2.561026 1.047189,-3.546471 0,-1.576562 1.008507,-3.311633 3.196853,-5.499979 0.550191,-0.550191 1.108162,-1.457251 1.239934,-2.0156904 0.72823,-3.0861496 1.572952,-4.2933439 4.052588,-5.7915612 1.33199,-0.8048022 3.096697,-2.1596706 3.921566,-3.01081868 0.987206,-1.01865784 2.287534,-1.86237744 3.804828,-2.46876642 2.87226,-1.1479061 3.187009,-1.4083062 3.187009,-2.636713 0,-1.0541988 1.344499,-2.9095968 2.592352,-3.5774278 1.590248,-0.851074 6.149834,-1.114285 7.466799,-0.431035 0.631956,0.327863 1.166933,0.369104 1.777369,0.137016 1.809697,-0.688046 15.949982,-0.549311 18.374222,0.180276 1.53962,0.463358 3.74831,0.391324 5.41981,-0.17676 0.485072,-0.164859 1.792602,-0.401416 2.905632,-0.525684 1.87606,-0.209458 2.06609,-0.315314 2.60507,-1.4511255 0.70406,-1.483696 3.03337,-3.433816 4.71986,-3.951509 1.69222,-0.519454 2.98095,-0.58388 5.49257,-0.274583 1.74437,0.214814 2.38494,0.486998 3.45656,1.468732 4.19213,3.8404975 2.48336,9.8807024 -3.30469,11.681518 -1.06715,0.33201928 -2.25778,0.96395508 -2.64583,1.40430222 -0.38806,0.4403471 -1.34056,1.28776938 -2.11667,1.88316058 -0.77611,0.5953915 -1.72861,1.6610327 -2.11667,2.3680914 -0.63741,1.1614052 -0.93876,1.3390701 -3.12024,1.8396092 -2.18314,0.5009215 -2.4737,0.6724424 -3.03016,1.78877 -0.33851,0.6790972 -1.10472,2.1872226 -1.70268,3.3513896 -0.59797,1.164167 -1.351062,3.148542 -1.673542,4.409722 -0.64377,2.517715 -1.88074,5.204224 -3.0955,6.72301 -0.43089,0.538723 -1.23029,1.627681 -1.77645,2.419911 -0.54616,0.792226 -1.26847,1.440413 -1.60514,1.440413 -0.33666,0 -0.8046,0.192475 -1.03984,0.427722 -0.45745,0.457447 -3.70553,0.903488 -8.473851,1.163672 -2.274948,0.124129 -3.192272,0.02946 -4.056945,-0.418687 -1.527739,-0.791799 -3.273968,-1.150592 -4.253805,-0.87401 -0.824657,0.232773 -4.799573,4.509011 -4.802695,5.166762 -0.0021,0.473992 -2.115076,2.753854 -3.227705,3.48288 -0.487966,0.319726 -1.098226,0.975607 -1.356135,1.457508 -0.406904,0.760314 -0.386725,0.96701 0.152584,1.56294 0.341827,0.377716 0.531587,0.832245 0.421686,1.010063 -0.109898,0.177821 -0.0064,0.836665 0.230025,1.464098 0.393019,1.043058 0.357565,1.199346 -0.413882,1.824404 -0.464051,0.375995 -0.781551,0.719343 -0.705556,0.762995 0.07599,0.04366 0.614419,0.348707 1.196502,0.677891 1.000693,0.565916 1.058334,0.719621 1.058334,2.822222 0,1.938722 0.21475,2.661028 1.675694,5.636112 0.921632,1.876824 1.675695,3.631011 1.675695,3.898195 0,0.267183 0.148032,0.636601 0.328961,0.820928 0.180929,0.184326 0.379367,1.128889 0.440973,2.099028 0.110165,1.734837 0.08965,1.774811 -1.245853,2.427001 -1.486616,0.725985 -1.460204,0.502688 -0.505739,4.275777 0.196328,0.776111 0.398043,3.792361 0.448247,6.702777 0.05617,3.255995 0.279446,5.902368 0.580404,6.879167 0.354669,1.151125 0.425111,2.508741 0.256272,4.938889 -0.167929,2.417078 -0.09516,3.843659 0.261056,5.117169 0.271645,0.97118 0.535474,3.114305 0.586288,4.7625 0.07991,2.591986 0.27856,3.425536 1.470812,6.171715 l 1.378419,3.175 -0.06892,7.05556 c -0.09729,9.95945 -0.145973,11.1125 -0.469248,11.1125 -0.517828,0 -0.299459,2.51532 0.307587,3.54297 0.495889,0.83947 0.522771,1.16288 0.162409,1.9538 -0.382634,0.83978 -0.303467,1.19541 0.69469,3.12059 1.046222,2.01788 1.091237,2.24522 0.631341,3.18854 -0.41058,0.84217 -1.007586,1.18319 -3.493809,1.99568 -3.449161,1.12719 -3.682079,1.15076 -5.13207,0.51917 z m 4.975737,-1.51808 c 1.279892,-0.52561 2.456692,-1.2003 2.615106,-1.4993 0.178915,-0.33771 0.01919,-1.14501 -0.421668,-2.13115 -0.539408,-1.20659 -1.079002,-1.7738 -2.248856,-2.36393 l -1.539166,-0.77643 -1.02755,0.86463 c -0.565153,0.47554 -1.18104,0.86462 -1.368636,0.86462 -0.497474,0 -1.865496,3.78277 -1.60939,4.45018 0.212612,0.55406 1.974843,1.50574 2.839092,1.53324 0.238693,0.008 1.481173,-0.41624 2.761068,-0.94186 z m -2.463313,-0.41307 c -0.415435,-0.67219 1.360667,-1.37593 2.806375,-1.11197 1.068885,0.19516 1.25325,0.31979 0.77814,0.52605 -0.342449,0.14866 -0.927492,0.19057 -1.300096,0.0931 -0.372604,-0.0974 -0.994812,0.0451 -1.38268,0.31679 -0.387872,0.27168 -0.793655,0.35087 -0.901739,0.17599 z m -0.839939,-5.97464 c 0.645996,-0.8977 1.549199,-1.16153 2.603803,-0.76057 1.65524,0.62932 3.122835,-0.90699 1.652471,-1.72985 -0.337933,-0.18911 -0.496337,-0.46193 -0.352009,-0.60626 0.144329,-0.14432 -7.05e-4,-0.55311 -0.322199,-0.9084 -0.430561,-0.47577 -0.46175,-0.64599 -0.11836,-0.64599 0.256438,0 0.361795,-0.10446 0.234124,-0.23212 -0.127666,-0.12768 -0.06704,-0.43104 0.134723,-0.67415 0.455161,-0.54843 -0.08273,-0.94685 -0.8703,-0.64463 -0.650134,0.24948 -0.755463,0.84534 -0.149426,0.84534 0.226364,0 0.327241,0.0843 0.224169,0.18741 -0.103071,0.10307 -0.678268,-0.0943 -1.278216,-0.43864 -1.362918,-0.78221 -1.677864,-0.50393 -2.301974,2.03402 -0.875534,3.56033 -0.626438,5.19921 0.543194,3.57384 z m 1.738062,-1.77108 c -0.411357,-0.27314 -0.747921,-0.71537 -0.747921,-0.98274 0,-0.26738 -0.15875,-0.48614 -0.352778,-0.48614 -0.194028,0 -0.352778,-0.16433 -0.352778,-0.36519 0,-0.47115 0.857208,-0.004 2.42521,1.32335 1.001406,0.84733 1.078174,1.00732 0.483337,1.00732 -0.388934,0 -1.043714,-0.22347 -1.45507,-0.4966 z m -1.982643,-0.0578 c -0.119916,-0.19403 -0.05928,-0.35278 0.13475,-0.35278 0.194028,0 0.450889,0.15875 0.570805,0.35278 0.119917,0.19403 0.05928,0.35278 -0.13475,0.35278 -0.194028,0 -0.450889,-0.15875 -0.570805,-0.35278 z m 2.293055,-1.72274 c 0,-0.1714 -0.3175,-0.39466 -0.705555,-0.49614 -0.388056,-0.10148 -0.705556,-0.35812 -0.705556,-0.57031 0,-0.62946 0.528098,-0.44379 1.411111,0.49614 0.455701,0.48507 0.642123,0.88194 0.414271,0.88194 -0.227849,0 -0.414271,-0.14024 -0.414271,-0.31163 z m -37.17449,2.23515 c 1.921255,-0.4651 2.418614,-0.46303 4.495879,0.0187 2.748667,0.63746 4.027415,0.42446 4.314311,-0.71862 0.330276,-1.31592 0.02398,-2.12101 -0.753383,-1.98021 -2.940898,0.53271 -4.058044,0.44727 -5.879925,-0.44971 -1.027219,-0.50573 -2.281239,-1.18318 -2.786712,-1.50545 -0.877617,-0.55952 -0.957125,-0.55002 -1.763889,0.2109 -1.399206,1.3197 -4.888267,2.83736 -6.548633,2.8485 -1.80345,0.0121 -2.408636,0.75623 -1.158962,1.42503 1.896031,1.01473 6.244065,1.07979 10.081314,0.15085 z m 6.923796,-3.35318 c 0.727604,-0.20207 1.320748,-0.55837 1.318099,-0.79178 -0.0095,-0.83769 -0.436033,-2.01189 -0.730812,-2.01189 -0.165308,0 -0.209183,0.23812 -0.0975,0.52916 0.112641,0.29354 0.0099,0.52917 -0.230657,0.52917 -0.322887,0 -0.309995,0.14998 0.05045,0.58692 0.437676,0.53057 0.410175,0.5475 -0.286389,0.17639 -1.048263,-0.55849 -1.343341,-0.51563 -0.816942,0.11863 0.370948,0.44697 0.29869,0.52917 -0.465151,0.52917 -0.497377,0 -1.002434,0.15875 -1.122349,0.35278 -0.28085,0.45442 0.705831,0.44674 2.38125,-0.0186 z m -4.097564,-0.71261 c -0.511236,-0.40214 -0.92952,-0.88991 -0.92952,-1.08394 0,-0.19403 0.418284,-0.0237 0.92952,0.37838 0.511236,0.40214 1.185923,0.72612 1.499305,0.71995 0.464311,-0.009 0.439178,-0.10488 -0.135769,-0.51714 -0.388056,-0.27825 -0.87239,-0.63039 -1.076298,-0.78253 -1.294963,-0.96619 -1.962131,-1.16207 -2.669155,-0.78369 l -0.730591,0.391 0.80021,0.85179 c 0.440116,0.46848 1.08067,0.85178 1.423452,0.85178 0.342783,0 0.721355,0.15875 0.841271,0.35278 0.119916,0.19403 0.388818,0.35278 0.597561,0.35278 0.208744,0 -0.03875,-0.32902 -0.549986,-0.73116 z m 2.640034,-1.29731 c 0.02298,-0.33955 0.01023,-0.77467 -0.02832,-0.96692 -0.06556,-0.32693 -0.06554,-0.84264 1.24e-4,-2.40713 0.03116,-0.74243 0.86837,-0.60721 0.86837,0.14025 0,0.70004 0.632669,1.07705 0.955426,0.56934 0.733175,-1.15331 -0.330208,-1.82873 -3.330063,-2.11512 -1.840725,-0.17573 -2.18295,0.0563 -2.538321,1.72075 -0.215464,1.0092 -0.09939,1.17667 1.634959,2.35908 2.159621,1.47234 2.381245,1.53596 2.437831,0.69975 z m -1.780651,-1.27849 c -0.883518,-0.58199 -1.231795,-1.08629 -1.291619,-1.87028 -0.1082,-1.41795 0.888779,-1.39727 2.020005,0.0419 0.647575,0.82386 0.690476,0.99007 0.207744,0.80482 -0.334601,-0.12839 -0.608366,-0.0703 -0.608366,0.12908 0,0.19939 -0.183278,0.24925 -0.407285,0.11081 -0.260446,-0.16097 -0.311175,-0.0962 -0.140705,0.17962 0.146619,0.23723 0.523495,0.33275 0.837504,0.21225 0.314009,-0.1205 0.458078,-0.10624 0.320155,0.0317 -0.137924,0.13792 -0.07396,0.46381 0.142143,0.7242 0.528288,0.63655 0.346369,0.57519 -1.079576,-0.36409 z m 0.151375,-1.63193 c -0.119916,-0.19403 -0.486472,-0.35035 -0.81457,-0.34738 -0.514094,0.005 -0.523406,0.0527 -0.06737,0.34738 0.69087,0.44648 1.15788,0.44648 0.881944,0 z m 31.75,2.82222 c -0.29265,-0.47352 0.290005,-0.45083 0.770855,0.03 0.275213,0.27522 0.694545,0.22159 1.492028,-0.1908 0.610073,-0.31548 1.263315,-0.47838 1.451645,-0.36198 0.188331,0.11639 0.342417,0.0529 0.342417,-0.14115 0,-0.66407 -0.882636,-0.91217 -2.822222,-0.79333 -1.067153,0.0654 -2.059771,0.19152 -2.205814,0.28031 -0.349878,0.21269 0.362941,1.52971 0.827934,1.52971 0.198653,0 0.263074,-0.15875 0.143157,-0.35278 z M 40.434174,120.5271 c 0.111683,-0.29104 0.04929,-0.52917 -0.138646,-0.52917 -0.187938,0 -0.341705,0.23813 -0.341705,0.52917 0,0.29104 0.06239,0.52917 0.138645,0.52917 0.07626,0 0.230023,-0.23813 0.341706,-0.52917 z m 31.635024,-1.2324 c 0.79949,-0.22211 1.259272,-0.56971 1.280605,-0.96817 0.01831,-0.34191 0.141912,-1.97103 0.274687,-3.62026 0.387653,-4.81516 -0.225023,-11.08251 -1.311028,-13.41111 -0.499117,-1.0702 -1.016808,-2.381385 -1.150423,-2.913744 -0.133611,-0.532359 -0.395005,-1.061914 -0.580873,-1.176786 -0.199411,-0.123242 -0.240281,-1.120827 -0.0997,-2.433549 0.162684,-1.519139 0.06902,-2.934275 -0.295331,-4.462113 -0.376509,-1.578808 -0.463949,-3.016257 -0.29705,-4.883256 0.159809,-1.787642 0.07505,-3.389602 -0.261309,-4.938889 -0.291402,-1.34221 -0.528066,-4.70674 -0.570745,-8.113889 -0.0586,-4.678437 -0.213988,-6.294473 -0.79175,-8.234162 -0.395361,-1.327333 -0.855218,-2.547479 -1.021898,-2.711439 -0.800721,-0.787647 -8.113127,-0.328705 -10.357228,0.650042 -1.684979,0.734889 -3.880556,2.51932 -3.880556,3.153879 0,0.209057 -0.161872,0.434062 -0.359713,0.50001 -0.217614,0.07254 0.06887,1.651938 0.725212,3.998147 1.450086,5.183586 2.453577,7.844046 4.390211,11.639356 1.33284,2.612034 1.596548,2.95607 1.487261,1.940278 -0.07306,-0.679097 -0.177045,-1.393472 -0.231073,-1.5875 -0.05402,-0.194028 -0.07943,-0.942506 -0.05645,-1.663284 0.02999,-0.940265 0.249643,-1.421751 0.777547,-1.704276 0.404671,-0.216574 0.805413,-0.324125 0.890534,-0.239004 0.08513,0.08512 -0.0786,1.050721 -0.363819,2.145771 -0.450166,1.728301 -0.452713,2.212841 -0.0193,3.672304 0.584969,1.969809 1.549244,3.484538 1.567815,2.462795 0.0062,-0.339549 0.180513,-0.617361 0.387427,-0.617361 0.497029,0 0.268902,1.84785 -0.249093,2.017691 -0.221124,0.0725 -0.75517,-0.439544 -1.186765,-1.137878 -1.255903,-2.032091 -1.157937,-1.218709 0.180421,1.497972 0.677601,1.375442 1.236832,2.792187 1.242734,3.148316 0.01009,0.608669 0.03231,0.610479 0.370307,0.03016 0.638732,-1.096638 1.135246,-0.711133 0.908724,0.705555 -0.289733,1.812015 0.0543,2.880145 1.004482,3.118627 0.756443,0.189854 1.546281,1.53351 2.132838,3.62833 0.370434,1.322967 -0.436266,0.581395 -1.41761,-1.303161 -0.472972,-0.90829 -0.867343,-1.389744 -0.876377,-1.069898 -0.009,0.319846 0.473188,1.510471 1.071605,2.645834 0.820702,1.557112 1.295611,3.277762 1.932904,7.003192 0.464683,2.71638 1.006945,5.49346 1.205026,6.17128 0.4462,1.52684 0.459761,1.41344 -0.169016,1.41344 -0.660732,0 -0.671308,0.37631 -0.03503,1.24647 0.299466,0.40955 0.421485,1.12347 0.309725,1.81217 -0.101424,0.62501 -0.08264,1.54188 0.04175,2.03748 0.253302,1.00924 1.19858,1.16231 3.400316,0.55065 z m -0.883761,-6.61691 c 0.146131,-0.7276 0.311623,-2.27541 0.36776,-3.43958 0.07603,-1.57681 0.242256,-2.14557 0.651722,-2.23 0.421344,-0.0869 0.513281,0.119 0.393841,0.88195 -0.0857,0.5474 -0.242542,1.89458 -0.348541,2.99373 -0.2222,2.3041 -0.476744,3.11682 -0.976178,3.11682 -0.221456,0 -0.254678,-0.49601 -0.0886,-1.32292 z m -1.694825,-3.49704 c -0.0969,-0.16242 -0.29161,-1.4655 -0.432693,-2.89572 -0.209123,-2.11996 -0.167633,-2.57102 0.224554,-2.44135 0.313104,0.10353 0.559117,1.01146 0.704599,2.60041 0.201733,2.20327 -0.03528,3.50973 -0.49646,2.73666 z M 68.176045,97.585244 c 0,-1.073383 0.230025,-2.502133 0.511165,-3.175 0.620994,-1.486246 1.44104,-1.67392 1.106582,-0.253252 -0.371404,1.577615 -0.466859,2.297737 -0.514392,3.880556 -0.03235,1.077521 -0.193887,1.4993 -0.574188,1.4993 -0.406601,0 -0.529167,-0.452027 -0.529167,-1.951604 z m -1.763889,-3.539638 c 0,-0.440457 0.837724,-1.757924 1.286221,-2.02281 0.262717,-0.155162 0.477668,-0.51235 0.477668,-0.79375 0,-0.281401 0.15875,-0.511637 0.352778,-0.511637 0.612496,0 0.382217,1.381671 -0.352778,2.116666 -0.388055,0.388056 -0.705555,0.864306 -0.705555,1.058334 0,0.194027 -0.238125,0.352777 -0.529167,0.352777 -0.291042,0 -0.529167,-0.08981 -0.529167,-0.19958 z m -1.205283,-0.732857 c -0.12234,-0.318812 -0.149884,-0.652209 -0.06121,-0.740879 0.280363,-0.280367 0.913719,0.282613 0.913719,0.812193 0,0.691981 -0.57816,0.643618 -0.852505,-0.07131 z m -0.473435,-2.674468 c 0.159851,-0.479549 2.35996,-1.035872 2.864189,-0.724239 0.17653,0.1091 -0.05768,0.408238 -0.520449,0.664753 -1.079059,0.598117 -2.535605,0.635085 -2.34374,0.05949 z m 3.677793,-1.214392 c -0.293867,-0.293868 -0.306923,-1.989607 -0.02106,-2.734571 0.407673,-1.062383 0.708515,-0.550358 0.708515,1.205868 0,1.681911 -0.165728,2.05044 -0.687462,1.528703 z M 66.059378,85.09593 c 0,-0.829081 0.738184,-2.139633 1.20517,-2.139633 0.840268,0 0.981238,0.623944 0.356419,1.577534 -0.568572,0.867753 -1.561589,1.225191 -1.561589,0.562099 z m -3.527777,-0.33255 c 0,-0.170268 0.229601,-0.500133 0.510226,-0.73303 0.280624,-0.232896 0.558436,-1.084403 0.617361,-1.892236 0.07541,-1.033858 0.280793,-1.501701 0.6936,-1.57994 0.496573,-0.09412 0.556387,0.121694 0.390232,1.408067 -0.294365,2.278972 -0.693258,3.106723 -1.497133,3.106723 -0.392856,0 -0.714286,-0.139312 -0.714286,-0.309584 z m 5.098951,-5.864168 c -0.01743,-3.578345 0.305763,-4.400579 0.673932,-1.714511 0.37434,2.731125 0.274493,5.066058 -0.216633,5.0659 -0.320675,-9.9e-5 -0.445428,-0.914358 -0.457299,-3.351389 z m -2.415568,0.625655 c -0.1143,-0.1143 -0.03101,-0.420864 0.185095,-0.68125 0.301241,-0.362973 0.259369,-0.473431 -0.179451,-0.473431 -0.71937,0 -0.748534,-0.562465 -0.04319,-0.83313 0.362645,-0.139157 0.529167,-0.706113 0.529167,-1.801633 0,-1.246135 0.127497,-1.59857 0.578305,-1.59857 0.490703,0 0.544607,0.280557 0.355843,1.852083 -0.122354,1.018646 -0.223841,2.192288 -0.225527,2.60809 -0.0028,0.737637 -0.785513,1.342563 -1.200238,0.927841 z m -6.759741,-4.868905 c -0.685952,-1.551058 -0.862531,-2.541997 -0.862531,-4.840366 0,-3.261197 0.653545,-6.614855 1.289071,-6.614855 0.637575,0 0.769874,1.155471 0.208629,1.82214 -0.649383,0.77137 -0.749667,5.810518 -0.137784,6.923599 0.244369,0.444532 0.489877,1.397032 0.545578,2.116667 0.0557,0.719635 0.222362,1.58624 0.370356,1.925789 0.169178,0.388151 0.116883,0.617361 -0.140853,0.617361 -0.225464,0 -0.798072,-0.877651 -1.272466,-1.950335 z m 7.604135,-1.508379 c 0,-0.184496 0.238125,-0.533076 0.529167,-0.774619 0.291042,-0.241544 0.529167,-0.807237 0.529167,-1.257099 0,-0.449859 0.152312,-0.912061 0.338472,-1.027116 0.406062,-0.250959 0.18759,-2.747818 -0.4944,-5.650375 -0.489571,-2.083629 -0.435448,-2.900052 0.131452,-1.982788 0.15947,0.258022 0.568177,1.650616 0.908241,3.094645 0.648116,2.752136 0.557498,5.04577 -0.26735,6.766754 -0.430142,0.897463 -1.674749,1.514729 -1.674749,0.830598 z M 40.232924,115.91747 c 0.347147,-0.1081 0.438319,-1.26178 0.3833,-4.85021 -0.0397,-2.58961 0.03683,-4.88477 0.170075,-5.10037 0.630888,-1.0208 0.938771,-4.29263 0.559808,-5.949 -0.215903,-0.943666 -0.443339,-1.953884 -0.505414,-2.244926 -0.06208,-0.291041 -0.46192,-2.010075 -0.888544,-3.820075 -1.163441,-4.936025 -0.792401,-6.763671 2.339904,-11.525758 1.815886,-2.760716 2.756233,-4.834428 5.75895,-12.700001 0.814781,-2.134305 1.629321,-4.247871 1.810089,-4.696812 0.411662,-1.022372 0.0019,-1.464741 -2.335952,-2.522055 -1.995796,-0.902603 -7.207062,-2.637377 -8.848,-2.945405 -1.023111,-0.192052 -1.163052,-0.09026 -1.994946,1.451088 -2.03717,3.774507 -4.123158,13.882003 -4.091631,19.825685 0.01855,3.495964 0.07789,3.901909 0.429195,2.935735 0.495346,-1.362325 0.775372,-1.666056 1.259923,-1.36659 0.233295,0.144187 0.03675,0.732303 -0.531921,1.591617 -0.49607,0.74961 -1.136329,2.495373 -1.422799,3.879469 -0.47174,2.279244 -0.466647,2.623153 0.05401,3.647182 0.382893,0.753071 0.625015,2.367622 0.72504,4.834809 0.270381,6.669097 0.460885,8.155967 1.571191,12.262967 0.380879,1.40886 0.692508,3.55403 0.692508,4.76704 0,1.94284 0.09452,2.24932 0.79375,2.57374 0.720341,0.33421 2.927464,0.30812 4.071463,-0.0481 z m -2.026829,-10.3532 c -0.497745,-0.93004 -0.834223,-7.375264 -0.452793,-8.67325 0.367406,-1.250262 1.039357,-1.102547 0.802381,0.176389 -0.43584,2.352179 0.02669,7.702341 0.701963,8.119681 0.453747,0.28043 0.181913,1.05254 -0.370565,1.05254 -0.17575,0 -0.482193,-0.30391 -0.680986,-0.67536 z m -3.308754,-3.79316 c -0.405918,-0.40592 -0.256907,-0.82315 0.293982,-0.82315 0.291041,0 0.529166,0.23813 0.529166,0.52917 0,0.55089 -0.41723,0.6999 -0.823148,0.29398 z m -0.386375,-2.435842 c -0.401838,-0.401841 -0.54469,-1.202608 -0.519201,-2.910419 0.04116,-2.757819 0.331505,-4.006977 0.981725,-4.223717 0.34753,-0.115845 0.398561,0.05933 0.197926,0.679401 -0.148685,0.459517 -0.307169,1.599081 -0.352186,2.532366 -0.04502,0.933284 -0.176774,1.7918 -0.292791,1.907818 -0.116017,0.116018 -0.0765,0.384299 0.08783,0.596177 0.317421,0.409293 0.768551,1.972734 0.56923,1.972734 -0.06499,0 -0.367628,-0.24946 -0.672528,-0.55436 z M 33.3934,90.066922 c 0.14956,-0.241995 0.02841,-0.407847 -0.297924,-0.407847 -0.302493,0 -0.549987,-0.176417 -0.549987,-0.392038 0,-0.253905 0.417841,-0.313651 1.185867,-0.16957 1.387137,0.26023 2.176848,-0.407867 1.818117,-1.538129 -0.164521,-0.518361 -0.07309,-0.722485 0.323632,-0.722485 0.704223,0 0.766456,2.205849 0.07834,2.776933 -0.702577,0.583085 -2.876347,0.968149 -2.55805,0.453136 z m 2.327089,-5.560868 c 0,-0.378616 0.19061,-0.493766 0.573881,-0.346693 0.315634,0.121123 0.791884,0.03929 1.058333,-0.181839 0.374507,-0.310815 0.484453,-0.28073 0.484453,0.13256 0,0.542293 -0.706026,0.962882 -1.616353,0.962882 -0.275172,0 -0.500314,-0.255108 -0.500314,-0.56691 z m 2.822222,-3.439411 c 0,-0.06917 0.797044,-1.510905 1.771207,-3.203847 1.822637,-3.167454 2.815898,-5.276373 2.813586,-5.973886 -7.41e-4,-0.218842 -0.315892,0.118047 -0.700371,0.748637 -0.384478,0.63059 -0.780759,1.146528 -0.880625,1.146528 -0.456076,0 -0.0923,-0.782687 0.876759,-1.886381 0.582083,-0.662954 1.058333,-1.452862 1.058333,-1.755344 0,-0.591764 0.62893,-1.138605 0.94547,-0.822064 0.61723,0.61723 -2.989191,9.354767 -4.572603,11.078372 -0.639402,0.696013 -1.311756,1.038395 -1.311756,0.667985 z m -3.998148,-4.342754 c -0.623666,-0.623666 0.626515,-6.460843 1.441973,-6.732662 0.616301,-0.205433 0.546803,0.650018 -0.167596,2.062953 -0.333908,0.6604 -0.635498,1.965339 -0.670201,2.899865 -0.06549,1.763518 -0.204191,2.16983 -0.604176,1.769844 z m 3.998148,-3.592827 c 0,-0.329752 1.42228,-3.080297 2.254282,-4.359557 0.90141,-1.38598 2.34949,-5.819814 2.107065,-6.451562 -0.173114,-0.451128 -0.06973,-0.570822 0.412788,-0.477897 0.354061,0.06818 0.60179,0.264975 0.550509,0.43731 -0.05128,0.172332 0.118758,0.445844 0.377865,0.607801 0.366638,0.229172 0.01677,1.182949 -1.577813,4.301254 -2.540133,4.967393 -3.30972,6.242886 -3.766733,6.242886 -0.196879,0 -0.357963,-0.135107 -0.357963,-0.300235 z m 28.73845,37.291958 c -0.318283,-1.22828 -0.631091,-2.79109 -0.695131,-3.4729 -0.226297,-2.40923 -0.956402,-6.00809 -1.256499,-6.19356 -0.167217,-0.10334 -0.243481,1.28651 -0.169475,3.08855 0.106236,2.58679 0.37659,3.94282 1.284401,6.44214 1.276293,3.51383 1.731172,3.58764 0.836704,0.13577 z M 53.616613,62.987604 c -0.117228,-0.117225 -0.421499,-0.129756 -0.676158,-0.02783 -0.281422,0.112614 -0.197831,0.196208 0.213137,0.213135 0.371885,0.01531 0.580246,-0.06806 0.463021,-0.185286 z M 51.4191,61.613241 c 0,-0.929865 -0.363962,-1.186995 -0.62419,-0.440972 -0.178203,0.510872 0.0657,1.322917 0.39735,1.322917 0.124762,0 0.22684,-0.396875 0.22684,-0.881945 z m 6.496992,-1.09541 c 0.08084,-0.07662 -0.17938,-0.139312 -0.57828,-0.139312 -0.398896,0 -1.100042,0.316643 -1.558103,0.703647 l -0.832831,0.703647 1.411111,-0.564335 c 0.776112,-0.310381 1.477257,-0.627024 1.558103,-0.703647 z m -7.731714,0.780376 c 0,-0.07626 -0.24637,-0.233186 -0.547489,-0.348738 -0.313946,-0.12047 -0.45555,-0.06133 -0.331958,0.138645 0.207172,0.335213 0.879447,0.495811 0.879447,0.210093 z m -2.116666,-0.557851 c 0,-0.336917 -1.808028,-1.421871 -2.363732,-1.418417 -0.346188,0.0021 1.729087,1.731705 2.099148,1.74945 0.145521,0.007 0.264584,-0.141986 0.264584,-0.331033 z m 4.586111,0.188151 c 0,-0.08556 -0.15875,-0.253683 -0.352778,-0.373599 -0.194028,-0.119916 -0.352778,-0.04991 -0.352778,0.155568 0,0.205479 0.15875,0.373599 0.352778,0.373599 0.194028,0 0.352778,-0.07001 0.352778,-0.155568 z m 1.192939,-0.391922 c 0.12047,-0.313944 0.06133,-0.455549 -0.138645,-0.331957 -0.191806,0.11854 -0.348739,0.364913 -0.348739,0.54749 0,0.507446 0.252861,0.395626 0.487384,-0.215533 z m 15.247451,-0.334374 c -0.368134,-0.278655 -0.81165,-0.41869 -0.985594,-0.311188 -0.173941,0.107501 -0.54743,0.0036 -0.82997,-0.230883 -0.375772,-0.311863 -0.639173,-0.322224 -0.980937,-0.03859 -0.256974,0.213268 -1.050724,0.313055 -1.763889,0.221749 -0.713165,-0.09131 -1.296667,-0.01492 -1.296667,0.16976 0,0.18468 1.230313,0.389883 2.734028,0.456012 1.503715,0.06613 2.972153,0.147133 3.263194,0.180008 0.385255,0.04352 0.347134,-0.07801 -0.140165,-0.446871 z m 1.551277,0.246864 c 0,-0.366547 -0.764364,-1.128889 -1.131877,-1.128889 -0.156867,0 -0.08693,0.3175 0.155412,0.705555 0.445128,0.71276 0.976465,0.943116 0.976465,0.423334 z m -25.488195,-0.56164 c -0.339549,-0.257754 -0.617361,-0.624452 -0.617361,-0.814882 0,-0.387142 -2.737219,-1.338297 -3.467959,-1.205082 -0.502557,0.09162 -1.898059,-0.729851 -3.0277,-1.782272 -0.381115,-0.355063 -0.528858,-0.645569 -0.328316,-0.645569 0.200543,0 0.633181,0.296753 0.961419,0.659451 0.434763,0.480409 1.131809,0.671788 2.567346,0.704882 1.434335,0.03305 2.54634,0.338025 4.086532,1.120694 1.163789,0.591393 2.185295,1.005949 2.270012,0.921233 0.08472,-0.08472 -0.609114,-0.678145 -1.541847,-1.318729 -1.407897,-0.966915 -2.099619,-1.18987 -4.07347,-1.312937 -1.550634,-0.09668 -2.297387,-0.278024 -2.14699,-0.52137 0.141944,-0.229669 0.01356,-0.289839 -0.333918,-0.156496 -0.321789,0.12348 -0.98272,-0.112328 -1.537118,-0.548418 -0.800756,-0.629874 -0.931348,-0.657556 -0.739143,-0.156675 0.128399,0.334599 0.07602,0.608365 -0.116386,0.608365 -0.604098,0 0.721207,1.680669 1.482239,1.879685 0.411871,0.107706 0.621116,0.356969 0.484805,0.577525 -0.162086,0.262262 -0.65955,0.13437 -1.5348,-0.394578 l -1.294984,-0.782606 0.705555,0.822431 0.705556,0.822431 -0.881944,-0.461868 c -0.784529,-0.410852 -0.832267,-0.401616 -0.43219,0.08359 0.515636,0.625359 3.416921,0.823959 3.036133,0.207832 -0.12799,-0.207091 -0.03996,-0.312279 0.195632,-0.23375 0.235588,0.07853 0.376747,0.272633 0.313688,0.431341 -0.06306,0.158711 0.520348,0.509538 1.296459,0.779621 1.723278,0.599687 1.688469,0.597676 1.367945,0.07906 -0.143656,-0.232442 0.283537,-0.08684 0.949319,0.32355 1.386721,0.854791 2.690589,1.102335 1.651486,0.313542 z m 14.103763,0.277946 c -0.117228,-0.117224 -0.421499,-0.129755 -0.676159,-0.02783 -0.281421,0.112614 -0.197831,0.196208 0.213138,0.213134 0.371884,0.01531 0.580245,-0.06806 0.463021,-0.185286 z m 2.917765,-0.13964 c -0.696556,-0.450148 -2.469445,-0.450148 -2.469445,0 0,0.194028 0.674688,0.350347 1.499306,0.347377 1.098007,-0.004 1.357669,-0.09694 0.970139,-0.347377 z M 49.902156,59.24963 c -0.226366,-0.226367 -0.528685,-0.294463 -0.67182,-0.151327 -0.143136,0.143136 -0.03132,0.401732 0.248487,0.574661 0.279803,0.172928 0.582122,0.241024 0.67182,0.151327 0.0897,-0.0897 -0.02212,-0.348294 -0.248487,-0.574661 z m 2.526464,0.246945 c -0.111686,-0.291042 -0.265451,-0.529167 -0.341708,-0.529167 -0.07625,0 -0.138645,0.238125 -0.138645,0.529167 0,0.291041 0.153769,0.529166 0.341708,0.529166 0.187935,0 0.250327,-0.238125 0.138645,-0.529166 z m 5.45211,-0.01147 c 0.837505,-0.291701 1.670943,-0.438774 1.852083,-0.326824 0.181138,0.111951 0.329343,0.05241 0.329343,-0.132305 0,-0.717127 -1.037481,-0.671167 -2.6872,0.119041 -1.977055,0.946997 -1.724427,1.11687 0.505774,0.340088 z m -6.491153,-0.918244 c -0.119582,-0.193489 -0.217421,-0.896892 -0.217421,-1.563124 0,-0.666231 -0.138798,-1.211329 -0.308441,-1.211329 -0.169642,0 -0.561372,-0.489116 -0.870512,-1.086926 -0.31065,-0.600731 -0.761025,-1.010581 -1.006848,-0.916249 -0.551894,0.21178 -3.097322,-1.449571 -4.975588,-3.247471 -1.670762,-1.599276 -3.841779,-3.071107 -3.04361,-2.063404 0.615793,0.777451 0.128286,0.795997 -0.720973,0.02745 -0.354827,-0.321113 -0.644832,-0.440175 -0.644457,-0.264583 3.88e-4,0.175595 0.833776,0.874885 1.852003,1.553982 1.018227,0.679097 2.063537,1.435562 2.32291,1.681032 0.259374,0.24547 1.013472,0.859624 1.675774,1.364788 0.662303,0.505146 1.204186,1.065982 1.204186,1.246286 0,0.396561 1.577346,1.842767 2.908654,2.666835 0.532607,0.329678 0.944131,0.764095 0.914499,0.965369 -0.09288,0.630911 0.469067,1.605919 0.805679,1.397882 0.176862,-0.109308 0.223727,-0.357046 0.104145,-0.550534 z m -2.378976,-2.807392 c -2.049523,-1.357545 -2.622626,-2.161783 -0.740766,-1.039516 1.365746,0.814476 2.961159,2.130788 2.582587,2.130788 -0.106866,0 -0.935686,-0.49107 -1.841821,-1.091272 z m 15.818645,3.139726 c 0.209829,0.134532 -0.02286,-0.111795 -0.517098,-0.547395 -0.494231,-0.435599 -1.048008,-0.792787 -1.230613,-0.79375 -0.182605,-0.0011 -0.02385,0.231324 0.352778,0.516195 1.473906,1.114806 -0.209194,0.461906 -2.31067,-0.896345 -1.716479,-1.109412 -2.2903,-1.330431 -2.518738,-0.970139 -0.564014,0.889565 -0.266598,1.188682 1.016279,1.022093 0.242535,-0.0315 0.440972,0.182749 0.440972,0.476102 0,0.884343 1.701366,1.554028 3.129686,1.231889 0.690742,-0.155787 1.427575,-0.173178 1.637404,-0.03865 z M 36.249656,58.61463 c -0.119916,-0.194028 -0.36741,-0.352778 -0.549987,-0.352778 -0.182577,0 -0.331958,0.15875 -0.331958,0.352778 0,0.194028 0.247494,0.352778 0.549987,0.352778 0.302492,0 0.451874,-0.15875 0.331958,-0.352778 z m 20.813889,-0.352778 c 1.005851,-0.512812 1.181463,-0.705555 0.642842,-0.705555 -0.407589,0 -1.115839,0.312219 -1.5739,0.693818 -1.06891,0.890493 -0.799239,0.893893 0.931058,0.01175 z m 12.241389,-0.07055 c -0.226367,-0.226367 -0.528683,-0.294464 -0.671819,-0.151328 -0.143136,0.143136 -0.03133,0.401733 0.248486,0.574661 0.658844,0.407187 0.956348,0.109682 0.423333,-0.423333 z M 53.846762,58.06714 c 0.12047,-0.313944 0.06133,-0.455549 -0.138645,-0.331957 -0.191806,0.118541 -0.348739,0.364914 -0.348739,0.54749 0,0.507446 0.252861,0.395626 0.487384,-0.215533 z m 1.988764,-0.342529 c 0.372808,-0.44921 0.350985,-0.500832 -0.133195,-0.315034 -0.318485,0.122212 -0.579064,0.363971 -0.579064,0.537241 0,0.453658 0.204213,0.389947 0.712259,-0.222207 z m 13.967915,-1.016893 c -0.241297,-0.961411 -2.681302,-3.821165 -2.684043,-3.145776 -0.0011,0.228452 0.391661,0.724775 0.872416,1.102939 1.072222,0.84341 1.913509,2.736215 1.072755,2.413589 -0.294661,-0.113072 -0.535746,-0.06346 -0.535746,0.110254 0,0.30045 1.089819,0.695942 1.365285,0.495455 0.07181,-0.05226 0.03101,-0.49167 -0.09067,-0.976461 z M 53.621654,56.24982 c 0.369828,-0.793394 0.344054,-1.083049 -0.164221,-1.845773 -0.651528,-0.977681 -0.683761,-0.918591 -0.878371,1.610036 -0.125003,1.624196 0.345768,1.730639 1.042592,0.235737 z m 12.084947,0.953699 c 0,-0.194028 -0.247495,-0.352778 -0.549988,-0.352778 -0.302493,0 -0.451873,0.15875 -0.331957,0.352778 0.119916,0.194028 0.367411,0.352778 0.549988,0.352778 0.182576,0 0.331957,-0.15875 0.331957,-0.352778 z m -9.940107,-0.822985 c 0.06273,-0.323469 -0.0657,-0.588126 -0.285401,-0.588126 -0.219706,0 -0.301353,0.15875 -0.181437,0.352778 0.119916,0.194027 0.04991,0.352777 -0.155568,0.352777 -0.205479,0 -0.373599,0.17198 -0.373599,0.382175 0,0.595383 0.868095,0.159939 0.996005,-0.499604 z m 5.931976,0.293818 c -0.225478,-0.58759 0.313189,-0.732268 0.656742,-0.176389 0.119916,0.194028 0.386849,0.352778 0.593181,0.352778 0.241586,0 0.223358,-0.182901 -0.05119,-0.513715 -0.234488,-0.28254 -0.332313,-0.665857 -0.217385,-0.85181 0.114928,-0.185956 0.0095,-0.409303 -0.234213,-0.496327 -0.243745,-0.08702 -0.337704,-0.272192 -0.208802,-0.41149 0.128905,-0.139294 0.605155,-0.05566 1.058333,0.18585 0.749946,0.399669 0.780472,0.386391 0.339799,-0.147807 -0.416718,-0.505156 -0.404431,-0.586923 0.08819,-0.586923 0.870313,0 0.688788,-0.486791 -0.512802,-1.375163 -1.042705,-0.770908 -1.112202,-0.777826 -1.776331,-0.176798 -0.380143,0.344025 -0.604393,0.851626 -0.498337,1.128007 0.131692,0.343182 0.02021,0.436266 -0.351628,0.293581 -0.366004,-0.140448 -0.656393,0.08547 -0.885945,0.689244 -0.47969,1.261678 -0.453016,1.3095 0.585078,1.048953 0.716742,-0.179889 0.88276,-0.118396 0.733125,0.271547 -0.106394,0.277255 -0.01534,0.682191 0.202322,0.899862 0.544601,0.5446 0.721194,0.495508 0.479859,-0.1334 z m 5.059387,-0.0085 c -0.245434,-0.29573 -0.518894,-0.465042 -0.607688,-0.376248 -0.244648,0.244651 0.25243,0.913941 0.67878,0.913941 0.233927,0 0.207162,-0.202416 -0.07109,-0.537693 z M 46.480212,56.497963 c -0.119916,-0.194027 -0.36741,-0.352777 -0.549987,-0.352777 -0.182577,0 -0.331958,0.15875 -0.331958,0.352777 0,0.194028 0.247494,0.352778 0.549987,0.352778 0.302492,0 0.451873,-0.15875 0.331958,-0.352778 z m 21.335979,-0.184915 c -0.245435,-0.29573 -0.518894,-0.465042 -0.607688,-0.376248 -0.244648,0.244651 0.25243,0.913941 0.678779,0.913941 0.233927,0 0.207162,-0.202417 -0.07109,-0.537693 z M 45.951045,55.43963 c -0.291042,-0.188087 -0.687917,-0.341972 -0.881945,-0.341972 -0.194027,0 -0.114652,0.153885 0.176389,0.341972 0.291042,0.188087 0.687917,0.341972 0.881945,0.341972 0.194028,0 0.114653,-0.153885 -0.176389,-0.341972 z m -3.527778,-0.352778 c 0,-0.194027 -0.125059,-0.352777 -0.277909,-0.352777 -0.15285,0 -0.827538,-0.492983 -1.499306,-1.095517 -1.130785,-1.014246 -0.589014,-0.77308 1.267031,0.564007 0.532937,0.383928 1.013275,0.439149 1.81639,0.208817 0.692273,-0.19854 1.222722,-0.182267 1.449455,0.04446 0.656768,0.65677 1.085399,0.118551 0.480792,-0.603716 -0.759676,-0.90751 -5.827746,-4.7628 -6.259413,-4.761548 -0.180636,3.53e-4 0.385946,0.621708 1.259071,1.380402 1.183761,1.028619 1.40806,1.364827 0.881945,1.321961 -0.388056,-0.03161 -0.672166,0.122061 -0.631357,0.341506 0.04434,0.238432 -0.381533,0.376069 -1.058333,0.342029 -0.622893,-0.03133 -1.132533,-0.237331 -1.132533,-0.457782 0,-0.491867 -0.518529,-1.057437 -0.556158,-0.606615 -0.01485,0.17786 -0.08028,0.601948 -0.14542,0.942421 -0.06514,0.340473 -0.0065,0.549892 0.130203,0.465381 0.136747,-0.08451 1.035624,0.462086 1.997504,1.21467 1.829823,1.431671 2.278038,1.638716 2.278038,1.052297 z m -0.176389,-1.411111 c -0.119916,-0.194028 -0.05928,-0.352778 0.134749,-0.352778 0.194028,0 0.450891,0.15875 0.570807,0.352778 0.119916,0.194028 0.05928,0.352778 -0.134749,0.352778 -0.194028,0 -0.450891,-0.15875 -0.570807,-0.352778 z m 1.189724,-0.586923 c -0.439027,-0.532201 -0.410163,-0.54749 0.309582,-0.163978 0.820899,0.437412 1.02303,0.750901 0.484168,0.750901 -0.17027,0 -0.527458,-0.264114 -0.79375,-0.586923 z m -2.09866,0.145951 c -0.173006,-0.565295 -0.227406,-1.322917 -0.09499,-1.322917 0.0926,0 0.496877,0.175814 0.89839,0.390698 0.585534,0.313369 0.633311,0.451944 0.241391,0.700151 -0.472068,0.298969 -0.989165,0.413823 -1.044791,0.232068 z m 24.287813,1.785937 c -0.0768,-0.230409 -0.328264,-0.481799 -0.558804,-0.558644 -0.257792,-0.08593 -0.336635,0.07535 -0.204791,0.418923 0.24607,0.641248 0.975247,0.774672 0.763595,0.139721 z m -7.691484,-0.198437 c -0.02007,-0.4731 -1.03402,-1.629992 -1.244304,-1.419712 -0.243176,0.24318 0.601836,1.684295 0.987605,1.684295 0.147356,0 0.262869,-0.119062 0.256699,-0.264583 z M 39.248267,54.393707 c 0,-0.438802 -1.250622,-1.113641 -1.535632,-0.828629 -0.11951,0.119507 0.05806,0.426375 0.394588,0.681923 0.733515,0.557001 1.141044,0.609399 1.141044,0.146706 z m 12.347222,-0.01241 c 0,-0.194028 -0.168119,-0.352778 -0.373597,-0.352778 -0.205479,0 -0.275485,0.15875 -0.155569,0.352778 0.119916,0.194028 0.288034,0.352778 0.373597,0.352778 0.08556,0 0.155569,-0.15875 0.155569,-0.352778 z M 66.851276,53.85213 c -0.18011,-0.942188 -0.592084,-1.137878 -1.001363,-0.47565 -0.138105,0.223463 0.04162,0.620338 0.399383,0.881944 0.829483,0.606535 0.799469,0.626791 0.60198,-0.406294 z M 55.540053,53.249159 c 0.674938,-0.778207 0.673957,-0.781054 -0.664175,-1.927031 -0.737062,-0.631222 -1.204277,-1.153633 -1.03826,-1.160918 0.166021,-0.0073 0.773511,0.383628 1.349985,0.868698 0.576471,0.485069 1.234387,0.876928 1.462038,0.870796 0.433324,-0.01168 -1.07588,-1.465573 -2.138771,-2.060398 -0.339048,-0.189738 -0.51864,-0.442786 -0.399101,-0.562328 0.119542,-0.119539 0.69676,0.186055 1.28271,0.679097 1.289999,1.085462 1.858659,1.180014 0.930826,0.154771 -0.63596,-0.702726 -2.304941,-1.727772 -2.813163,-1.727772 -0.129279,0 -0.147846,0.333478 -0.04126,0.741063 0.106584,0.407585 0.02237,1.11729 -0.187142,1.577121 -0.32373,0.710512 -0.253947,0.941808 0.464714,1.540256 0.465106,0.387312 0.65658,0.709479 0.425496,0.715935 -0.231083,0.0065 -0.518266,-0.147013 -0.638182,-0.341041 -0.329519,-0.533174 -0.881944,-0.422688 -0.881944,0.176389 0,0.291041 0.30813,0.529166 0.684734,0.529166 0.376605,0 0.78285,0.15875 0.902766,0.352778 0.31896,0.516089 0.545772,0.44159 1.298729,-0.426582 z m -1.501821,-1.561575 c -0.763164,-0.829712 -0.776157,-0.88876 -0.120675,-0.548424 0.877221,0.455457 1.783874,1.478248 1.310401,1.478248 -0.183964,0 -0.719339,-0.418419 -1.189726,-0.929824 z m 4.406985,1.509484 c -0.226808,-0.591051 -0.852505,-0.809357 -0.852505,-0.297438 0,0.343207 0.787029,1.165006 0.954923,0.997112 0.06601,-0.06601 0.01993,-0.380862 -0.102418,-0.699674 z m -6.778909,-0.144481 c -0.232978,-0.07766 -0.423596,-0.385533 -0.423596,-0.684163 0,-0.434022 0.102513,-0.457884 0.510931,-0.118928 0.431394,0.358027 0.498553,0.230547 0.431416,-0.818907 -0.04373,-0.683616 -0.179042,-1.342467 -0.300683,-1.464109 -0.121644,-0.121645 0.0028,-0.646511 0.276567,-1.166371 0.475071,-0.902162 0.441416,-0.990925 -0.739196,-1.949383 -1.981286,-1.608473 -1.042163,-1.777087 1.177868,-0.21148 1.32474,0.934237 2.230459,1.347043 2.624074,1.195998 0.330595,-0.126863 0.506561,-0.383593 0.391036,-0.570519 -0.115527,-0.186923 -0.440361,-0.251482 -0.721853,-0.143465 -0.281492,0.108021 -0.429215,0.06277 -0.328274,-0.100562 0.100944,-0.163329 -0.559255,-0.8362 -1.467111,-1.495267 -2.276501,-1.652644 -3.718529,-2.527233 -3.449678,-2.092222 0.329192,0.532641 -0.280091,0.445551 -1.071699,-0.153194 -0.376633,-0.284868 -0.934025,-0.522993 -1.238649,-0.529167 -0.304624,-0.0062 -1.225027,-0.58571 -2.04534,-1.287868 -0.820314,-0.702158 -1.591362,-1.176768 -1.713441,-1.054689 -0.12208,0.122079 0.08395,0.450716 0.45784,0.730306 0.642055,0.480117 0.623176,0.504398 -0.340002,0.437328 -0.560893,-0.03906 -1.083838,0.108755 -1.162101,0.328479 -0.151865,0.42636 3.325525,3.160589 3.63106,2.855055 0.0997,-0.0997 -0.542762,-0.701234 -1.427692,-1.336742 -1.764694,-1.267308 -1.974893,-1.566626 -0.903407,-1.286425 0.388056,0.10148 0.705556,0.03126 0.705556,-0.156066 0,-0.187314 0.175698,-0.231983 0.390441,-0.09926 0.279372,0.172663 0.269321,0.316163 -0.03533,0.504451 -0.274799,0.169834 0.52494,0.920369 2.255392,2.116628 1.474641,1.019418 2.681165,2.000038 2.681165,2.179154 0,0.179116 -0.73234,-0.178199 -1.627423,-0.794032 -1.103972,-0.759556 -1.707246,-0.990544 -1.87559,-0.718157 -0.166025,0.268633 -0.922903,-0.07112 -2.286713,-1.026471 -3.466609,-2.428367 -1.947582,-0.6849 1.760039,2.020091 2.205897,1.609368 3.720898,2.486148 4.096397,2.370716 0.369097,-0.113461 0.743036,0.0918 0.98255,0.539333 0.289626,0.541172 0.280662,0.722511 -0.03572,0.722511 -0.398154,0 -3.228197,-1.544059 -4.006638,-2.186006 -1.007305,-0.830678 -5.110729,-3.811217 -5.247052,-3.811217 -0.08662,0 -0.317828,0.459917 -0.513784,1.022036 -0.381138,1.093333 -0.06983,1.521372 2.580318,3.547851 0.873463,0.667907 0.919681,0.766664 0.264584,0.565362 -1.168845,-0.359167 -0.968845,-0.02043 0.529166,0.896267 2.787706,1.705903 3.481423,2.015321 3.086806,1.376818 -0.119916,-0.194028 -0.12613,-0.352778 -0.01381,-0.352778 0.377674,0 2.841703,1.662282 3.322155,2.24119 0.261671,0.315295 0.648396,0.466573 0.85939,0.336169 0.267404,-0.165262 0.255293,-0.279869 -0.03997,-0.378291 z m -2.517229,-2.700482 c -0.341674,-0.411691 -0.285296,-0.467194 0.31508,-0.310194 0.882475,0.230773 1.317486,0.811608 0.607846,0.811608 -0.278735,0 -0.694052,-0.225637 -0.922926,-0.501414 z m -4.134632,-0.748524 c -0.306004,-0.797433 -0.03138,-0.839269 0.672015,-0.102376 0.52234,0.547211 0.53421,0.646758 0.07712,0.646758 -0.297131,0 -0.634243,-0.244972 -0.749137,-0.544382 z m 2.176588,-0.169696 c 0.100446,-0.162525 0.02129,-0.395217 -0.175902,-0.517088 -0.197193,-0.121871 -0.358533,-0.05347 -0.358533,0.152012 0,0.205479 -0.175734,0.373599 -0.390521,0.373599 -0.214786,0 -0.299975,-0.235959 -0.189308,-0.524352 0.136539,-0.355815 -0.587451,-1.11265 -2.252488,-2.354675 -1.349535,-1.006679 -2.385491,-1.898537 -2.302124,-1.981902 0.11881,-0.118808 5.302231,3.407004 6.657061,4.528196 0.158343,0.131036 -0.04031,0.324079 -0.441459,0.428981 -0.401146,0.104902 -0.647173,0.05775 -0.546726,-0.104771 z m -3.180268,-1.389962 c -0.89997,-0.376831 -2.293056,-1.693373 -2.293056,-2.167058 0,-0.342932 0.807897,0.167732 2.822223,1.783902 0.914484,0.733725 0.692298,0.894606 -0.529167,0.383156 z m 3.905907,-1.080774 c -0.762169,-0.576686 -1.235582,-1.048519 -1.052031,-1.048519 0.379667,0 2.966957,1.703081 2.966957,1.952995 0,0.371976 -0.606575,0.08547 -1.914926,-0.904476 z m 2.620482,0.538981 c -0.244981,-0.295183 -0.28318,-0.529167 -0.08639,-0.529167 0.194027,0 0.550404,0.238125 0.791947,0.529167 0.24498,0.295183 0.28318,0.529167 0.08639,0.529167 -0.194028,0 -0.550404,-0.238125 -0.791947,-0.529167 z m -2.822222,-3.351389 -0.881945,-0.689868 0.79375,-0.0078 c 0.449833,-0.0044 0.755537,0.183218 0.705556,0.433126 -0.04851,0.242535 0.177647,0.397076 0.502565,0.343422 0.324917,-0.05365 0.691473,0.06541 0.81457,0.264584 0.387087,0.626311 -1.01236,0.377871 -1.934496,-0.343433 z M 45.421878,42.73963 c -0.119916,-0.194028 -0.05928,-0.352778 0.134749,-0.352778 0.194028,0 0.450891,0.15875 0.570807,0.352778 0.119916,0.194028 0.05928,0.352778 -0.134749,0.352778 -0.194028,0 -0.450891,-0.15875 -0.570807,-0.352778 z m 18.98003,8.652958 c -0.543598,-0.478254 -1.107425,-0.874568 -1.252946,-0.880699 -0.145521,-0.0061 -0.264584,-0.280416 -0.264584,-0.609519 0,-0.455662 0.277446,-0.329456 1.163324,0.529167 1.263586,1.224717 1.752321,1.428697 1.433696,0.598371 -0.242341,-0.631522 0.267808,-0.698229 0.854322,-0.111714 0.588514,0.588514 0.977441,0.06674 0.436291,-0.585315 -0.245435,-0.295734 -0.327995,-0.537693 -0.183466,-0.537693 0.14453,0 0.08401,-0.2154 -0.134475,-0.478663 -0.228353,-0.275153 -0.302966,-0.950105 -0.175486,-1.587501 0.180968,-0.904839 0.108352,-1.108837 -0.394691,-1.108837 -0.507969,0 -0.539168,0.09313 -0.177292,0.529167 0.357483,0.430742 0.339823,0.529167 -0.09495,0.529167 -0.293765,0 -0.641103,-0.426258 -0.77186,-0.94724 l -0.23774,-0.947244 -0.448592,0.859049 c -0.262855,0.503365 -0.322351,1.024859 -0.143694,1.259519 0.35391,0.464852 -1.828394,1.892583 -2.892841,1.892583 -1.015806,0 -2.465878,0.759382 -2.465878,1.29135 0,0.259895 0.145768,0.472538 0.323924,0.472538 0.17816,0 0.593355,0.103389 0.922655,0.229754 0.493857,0.189509 0.553572,0.08747 0.340921,-0.582531 -0.212651,-0.670003 -0.152936,-0.77204 0.340921,-0.582532 0.3293,0.126365 0.98262,0.229754 1.451822,0.229754 0.469198,0 0.85309,0.166363 0.85309,0.3697 0,0.203334 0.436563,0.745938 0.970139,1.205784 0.792487,0.682985 1.021927,0.744259 1.252947,0.334614 0.190825,-0.338367 -0.03866,-0.784303 -0.705557,-1.371029 z m 0.408242,-1.620873 c -0.127893,-0.206936 -0.147825,-0.460957 -0.04429,-0.564494 0.252701,-0.252698 0.940742,0.192557 0.940742,0.608785 0,0.45084 -0.609039,0.420748 -0.896451,-0.04429 z m -16.389661,2.845693 c 0,-0.194028 -0.168119,-0.352778 -0.373597,-0.352778 -0.205479,0 -0.275485,0.15875 -0.155569,0.352778 0.119916,0.194028 0.288034,0.352778 0.373597,0.352778 0.08556,0 0.155569,-0.15875 0.155569,-0.352778 z M 67.117712,52.26463 c 0,-0.194028 -0.247495,-0.352778 -0.549988,-0.352778 -0.302493,0 -0.451873,0.15875 -0.331957,0.352778 0.119917,0.194028 0.367411,0.352778 0.549988,0.352778 0.182577,0 0.331957,-0.15875 0.331957,-0.352778 z M 40.130211,51.559074 c -0.119915,-0.194027 -0.0253,-0.352777 0.210246,-0.352777 0.265765,0 0.185987,-0.267723 -0.210246,-0.705556 -0.88114,-0.973649 -1.500924,-0.893431 -0.681397,0.08819 0.364472,0.436562 0.436701,0.595312 0.160509,0.352777 -0.276192,-0.242534 -0.668855,-0.435691 -0.872584,-0.429235 -0.203729,0.0065 0.0044,0.323956 0.462416,0.705556 0.911006,0.758945 1.270782,0.890728 0.931056,0.34104 z m 17.815278,-1.726145 c 0,-0.17327 -0.238125,-0.40641 -0.529166,-0.518096 -0.291042,-0.111683 -0.529167,-0.429183 -0.529167,-0.705556 0,-0.597436 -0.785738,-0.96448 -1.336287,-0.624226 -0.477333,0.29501 -0.176484,0.778806 0.973811,1.565998 0.971469,0.664817 1.420809,0.753964 1.420809,0.28188 z m 0.966171,-0.964611 c 0.434382,-0.116423 0.704726,-0.349303 0.60077,-0.517511 -0.103957,-0.168208 0.453453,-1.156772 1.238691,-2.19681 1.57354,-2.084141 1.677232,-2.356034 0.898535,-2.356034 -0.291042,0 -0.529167,0.257969 -0.529167,0.573264 0,0.448811 -0.229757,0.527311 -1.058333,0.361597 -1.178299,-0.235659 -1.463061,0.300249 -0.347655,0.654266 1.196015,0.379599 0.374396,0.963855 -0.994343,0.707079 -1.170104,-0.219512 -1.224517,-0.192094 -0.75335,0.379614 0.468845,0.568889 0.426568,0.596462 -0.550485,0.359022 -0.582084,-0.141457 -1.6455,-0.659984 -2.363146,-1.152286 -0.717648,-0.492297 -1.511399,-0.818691 -1.763889,-0.725318 -0.278655,0.10305 -0.09127,0.316393 0.476794,0.542841 0.514727,0.205186 1.041438,0.543877 1.170463,0.752648 0.129025,0.208766 0.85362,0.695381 1.610209,1.081366 0.938953,0.479016 1.311314,0.869354 1.173042,1.229681 -0.220645,0.574989 -0.0109,0.628943 1.191864,0.306581 z m 3.619941,-0.484244 c 0,-0.194027 -0.15875,-0.352777 -0.352778,-0.352777 -0.194028,0 -0.352778,0.15875 -0.352778,0.352777 0,0.194028 0.15875,0.352778 0.352778,0.352778 0.194028,0 0.352778,-0.15875 0.352778,-0.352778 z M 41.26414,47.073755 c -0.32338,-0.323377 -0.699216,-0.476708 -0.835193,-0.34073 -0.135976,0.135975 0.05843,0.470733 0.432019,0.743906 0.879807,0.643333 1.164744,0.358394 0.403174,-0.403176 z m 25.148016,-1.511903 c 0,-0.194028 -0.277812,-0.350347 -0.617361,-0.347377 -0.527597,0.0046 -0.54042,0.05512 -0.08819,0.347377 0.665765,0.430251 0.705555,0.430251 0.705555,0 z m -8.113889,-1.143557 c 0,-0.204396 -0.435225,-0.268704 -1.022992,-0.151151 -0.846776,0.169358 -1.621557,-0.192568 -4.497917,-2.10112 -1.911208,-1.268145 -3.633674,-2.497921 -3.827702,-2.732832 -0.57824,-0.700091 -2.969901,-2.053594 -3.384518,-1.91539 -0.211526,0.07051 0.415391,0.674102 1.393147,1.341318 0.977757,0.667219 1.709971,1.28089 1.627143,1.363719 -0.08283,0.08283 -0.820723,-0.292873 -1.639767,-0.834891 -0.935793,-0.619277 -1.5393,-0.835103 -1.62407,-0.580792 -0.07419,0.222581 -0.359794,0.404696 -0.634666,0.404696 -0.274873,0 -0.499769,0.238125 -0.499769,0.529167 0,0.291041 0.218687,0.529166 0.485971,0.529166 0.267284,0 0.682146,0.236379 0.921916,0.525283 0.23977,0.288904 0.576709,0.438288 0.748752,0.331957 0.528348,-0.326535 0.348626,-0.765581 -0.39275,-0.959457 -0.788672,-0.206241 -0.969895,-0.956116 -0.231065,-0.956116 0.602864,0 1.721532,1.214162 1.40776,1.527933 -0.129775,0.129777 -0.09043,0.247273 0.08742,0.261102 2.03183,0.158002 3.314909,0.483739 4.297489,1.091008 0.648056,0.400519 1.104328,0.802167 1.013943,0.892552 -0.09038,0.09038 -0.579939,-0.107978 -1.087898,-0.440806 -0.507959,-0.332825 -1.008479,-0.520224 -1.112266,-0.416437 -0.342342,0.342343 1.386459,1.670759 2.174326,1.670759 0.424724,0 0.968404,0.236379 1.208173,0.525283 0.239772,0.288904 0.550622,0.454409 0.690784,0.367785 0.140159,-0.08663 0.714573,-0.03454 1.276474,0.115728 1.208811,0.323286 2.622077,0.113909 2.622077,-0.388464 z m 5.897901,0.349807 c -0.08696,-0.242535 -0.0025,-0.742678 0.187819,-1.111426 0.299181,-0.57984 0.18753,-0.557661 -0.826092,0.164101 l -1.172027,0.834556 0.866616,0.241706 c 0.476638,0.132937 0.919533,0.257531 0.984208,0.27687 0.06468,0.01933 0.04644,-0.163272 -0.04052,-0.405807 z m -7.188577,-0.855391 c 0.250426,-0.250426 -1.459982,-1.519541 -2.053294,-1.523534 -0.348213,-0.0025 1.226757,1.700586 1.609478,1.740242 0.113186,0.01171 0.3129,-0.08579 0.443816,-0.216708 z m 2.502041,-0.505319 c -0.162436,-0.26283 0.0038,-0.312744 0.508346,-0.152618 0.542336,0.17213 0.749734,0.08806 0.749734,-0.303911 0,-0.336723 -0.200336,-0.46499 -0.529167,-0.338808 -0.291042,0.111686 -0.529167,0.03897 -0.529167,-0.161594 0,-0.200557 0.277813,-0.422924 0.617361,-0.494146 0.523995,-0.109911 0.49088,-0.199175 -0.218962,-0.590229 -0.459976,-0.253407 -0.735199,-0.297117 -0.611607,-0.09714 0.284836,0.460873 -0.36649,0.884552 -0.875863,0.569743 -0.276172,-0.170681 -0.276172,-0.344371 0,-0.620543 0.673644,-0.673643 0.412853,-0.941648 -0.557353,-0.572777 -0.517479,0.196744 -1.033417,0.22376 -1.146528,0.06004 -0.207222,-0.299946 -3.20427,-0.529305 -3.20427,-0.245216 0,0.08394 0.912813,0.618314 2.028472,1.187499 1.11566,0.569186 2.345973,1.280795 2.734028,1.581358 0.827366,0.640825 1.379619,0.73599 1.034976,0.178347 z m -1.91692,-1.248621 c -0.679098,-0.480269 -1.393473,-1.044858 -1.5875,-1.25464 -0.447319,-0.483645 1.529418,0.63658 2.669134,1.512605 1.270222,0.976337 0.355028,0.758066 -1.081634,-0.257965 z m 5.328285,0.829144 c -0.452787,-0.452787 -0.911948,-0.102835 -0.576736,0.439554 0.129851,0.2101 0.397705,0.28212 0.595232,0.160041 0.240947,-0.148914 0.234862,-0.346237 -0.01849,-0.599595 z m 0.845326,-0.601063 c -0.123656,-0.200081 0.172727,-0.352778 0.684734,-0.352778 0.987175,0 1.215842,-0.509929 0.373599,-0.83313 -0.291042,-0.111683 -0.529167,-0.03992 -0.529167,0.159466 0,0.19939 -0.15875,0.264414 -0.352777,0.144498 -0.194028,-0.119917 -0.352778,-0.04991 -0.352778,0.155568 0,0.654381 -0.616045,0.401214 -0.807773,-0.331957 -0.142138,-0.543536 -0.0098,-0.706798 0.576217,-0.710957 0.620476,-0.0044 0.663165,-0.06845 0.231556,-0.347377 -0.291042,-0.188087 -0.817675,-0.344406 -1.170302,-0.347376 -0.500796,-0.0042 -0.587191,0.164556 -0.394698,0.771045 0.241544,0.76104 0.228261,0.76454 -0.669371,0.176389 -0.910639,-0.596675 -2.002755,-0.840751 -1.501077,-0.335474 0.370544,0.373203 3.500018,2.146466 3.844463,2.178399 0.156972,0.01457 0.18729,-0.132288 0.06737,-0.326316 z M 53.424053,41.60486 C 53.170914,41.351721 53.0066,41.330893 53.0066,41.55194 c 0,0.470881 0.417199,0.88808 0.652639,0.652639 0.100249,-0.100245 -0.0056,-0.37012 -0.235186,-0.599722 z m -1.150691,-0.893702 c -0.723552,-0.956818 -1.467067,-1.499306 -2.05489,-1.499306 -0.326028,0 -0.0573,0.409695 0.684788,1.043996 1.359724,1.162234 2.0876,1.40412 1.370102,0.45531 z M 65.001045,39.56463 c 0,-0.194028 -0.238125,-0.352778 -0.529167,-0.352778 -0.291041,0 -0.529166,0.15875 -0.529166,0.352778 0,0.194028 0.238125,0.352778 0.529166,0.352778 0.291042,0 0.529167,-0.15875 0.529167,-0.352778 z m -5.115278,-0.529269 c -0.194028,-0.06643 -1.109913,-0.222843 -2.035298,-0.347567 -0.925389,-0.124729 -1.590707,-0.375338 -1.478488,-0.556917 0.279318,-0.451943 2.282228,-0.415307 3.665936,0.06705 0.807741,0.28158 1.362145,0.289091 1.904725,0.02579 0.420941,-0.204266 1.003472,-0.449884 1.294514,-0.545814 0.291042,-0.09593 -0.624134,-0.16944 -2.033725,-0.163351 -1.536989,0.0066 -2.773959,-0.164094 -3.090182,-0.426536 -0.520128,-0.431666 -2.491376,-0.334486 -3.783732,0.186535 -0.435102,0.175411 -0.617361,0.08153 -0.617361,-0.318019 0,-0.311803 0.213522,-0.56691 0.47449,-0.56691 0.260971,0 0.77513,-0.332204 1.14258,-0.73823 1.2045,-1.33096 2.309449,-1.714596 5.188119,-1.801308 1.3373,-0.04028 1.665817,-0.167101 1.574437,-0.607769 -0.08712,-0.420155 -0.501985,-0.539853 -1.689908,-0.487582 -1.469358,0.06466 -1.527348,0.03419 -0.868885,-0.456702 0.392815,-0.292838 1.053049,-0.438933 1.489516,-0.3296 0.691106,0.173125 0.748994,0.101868 0.488753,-0.601628 -0.162363,-0.438908 -0.435769,-0.739309 -0.607568,-0.667558 -0.171803,0.07175 -0.709242,0.27026 -1.194312,0.441124 -0.485069,0.170868 -1.157601,0.46935 -1.494518,0.663293 -0.719649,0.414271 -2.033259,0.469819 -2.033259,0.08599 0,-0.392179 3.32457,-1.850019 4.218929,-1.850019 0.612958,0 0.721332,-0.145479 0.538198,-0.722486 -0.320217,-1.008913 0.417011,-1.746959 1.745033,-1.746959 0.618253,0 1.432253,-0.233077 1.808885,-0.517948 0.376633,-0.284868 0.927319,-0.522993 1.223748,-0.529167 0.296428,-0.0062 0.81081,-0.328718 1.143074,-0.716774 0.655246,-0.76527 1.837478,-0.93696 2.217519,-0.32204 0.343115,0.555173 -0.282477,1.044466 -1.444569,1.129831 -0.555191,0.04078 -1.28469,0.341658 -1.621109,0.668609 -0.726941,0.706476 -2.971419,1.383354 -3.682415,1.11052 -0.719881,-0.276247 -0.620416,0.343471 0.228311,1.422449 l 0.73116,0.92952 h -0.785837 c -0.721773,0 -0.741207,0.05033 -0.238414,0.617361 0.301085,0.339549 0.605621,0.934576 0.676748,1.322282 0.07113,0.38771 0.365329,0.70521 0.653782,0.705556 0.742837,0.0011 0.816955,0.702144 0.07665,0.725233 -1.197807,0.03736 -6.778251,1.198605 -7.313306,1.521845 -0.194027,0.117217 0.282223,0.319031 1.058334,0.448479 0.776111,0.129448 1.752995,0.344621 2.170853,0.478166 0.582083,0.186026 0.814497,0.07028 0.993909,-0.495004 0.137509,-0.433243 0.533439,-0.737807 0.95915,-0.737807 0.609537,0 0.65392,0.08562 0.278733,0.537694 -0.612602,0.738141 -0.349687,0.886954 1.139938,0.64522 1.564139,-0.253824 4.352368,-2.484674 5.604669,-4.484272 0.504183,-0.805046 1.710341,-2.336267 2.680353,-3.402711 0.970008,-1.066443 1.977259,-2.335861 2.238332,-2.820931 0.544732,-1.012098 0.784003,-3.626894 0.304783,-3.33072 -0.175631,0.10855 -0.319331,0.393062 -0.319331,0.632256 0,0.239194 -0.713719,1.135355 -1.58604,1.991473 -1.162642,1.141049 -1.690627,1.451991 -1.977827,1.164791 -0.2872,-0.2872 -0.02244,-0.725459 0.991736,-1.641719 0.760938,-0.687465 1.687555,-1.814484 2.05915,-2.504489 0.371591,-0.690005 0.956694,-1.343766 1.300233,-1.452799 0.343535,-0.109033 0.788775,-0.504991 0.989425,-0.879905 0.398946,-0.745441 1.398323,-0.933715 1.398323,-0.26343 0,0.230029 -0.333319,0.773035 -0.740703,1.20668 -0.491726,0.523416 -0.824195,1.496508 -0.98908,2.894923 l -0.248373,2.106482 1.606437,0.188468 c 0.883543,0.10366 2.003316,0.294287 2.488386,0.423615 0.766205,0.204287 0.743055,0.158606 -0.176389,-0.348079 -1.185658,-0.65339 -3.351389,-2.643081 -3.351389,-3.078974 0,-0.620363 1.265488,-0.235793 1.59204,0.483807 0.423774,0.933831 2.680025,2.14497 3.982537,2.137795 0.523497,-0.0028 1.110562,0.117729 1.304589,0.268026 0.375271,0.290692 4.323202,-0.146868 4.696912,-0.520573 0.12185,-0.121849 0.007,-0.353917 -0.25441,-0.515701 -0.77322,-0.47788 -0.14997,-0.973596 1.01002,-0.803346 1.31213,0.192582 1.33018,0.363989 0.14553,1.381933 -1.06621,0.916168 -2.62438,1.289484 -5.509451,1.319989 -1.115438,0.01178 -2.02825,0.119733 -2.028473,0.239867 -0.0011,0.544982 2.819975,0.592142 5.052104,0.08445 1.34618,-0.306179 2.97966,-0.470348 3.62997,-0.364818 1.33042,0.215896 1.80415,-0.168314 1.01503,-0.823228 -0.52942,-0.439374 -0.72787,-1.407887 -0.28848,-1.407887 0.13024,0 0.48743,0.223799 0.79375,0.497328 0.54449,0.486202 1.2142,0.686739 2.01311,0.602802 0.56664,-0.05953 4.22495,-5.62182 4.66792,-7.097352 0.20387,-0.679098 0.62877,-2.107848 0.94422,-3.175 0.31545,-1.067153 1.44052,-3.563867 2.500172,-5.5482534 1.05964,-1.9843854 1.88022,-3.7270103 1.82352,-3.8724994 -0.0567,-0.1454891 0.69064,-0.2871297 1.66078,-0.3147568 0.97014,-0.027626 1.84327,-0.073956 1.94028,-0.1029533 0.097,-0.028998 -0.56053,-0.5155766 -1.46121,-1.0812879 -1.75869,-1.1046248 -2.59599,-1.1049212 -4.18323,-0.00148 -0.485072,0.3372154 -1.040702,0.6336433 -1.234732,0.6587286 -0.19402,0.025086 -0.35277,0.3484241 -0.35277,0.7185311 0,0.3701069 -0.39688,1.1210953 -0.88195,1.6688629 -0.48507,0.5477676 -1.33833,1.8823239 -1.89613,2.9656812 -0.55781,1.083356 -1.54506,2.584041 -2.19391,3.334855 -0.64884,0.750815 -1.68628,2.325058 -2.30542,3.498316 -2.48095,4.701379 -4.18787,6.665786 -4.18787,4.819608 0,-1.010013 -1.55521,-1.820964 -4.668372,-2.43429 -2.001213,-0.394261 -2.981865,-0.448468 -3.394463,-0.187642 -0.603109,0.381257 -1.036789,0.101663 -3.182433,-2.05171 -0.937482,-0.940857 -2.875824,-2.069708 -3.553884,-2.069708 -0.203662,0 -0.370296,0.219609 -0.370296,0.488021 0,0.705785 -1.179968,1.021309 -4.675089,1.250123 -2.102348,0.137632 -3.087338,0.08044 -3.086806,-0.179226 0.0018,-0.794414 1.659075,-1.2591 4.083343,-1.144821 2.247639,0.105954 2.468707,0.05219 2.790656,-0.678681 0.691169,-1.569058 3.736643,-0.635704 5.570167,1.707104 0.728821,0.931261 1.161059,1.091818 4.151048,1.54192 3.406769,0.51284 5.693119,1.257497 6.754029,2.199767 0.5423,0.481658 0.67782,0.362853 1.54907,-1.358047 0.52513,-1.037237 1.76583,-3.050351 2.7571,-4.473589 0.99127,-1.423239 2.05457,-3.039287 2.36288,-3.591219 0.30832,-0.551932 0.79914,-1.3718394 1.09073,-1.8220163 0.29158,-0.4501769 0.64634,-1.28966 0.78836,-1.8655175 0.14202,-0.5758579 0.72275,-1.6786945 1.29053,-2.4507484 0.56777,-0.7720538 1.03232,-1.7171476 1.03232,-2.1002081 0,-0.3830606 0.2613,-0.9852047 0.58066,-1.3380982 0.54786,-0.60537828 0.50864,-0.67171528 -0.69423,-1.17430552 -0.70118,-0.2929749 -1.41011,-0.5326818 -1.57537,-0.5326818 -0.16527,0 -0.64557,-0.396875 -1.06733,-0.88194438 -0.42177,-0.4850695 -0.96633,-0.9022045 -1.21015,-0.926967 -0.24382,-0.024763 -0.76081,-0.096941 -1.14886,-0.1603954 -5.15862,-0.8435397 -9.08585,-0.4450398 -12.750439,1.29379878 -1.191906,0.5655571 -2.497935,1.0282858 -2.902282,1.0282858 -1.059102,0 -1.914984,1.44125852 -1.501581,2.52858672 0.209557,0.5511729 0.195968,1.1065979 -0.03785,1.5469231 -0.613306,1.1550111 -2.134763,2.6271401 -2.717601,2.6294981 -0.303248,0.00123 -0.827221,0.4377891 -1.164382,0.9701389 -0.337164,0.5323494 -1.178923,1.6658498 -1.870579,2.5188902 -1.500255,1.850305 -1.617811,3.659216 -0.250427,3.853416 1.068963,0.151817 1.005992,0.64639 -0.109452,0.85962 -1.693129,0.323662 -2.691836,-2.532287 -1.388964,-3.971943 0.609169,-0.673126 0.596759,-0.674716 -0.845291,-0.108262 -0.980733,0.385242 -1.531892,0.847222 -1.670731,1.400402 -0.113954,0.454029 -0.348728,0.825508 -0.521723,0.825508 -0.428166,0 -0.398907,-1.185627 0.04009,-1.624626 0.237652,-0.237651 -0.111986,-0.560497 -1.059964,-0.978744 -0.778026,-0.343266 -1.578193,-0.9298094 -1.778148,-1.3034314 -0.199958,-0.373622 -0.481231,-0.6793124 -0.625051,-0.6793124 -0.424202,0 -0.02138,2.9371238 0.50668,3.6944678 0.624681,0.89591 0.660577,3.478346 0.04549,3.273319 -0.241828,-0.08061 -0.536091,-0.73962 -0.653911,-1.464465 -0.117818,-0.724844 -0.458238,-1.561919 -0.756483,-1.860166 -0.385692,-0.38569 -0.488961,-0.964484 -0.357643,-2.004517 l 0.184627,-1.4622499 -1.016918,0.9058835 c -1.344351,1.1975694 -2.813127,2.0927284 -3.433752,2.0927284 -0.275759,0 -0.780192,0.587555 -1.120965,1.305679 -0.745624,1.571287 -5.030842,5.747439 -5.899002,5.748864 -0.962043,0.0014 -0.733986,-0.731749 0.67691,-2.176638 0.89875,-0.920403 1.313942,-1.679597 1.35864,-2.484319 0.0354,-0.637375 0.184339,-1.436676 0.330972,-1.776225 0.200956,-0.465342 0.100947,-0.617361 -0.40614,-0.617361 -0.370009,0 -0.863243,0.1905 -1.096076,0.423333 -0.720177,0.720177 -0.511235,-0.374216 0.331904,-1.738443 0.463656,-0.7502124 1.333955,-1.4700679 2.254193,-1.8645281 0.824424,-0.3533899 1.599964,-0.8059674 1.723422,-1.0057282 0.123461,-0.1997608 0.93043,-0.8396471 1.793268,-1.4219689 1.067139,-0.7202026 1.648009,-0.9305992 1.816509,-0.6579567 0.136243,0.2204455 -0.03701,0.5693812 -0.385014,0.7754119 -0.348001,0.2060307 -1.514828,1.0492889 -2.592945,1.8739069 -1.078121,0.8246181 -2.14599,1.4993057 -2.373045,1.4993057 -0.227058,0 -0.671678,0.286026 -0.988053,0.6356144 -0.549697,0.607409 -0.459372,0.632073 2.035433,0.555793 2.961513,-0.09055 3.30503,-0.230672 5.812331,-2.3708639 0.99766,-0.8515887 3.531701,-2.4758866 5.631202,-3.6095507 2.961791,-1.599275 3.967166,-2.3345271 4.486116,-3.280796 0.840493,-1.53257462 1.102519,-1.65393902 4.549401,-2.10716992 1.728527,-0.2272838 4.19577,-0.91660838 6.366588,-1.77876238 3.863906,-1.534576 5.528506,-1.7337667 10.566746,-1.2644477 2.88296,0.2685514 4.65495,0.8877579 4.98239,1.7410508 0.10097,0.2631324 0.68812,0.6649491 1.30477,0.8929265 0.61664,0.22797698 1.39163,0.55676088 1.72218,0.73063028 0.939432,0.494134 1.164002,-0.3205177 0.380512,-1.38033728 -0.380132,-0.5142064 -1.232732,-1.1992416 -1.894662,-1.5223007 -0.95756,-0.4673385 -1.08299,-0.6351066 -0.61373,-0.820915 0.32439,-0.1284443 0.9197,-0.056976 1.32292,0.1588195 0.57839,0.3095488 0.73312,0.2891653 0.73312,-0.096581 0,-0.4400561 -0.68418,-2.727426 -0.89619,-2.996138 -0.0472,-0.05987 -0.68802,0.142727 -1.42395,0.450221 -1.23329,0.515299 -1.43657,0.512051 -2.59577,-0.04147 -1.32384,-0.632135 -3.05296,-0.766462 -10.25353,-0.796546 -6.524792,-0.02726 -9.723277,0.390181 -11.760321,1.534868 -0.938386,0.52731 -1.785878,0.8790213 -1.883315,0.7815813 -0.448899,-0.4488963 -5.059511,1.7441771 -6.98905,3.3243958 -2.144836,1.75653698 -2.650653,2.02029842 -2.650653,1.38219988 0,-0.76576828 -0.809988,-0.2518988 -3.262132,2.06955192 -1.407284,1.3322811 -3.458605,2.9276509 -4.558492,3.5452668 -2.462025,1.3824945 -2.560238,1.5010807 -3.268484,3.9465044 -0.315188,1.0882804 -1.099596,2.5944564 -1.745383,3.3513894 -1.473744,1.727389 -2.172265,3.103151 -2.489197,4.902566 -0.136697,0.776111 -0.644412,2.256381 -1.128256,3.289491 -0.483843,1.033106 -1.027297,2.779356 -1.207676,3.880555 -0.462851,2.82568 -0.436462,3.157023 0.185901,2.334186 0.439631,-0.581243 0.519643,-0.597147 0.529167,-0.10517 0.01208,0.624047 0.929385,1.136149 1.454165,0.81182 0.176519,-0.109097 0.320943,0.04914 0.320943,0.351631 0,0.640849 -1.417458,0.755308 -2.010423,0.162341 -0.397393,-0.397394 -0.52962,-0.01288 -0.982515,2.857091 -0.241164,1.528251 0.929522,5.424234 1.674875,5.573892 0.379027,0.07611 0.593277,-0.335431 0.762657,-1.464938 0.198741,-1.325301 0.490114,-1.769103 1.864484,-2.839864 1.596174,-1.243567 2.571477,-1.598669 2.571477,-0.936258 0,0.18306 -0.439002,0.592158 -0.975559,0.909112 -0.536558,0.316953 -1.321395,1.103855 -1.744083,1.74867 l -0.768523,1.172397 1.655888,-0.08602 c 2.814479,-0.146205 4.052343,-0.902525 5.100555,-3.116379 0.958244,-2.02384 2.284113,-3.310442 2.839329,-2.755226 0.413212,0.413212 -0.136292,1.265449 -0.81594,1.265449 -0.291041,0 -1.010253,0.929146 -1.598245,2.064766 -0.587993,1.135624 -1.370154,2.284921 -1.738136,2.553995 -0.367981,0.269074 -0.558985,0.599299 -0.424454,0.733831 0.366729,0.366726 2.157316,-1.094896 2.281317,-1.862201 0.219505,-1.358244 0.874183,-2.608446 1.365931,-2.608446 0.42714,0 0.420444,0.122682 -0.0428,0.784052 -0.302041,0.431225 -0.549169,1.160783 -0.549169,1.621236 0,0.460449 -0.312808,1.276484 -0.695131,1.813408 -0.382327,0.536921 -0.597828,1.073531 -0.478896,1.19246 0.118928,0.118932 0.01224,0.462036 -0.237085,0.762455 -0.552093,0.665229 -0.496079,0.727216 1.058334,1.171197 1.092997,0.312188 6.707812,0.543511 5.820833,0.239812 z m 4.444235,-6.931706 c -0.213011,-0.61104 -0.38729,-1.418019 -0.38729,-1.79329 0,-1.07345 0.867949,-0.517828 0.997285,0.638415 0.06344,0.567119 0.261874,1.18194 0.440972,1.366266 0.475301,0.489176 0.398187,0.899584 -0.169023,0.899584 -0.272062,0 -0.668937,-0.499939 -0.881944,-1.110975 z M 50.414807,30.202401 c 0.114557,-0.298531 0.784262,-0.847139 1.488234,-1.219129 1.241633,-0.656103 1.251532,-0.676815 0.33063,-0.691939 -1.193584,-0.01961 -1.592877,-0.594529 -0.626031,-0.901393 0.431968,-0.137103 1.080984,2.72e-4 1.596216,0.337866 0.647545,0.424286 1.040818,0.476564 1.547037,0.205645 0.841325,-0.450264 1.430708,-0.466263 1.430708,-0.03884 0,0.178435 -0.833438,0.59871 -1.852084,0.933944 -1.018646,0.335238 -2.230681,0.903619 -2.693408,1.263075 -1.023997,0.795457 -1.500629,0.83869 -1.221302,0.110772 z m 5.84764,-1.287251 c 0.218041,-0.654127 0.977487,-0.762621 0.977487,-0.13964 0,0.30721 -0.251354,0.558564 -0.558564,0.558564 -0.307213,0 -0.495727,-0.188517 -0.418923,-0.418924 z m 0.865536,-1.012528 c -0.598071,-0.698497 -0.591044,-0.751318 0.186182,-1.399375 0.444243,-0.370413 0.926776,-0.678758 1.072297,-0.685214 0.445149,-0.01976 0.294682,0.582447 -0.2607,1.043372 -0.288903,0.239773 -0.429736,0.590543 -0.312959,0.779491 0.134165,0.217085 0.35349,0.202374 0.595838,-0.03997 0.481012,-0.481013 1.892116,-0.500885 2.182682,-0.03073 0.123144,0.199252 -0.165785,0.352777 -0.663917,0.352777 -0.48507,0 -0.980056,0.15875 -1.099972,0.352778 -0.346971,0.561414 -1.027144,0.41208 -1.699451,-0.373119 z M 45.598267,26.864629 c -0.82976,-0.829761 -0.91067,-1.411111 -0.196393,-1.411111 0.490918,0 1.607504,1.279737 1.607504,1.842386 0,0.497861 -0.694117,0.285718 -1.411111,-0.431275 z m 2.116667,-0.176388 c 0,-0.291042 0.15875,-0.529167 0.352778,-0.529167 0.194027,0 0.352777,0.238125 0.352777,0.529167 0,0.291041 -0.15875,0.529166 -0.352777,0.529166 -0.194028,0 -0.352778,-0.238125 -0.352778,-0.529166 z m 12.964583,0.264844 c -0.339548,-0.0771 -0.617361,-0.366674 -0.617361,-0.643488 0,-0.630403 0.384821,-0.639223 1.220738,-0.02798 0.710858,0.51979 0.374932,0.893625 -0.603377,0.67147 z M 50.40073,26.358531 c 0.116552,-0.303728 0.235663,-0.552235 0.264693,-0.552235 0.02903,0 0.565529,-0.147055 1.192222,-0.326789 1.339678,-0.384213 1.974586,0.16703 0.72921,0.63312 -2.087524,0.781269 -2.40528,0.817012 -2.186125,0.245904 z M 47.097573,25.03904 c -1.264759,-0.781893 -1.484658,-1.349411 -0.522865,-1.349411 0.587997,0 3.256892,1.600405 3.256892,1.952996 0,0.411339 -1.699085,0.03623 -2.734027,-0.603585 z m 7.672916,0.09271 c 0,-0.176975 0.640511,-0.429983 1.423353,-0.562243 1.362181,-0.230142 3.515536,-1.650768 3.515536,-2.319296 0,-0.175101 0.555625,-1.046275 1.234723,-1.935938 0.732225,-0.95927 1.234722,-2.01971 1.234722,-2.605691 0,-0.543465 0.238125,-1.185743 0.529166,-1.427286 0.912834,-0.757586 0.690556,2.143799 -0.264583,3.453553 -0.436562,0.598647 -1.460839,2.030974 -2.276168,3.182948 -0.815333,1.151972 -1.741128,2.193774 -2.057326,2.315108 -0.878346,0.337055 -3.339423,0.262506 -3.339423,-0.101155 z m 5.644445,-0.224917 c 0,-1.146461 2.192059,-4.504267 3.397984,-5.205046 0.268488,-0.156023 0.65145,-0.18276 0.851023,-0.05941 0.206647,0.127713 -0.24391,0.813121 -1.046529,1.592037 -0.775169,0.752274 -1.73669,2.009323 -2.136719,2.793443 -0.775631,1.520359 -1.065759,1.759645 -1.065759,0.878981 z M 49.658768,24.742209 c 0.121872,-0.197192 0.369366,-0.267201 0.549986,-0.155568 0.489319,0.302412 0.398079,0.5141 -0.221585,0.5141 -0.302492,0 -0.450273,-0.16134 -0.328401,-0.358532 z m 0.437416,-1.278142 c -0.921632,-0.286551 -1.675695,-0.67551 -1.675695,-0.864348 0,-0.547592 1.022901,-0.789778 1.536257,-0.363728 0.257916,0.214051 0.569559,0.288565 0.692538,0.165583 0.12298,-0.122978 0.457156,-0.02977 0.742613,0.207144 0.285458,0.236912 0.96398,0.378594 1.507829,0.314854 0.695273,-0.08148 0.988819,0.04121 0.988819,0.41328 0,0.72167 -1.697306,0.778605 -3.792361,0.127215 z m 13.49375,0.225562 c 0,-0.194027 0.15875,-0.352777 0.352778,-0.352777 0.194027,0 0.352777,0.15875 0.352777,0.352777 0,0.194028 -0.15875,0.352778 -0.352777,0.352778 -0.194028,0 -0.352778,-0.15875 -0.352778,-0.352778 z m 17.182687,-1.062951 c -0.240735,-0.920577 0.509687,-1.312929 2.954807,-1.544884 2.94936,-0.279792 3.20727,0.304151 0.35913,0.813138 -1.871633,0.334483 -2.415168,0.559869 -2.268959,0.940883 0.113104,0.294743 -0.0242,0.501037 -0.333499,0.501037 -0.289172,0 -0.609335,-0.319578 -0.711479,-0.710174 z m 9.275647,0.258724 c 0,-0.660943 4.1386,-5.052544 4.45927,-4.731872 0.45592,0.455919 -0.9595,2.651831 -2.54864,3.954011 -1.64164,1.345205 -1.91063,1.454718 -1.91063,0.777861 z M 46.303823,22.552778 c 0,-0.677319 0.923171,-1.483914 1.194996,-1.044095 0.109712,0.177521 -0.11428,0.606707 -0.49776,0.953752 -0.587046,0.53127 -0.697236,0.545547 -0.697236,0.09034 z m 10.583333,0.09093 c 0,-0.420734 1.398013,-1.201434 1.667986,-0.931464 0.29137,0.291373 -0.619848,1.271831 -1.182013,1.271831 -0.267286,0 -0.485973,-0.153166 -0.485973,-0.340367 z m -8.919335,-1.641007 c -0.248318,-0.248317 0.499025,-1.546405 0.890306,-1.546405 0.147355,0 0.267918,0.218687 0.267918,0.485973 0,0.578068 -0.85645,1.362209 -1.158224,1.060432 z m 5.217691,-1.189549 c -0.299382,-0.484406 0.439586,-1.415189 1.123544,-1.415189 0.717314,0 0.44292,1.550218 -0.299424,1.691622 -0.321458,0.06123 -0.692312,-0.06316 -0.82412,-0.276433 z m 13.029487,-0.886273 c 0.869915,-0.671904 4.56123,-0.746644 4.34358,-0.08794 -0.0939,0.284173 -1.013795,0.472242 -2.587039,0.528916 -2.23017,0.08034 -2.3821,0.0422 -1.756541,-0.440972 z m -6.740553,-2.72399 c -0.193929,-1.412084 -0.418843,-2.805551 -0.499805,-3.096593 -0.102207,-0.367397 0.06848,-0.491952 0.558348,-0.407434 0.388056,0.06695 0.765525,0.17984 0.838825,0.25086 0.0733,0.07102 0.152672,1.349762 0.176389,2.841648 0.05704,3.588186 -0.60276,3.841054 -1.073757,0.411519 z m 36.571042,-1.28034 c 0,-0.841818 0.45635,-1.946873 1.40562,-3.403753 0.37928,-0.582083 0.93662,-1.494896 1.23855,-2.0284734 0.30192,-0.5335759 0.70362,-0.9701384 0.89267,-0.9701384 0.453822,0 0.442932,0.9553754 -0.0141,1.2378374 -0.48399,0.2991194 -1.83676,2.8920114 -2.28428,4.3783324 -0.4095,1.360082 -1.23845,1.886312 -1.23845,0.786195 z M 59.003823,4.4441021 c 0,-0.4815176 2.937482,-2.6266959 3.596844,-2.6266959 0.757824,0 0.137848,1.079064 -1.039205,1.8087277 -2.022235,1.2535984 -2.557639,1.4248279 -2.557639,0.8179682 z m 5.505591,-2.565963 c -0.203324,-0.3289823 2.713768,-2.8829551 3.292849,-2.8829551 0.716065,0 0.364003,0.59582858 -1.111536,1.88115512 C 65.151103,2.2174866 64.814644,2.372011 64.509414,1.8781391 Z m 4.019409,-2.8829551 c 0,-0.1940278 0.32687,-0.3527778 0.726376,-0.3527778 0.399507,0 0.628262,0.15875 0.508346,0.3527778 -0.119916,0.19402778 -0.446786,0.35277778 -0.726376,0.35277778 -0.279591,0 -0.508346,-0.15875 -0.508346,-0.35277778 z m 0.856213,-0.975541 c -0.670744,-0.459285 -0.820561,-1.4079281 -0.328013,-2.076975 0.463218,-0.6292039 0.487574,-0.6273472 0.707079,0.053905 0.125036,0.3880556 0.365154,0.9662531 0.533598,1.2848834 0.445904,0.8434722 -0.106454,1.2902329 -0.912664,0.7381866 z M 74.3874,-2.6211687 c -0.32095,-0.836379 -0.303572,-0.8524353 0.932395,-0.861508 2.063796,-0.015148 3.953094,-0.6420535 4.7625,-1.5802875 l 0.79375,-0.9200853 v 0.858421 c 0,1.1034022 -0.50099,1.4966158 -3.004044,2.3577922 -2.469342,0.8495792 -3.202721,0.8802367 -3.484601,0.1456676 z m -2.595383,-0.2357307 c 0.08085,-0.2425347 0.358659,-0.4409722 0.617361,-0.4409722 0.258703,0 0.536516,0.1984375 0.617362,0.4409722 0.08744,0.262322 -0.16267,0.4409722 -0.617362,0.4409722 -0.454691,0 -0.7048,-0.1786502 -0.617361,-0.4409722 z M 81.934379,-4.356205 c 0,-0.2910417 0.06239,-0.5291667 0.138645,-0.5291667 0.07626,0 0.230021,0.238125 0.341707,0.5291667 0.111683,0.2910417 0.04929,0.5291667 -0.138645,0.5291667 -0.187939,0 -0.341707,-0.238125 -0.341707,-0.5291667 z m 11.994449,-0.077914 c -0.48507,-0.08702 -1.03276,-0.3035265 -1.21709,-0.4811247 -0.18432,-0.1775978 -0.62089,-0.3229058 -0.97014,-0.3229058 -0.34925,0 -0.635,-0.238125 -0.635,-0.529167 0,-0.657399 0.68109,-0.679933 1.5972,-0.05284 1.10496,0.7563554 3.14025,0.9379224 4.22211,0.37665 1.13093,-0.586739 1.58903,-0.631848 1.58903,-0.156476 0,0.50301 -1.9501,1.4279592 -2.8929,1.3721282 -0.4462,-0.026423 -1.20815,-0.1192403 -1.69321,-0.2062607 z m -10.23056,-0.5493561 c 0,-0.5023204 2.63226,-0.9602304 5.5198,-0.9602304 2.12389,0 1.24266,0.643735 -1.19827,0.8753358 -1.30969,0.1242656 -2.81782,0.308265 -3.35139,0.4088867 -0.69313,0.1307113 -0.97014,0.038201 -0.97014,-0.3239921 z m -1.763889,-0.9602304 c 0,-0.194027 0.15875,-0.352777 0.352777,-0.352777 0.194028,0 0.352778,0.15875 0.352778,0.352777 0,0.194028 -0.15875,0.352778 -0.352778,0.352778 -0.194027,0 -0.352777,-0.15875 -0.352777,-0.352778 z M 51.595489,38.182372 c 0,-0.17816 0.08804,-0.55336 0.195649,-0.833776 0.14388,-0.374946 -0.206165,-0.581279 -1.322917,-0.779787 -2.51619,-0.447269 -2.903643,-0.480296 -3.547037,-0.302366 -0.89416,0.24728 -0.758026,0.828742 0.194028,0.828742 0.446263,0 0.98718,0.175793 1.202037,0.390649 0.214857,0.214856 0.921294,0.516107 1.569861,0.669445 1.647704,0.389558 1.708379,0.390521 1.708379,0.02709 z m 3.33501,-25.629755 c 0.557075,-0.850202 0.551677,-0.857432 -0.6399,-0.857432 -1.223187,0 -1.619049,0.536802 -1.631961,2.212993 -0.0045,0.581386 0.05565,0.585877 0.852618,0.06368 0.471586,-0.308996 1.110248,-0.947656 1.419243,-1.419243 z M 68.164252,9.6783106 c 0.879612,-0.33317 1.854327,-0.8491074 2.166031,-1.146528 0.862852,-0.8233089 3.842984,-5.4962232 3.842984,-6.0258873 0,-0.2566444 0.345172,-0.8340457 0.767049,-1.2831135 l 0.767051,-0.81648688 h -0.769383 c -0.423161,0 -1.114461,0.396875 -1.536224,0.88194448 -0.421763,0.4850694 -1.071397,0.8819444 -1.44363,0.8819444 -0.758458,0 -2.609843,1.8151952 -2.80089,2.7461426 -0.0972,0.473649 -0.427535,0.5804549 -1.519269,0.4912254 -1.549055,-0.1266073 -1.426619,0.2476518 0.2641,0.807283 1.573332,0.5207776 1.802465,1.4292414 0.283877,1.1255237 C 67.557336,7.2146368 66.623262,6.9064018 66.110228,6.655392 65.304064,6.2609649 65.019852,6.2906018 64.016612,6.8737092 c -1.072004,0.6230783 -1.12327,0.732118 -0.670017,1.4251704 0.401288,0.6135995 2.398367,1.9007784 3.053768,1.9682494 0.09053,0.0093 0.884276,-0.255649 1.763889,-0.5888184 z M 66.622024,8.6083786 C 66.478747,8.4628578 65.856976,8.1633579 65.24031,7.9428231 64.258127,7.5915704 64.202511,7.507707 64.791784,7.2664892 65.526158,6.9658752 67.138236,7.6908565 67.38341,8.4319897 67.542911,8.9141519 67.038203,9.031077 66.622024,8.6083786 Z M 69.124114,8.243019 C 69.35451,8.0965206 69.74004,7.5036388 69.980842,6.9255044 70.397737,5.9246047 70.425388,5.9132269 70.559161,6.6875184 70.72291,7.6353131 70.101527,8.5225174 69.279379,8.5147821 68.885372,8.5110721 68.836653,8.4258021 69.124114,8.243019 Z M 70.13139,5.0167826 C 70.019757,4.8361617 70.08977,4.588668 70.286958,4.466796 70.48415,4.3449243 70.64549,4.492704 70.64549,4.7951975 c 0,0.6196634 -0.211688,0.7109034 -0.5141,0.2215851 z m 4.934511,-1.3660033 c -0.237046,-0.237043 -1.245411,0.6428388 -1.245411,1.0867211 0,0.2003421 0.318473,0.076044 0.707718,-0.276218 0.389244,-0.352262 0.631207,-0.7169884 0.537693,-0.8105031 z M 109.45105,1.8559892 c 1.45521,-1.33645488 2.5337,-2.54639662 2.39665,-2.68875972 -0.2812,-0.29208838 -4.3445,2.95584602 -5.33649,4.26563302 -1.29588,1.7110192 0.28041,0.865529 2.93984,-1.5768733 z m -8.46667,0.6263996 c 0,-0.1717124 0.22758,-0.3122048 0.50574,-0.3122048 0.28946,0 0.55347,-0.4148666 0.61736,-0.9701389 0.0806,-0.70072038 0.45452,-1.14143472 1.34635,-1.58695182 1.38245,-0.69061148 1.13712,-0.78401648 -0.70556,-0.26863 -1.35706,0.379562 -2.999372,2.17950522 -3.382902,3.70760212 l -0.24131,0.9614545 0.930162,-0.6094631 c 0.51159,-0.3352045 0.93016,-0.7499551 0.93016,-0.921668 z m 4.81224,-0.3122048 c 0.43481,0 0.88868,-0.15875 1.00859,-0.3527778 0.11992,-0.1940277 -0.022,-0.3527777 -0.31535,-0.3527777 -0.81269,0 -2.33048,0.7721014 -2.33048,1.185515 0,0.2222987 0.16671,0.1999996 0.42333,-0.056626 0.23284,-0.2328334 0.77909,-0.4233334 1.21391,-0.4233335 z m 0.65582,-1.41111108 c 0.12314,-0.1992521 -0.16579,-0.3527778 -0.66392,-0.3527778 -0.48507,0 -0.98006,0.15875 -1.09997,0.3527778 -0.12315,0.1992521 0.16578,0.35277778 0.66391,0.35277778 0.48507,0 0.98006,-0.15874998 1.09998,-0.35277778 z m -2.29306,-0.3527778 c 0.45603,-0.29471024 0.44672,-0.34272044 -0.0674,-0.34737574 -0.3281,-0.00297 -0.69466,0.1533479 -0.81457,0.34737574 -0.27594,0.4464745 0.19107,0.4464745 0.88194,0 z m 4.89135,-0.47188084 c 0.30197,-0.3638589 0.19617,-0.5764827 -0.46217,-0.9288202 -0.46959,-0.25131638 -1.12425,-0.35316058 -1.45479,-0.22631968 -0.56137,0.2154181 -0.55934,0.27664198 0.0309,0.92882018 0.73723,0.81462784 1.338,0.88671684 1.88608,0.2263197 z m -4.90668,-1.80270408 c 0.27293,-0.328864 0.31028,-0.7136172 0.10489,-1.0806246 -0.2887,-0.5158783 -0.36235,-0.5176302 -0.77662,-0.018472 -0.25171,0.3033025 -0.68572,0.5514587 -0.96445,0.5514587 -0.27874,0 -0.40014,0.1725824 -0.26977,0.383516 0.17068,0.2761697 0.34437,0.2761697 0.62054,0 0.5833,-0.5832933 1.09602,-0.4578212 0.59519,0.1456507 -0.24498,0.2951833 -0.28319,0.5291667 -0.0864,0.5291667 0.19403,0 0.54351,-0.2298132 0.77662,-0.5106955 z m 8.55923,0.09799 c 1.50107,0.063575 2.40412,-0.1114249 3.52777,-0.6836396 1.75216,-0.8922731 2.34876,-1.6130623 3.14828,-3.8036631 0.50272,-1.377389 0.51768,-1.794283 0.11268,-3.1399861 -0.88099,-2.9273164 -2.54144,-3.9931184 -6.28135,-4.0318644 -2.97358,-0.0308 -4.77985,0.724798 -6.54879,2.73951 -0.62418,0.7109044 -1.0811,1.3463324 -1.01537,1.4120634 0.0657,0.06573 0.79619,-0.03253 1.62325,-0.218358 1.91937,-0.431255 3.02915,0.06124 2.68777,1.1927681 -0.39924,1.323294 -0.9549,1.561133 -3.80791,1.629903 -0.91732,0.02211 -0.98756,0.11192 -0.77783,0.994445 0.1268,0.533576 0.51238,1.3590352 0.85683,1.8343532 0.82849,1.1432649 3.26013,2.5198356 3.92799,2.2236751 0.29104,-0.1290605 1.43705,-0.1962037 2.54668,-0.1492066 z m -1.66473,-4.1734057 c 0.11991,-0.194027 0.36741,-0.352777 0.54999,-0.352777 0.18257,0 0.33195,0.15875 0.33195,0.352777 0,0.194028 -0.24749,0.352778 -0.54999,0.352778 -0.30249,0 -0.45187,-0.15875 -0.33195,-0.352778 z m -0.17639,-2.469444 c 0,-0.194028 0.15875,-0.352778 0.35278,-0.352778 0.19402,0 0.35277,0.15875 0.35277,0.352778 0,0.194028 -0.15875,0.352778 -0.35277,0.352778 -0.19403,0 -0.35278,-0.15875 -0.35278,-0.352778 z m 4.14699,-1.5875005 c -0.20004,-1.046439 0.26283,-1.164954 0.77948,-0.199581 0.48177,0.9002034 0.46117,1.0815255 -0.12285,1.0815255 -0.26842,0 -0.5639,-0.3968751 -0.65663,-0.8819445 z m -2.03032,-0.881944 c 0,-0.194027 0.16812,-0.352777 0.37359,-0.352777 0.20548,0 0.27549,0.15875 0.15557,0.352777 -0.11991,0.194027 -0.28803,0.352777 -0.3736,0.352777 -0.0856,0 -0.15556,-0.15875 -0.15556,-0.352777 z m 2.11666,-0.852546 c 0,-0.30721 0.25136,-0.558565 0.55856,-0.558565 0.30721,0 0.49572,0.188516 0.41892,0.418924 -0.21804,0.654129 -0.97748,0.762621 -0.97748,0.139641 z m -8.81944,9.5387975 c 0,-0.5621669 -0.98046,-1.4733859 -1.27183,-1.1820144 -0.26997,0.269972 0.51073,1.6679852 0.93146,1.6679852 0.1872,0 0.34037,-0.2186869 0.34037,-0.4859708 z m -3.20207,-1.4856668 c 0.59697,-0.5023172 1.0854,-1.072054 1.0854,-1.2660818 0,-0.1940274 -0.48843,0.058209 -1.0854,0.5605262 -0.59697,0.5023174 -1.31134,0.9133043 -1.5875,0.9133043 -0.27616,0 -0.5021,0.15875 -0.5021,0.3527778 0,0.6345879 0.9825,0.3710365 2.0896,-0.5605265 z m -0.29521,-1.5989802 c 0.9441,-1.325866 0.21534,-1.315611 -1.11597,0.0157 -1.21816,1.2181577 -1.2769,1.4364471 -0.31916,1.1859915 0.39162,-0.1024111 1.03743,-0.6431739 1.43513,-1.2016955 z m -34.047597,0.03297 c 0.524608,-0.199456 0.871177,-0.445307 0.770149,-0.546335 -0.278292,-0.278291 -2.030832,0.2347 -2.030832,0.594449 0,0.3978606 0.09746,0.3941409 1.260683,-0.04811 z m -1.613461,-0.762827 c 0,-0.463688 -0.801787,-0.173332 -0.977569,0.354013 -0.08593,0.257793 0.07535,0.336634 0.418924,0.204792 0.307255,-0.117905 0.558645,-0.369367 0.558645,-0.558805 z m 33.866668,-0.102037 c 0,-0.492631 0.1789,-0.543729 4.40972,-1.259515 3.30004,-0.558313 3.54066,-0.639816 3.12275,-1.057729 -0.30117,-0.301164 -5.66684,0.562049 -7.97344,1.282742 -0.601942,0.188075 -0.843192,1.213039 -0.39177,1.66446 0.32236,0.322359 0.83274,-0.06374 0.83274,-0.629958 z m -29.456946,-0.183599 c 0.125825,-0.203589 -0.201048,-0.350494 -0.772929,-0.347376 -0.769447,0.0042 -0.872674,0.08184 -0.461793,0.347376 0.677788,0.43802 0.964011,0.43802 1.234722,0 z m -0.176389,-1.274762 c 0,-0.07499 -0.47625,-0.136349 -1.058333,-0.136349 -0.582084,0 -1.058334,0.131255 -1.058334,0.291679 0,0.160423 0.47625,0.22178 1.058334,0.136349 0.582083,-0.08543 1.058333,-0.216688 1.058333,-0.291679 z"
       style="fill:#000000;stroke-width:0.35277778" />
  </g>
</svg>
