<?xml version="1.0" encoding="UTF-8" standalone="no"?>
<svg
   xmlns:dc="http://purl.org/dc/elements/1.1/"
   xmlns:cc="http://creativecommons.org/ns#"
   xmlns:rdf="http://www.w3.org/1999/02/22-rdf-syntax-ns#"
   xmlns:svg="http://www.w3.org/2000/svg"
   xmlns="http://www.w3.org/2000/svg"
   id="svg8"
   version="1.1"
   viewBox="0 0 54.465569 144.70666"
   height="144.70667mm"
   width="54.465572mm">
  <defs
     id="defs2" />
  <metadata
     id="metadata5">
    <rdf:RDF>
      <cc:Work
         rdf:about="">
        <dc:format>image/svg+xml</dc:format>
        <dc:type
           rdf:resource="http://purl.org/dc/dcmitype/StillImage" />
        <dc:title></dc:title>
      </cc:Work>
    </rdf:RDF>
  </metadata>
  <g
     transform="translate(-16.085307,29.642874)"
     id="layer1">
    <path
       id="path6845"
       d="m 35.860356,114.77937 c -0.668391,-0.24587 -1.541151,-0.88353 -1.939468,-1.41703 -0.679442,-0.91004 -0.724261,-1.4537 -0.725021,-8.79452 -8.12e-4,-7.785967 0.167911,-9.375107 1.659371,-15.629487 0.354131,-1.485036 0.4129,-1.541914 5.05765,-4.895039 0.806302,-0.582083 1.910049,-1.390798 2.452772,-1.797145 l 0.986767,-0.738812 -2.135074,-2.2598 C 37.602,75.420985 36.923425,74.562105 36.505409,73.283571 c -0.222031,-0.679097 -0.526245,-1.393472 -0.676032,-1.5875 -0.493778,-0.639618 -1.752376,-4.859408 -1.752376,-5.875313 0,-1.315974 -1.138909,-4.268961 -2.004998,-5.198597 -0.454254,-0.487585 -0.844173,-1.733508 -1.14307,-3.652496 -0.533584,-3.425737 -1.120312,-5.346559 -2.323578,-7.606888 -1.033176,-1.940814 -1.057883,-2.225407 -0.317499,-3.657152 0.469566,-0.908043 0.498982,-1.436331 0.180724,-3.245676 -0.447301,-2.542967 -0.654422,-4.702073 -0.934907,-9.745825 -0.172499,-3.101908 -0.08437,-4.163032 0.542019,-6.526389 0.411406,-1.552223 0.885684,-3.139723 1.053952,-3.527778 0.365612,-0.843168 0.366127,-1.981606 0.0011,-2.469445 -0.733453,-0.980264 -0.726801,-2.745821 0.01896,-5.031804 0.878909,-2.694168 0.990702,-5.5942656 0.370377,-9.6084745 -0.402478,-2.604495 -0.633612,-6.6429986 -0.81771,-14.2875009 -0.08484,-3.5229606 -0.176374,-3.9943366 -0.993294,-5.1152786 -0.494913,-0.679097 -1.129913,-1.703633 -1.411111,-2.276747 -0.281199,-0.573114 -1.185957,-1.680421 -2.010575,-2.460684 -0.824619,-0.780263 -1.504323,-1.581352 -1.510454,-1.780198 -0.02097,-0.679988 -1.691618,-2.270744 -3.574836,-3.40388 -2.595558,-1.561753 -3.116794,-2.058743 -3.116794,-2.971814 0,-0.900902 0.601315,-1.217789 2.310837,-1.217789 0.841157,0 1.142215,-0.137027 1.017146,-0.462953 -0.322507,-0.840439 1.407198,-1.418856 3.437541,-1.149521 1.995694,0.264738 3.393832,0.822015 5.938459,2.366983 1.146033,0.695812 2.410821,1.069003 4.518771,1.333318 2.821414,0.353776 5.141472,1.143234 6.560583,2.232405 0.761382,0.584362 0.86628,2.82114 0.171559,3.658227 -0.222847,0.268515 -0.311148,0.488208 -0.196224,0.488208 0.114925,0 -0.178939,0.571592 -0.65303,1.270205 -1.168438,1.721789 -1.297484,2.695974 -1.116845,8.4311852 0.148766,4.7232675 0.502896,6.5470907 1.703669,8.7741624 0.639097,1.18533346 1.347131,3.8988157 1.346555,5.1605607 -3.1e-4,0.6790973 -0.398669,2.6634724 -0.885241,4.4097226 -0.486573,1.7462501 -0.952471,4.5133051 -1.03533,6.1490081 -0.143563,2.834048 -0.07636,3.17263 1.428083,7.194399 2.026714,5.417962 2.251487,6.488596 2.285737,10.887397 0.01558,2.001252 0.112309,3.98997 0.21495,4.419367 0.105319,0.440606 0.878505,1.186198 1.774803,1.711463 1.980857,1.160861 2.813637,2.903248 3.313973,6.933682 0.19946,1.606744 0.593118,4.032603 0.874795,5.390797 0.781699,3.769205 0.682529,5.401762 -0.378847,6.236639 -0.485069,0.381558 -0.881944,0.831102 -0.881944,0.998989 0,0.167891 0.674687,0.795345 1.499305,1.394344 0.824618,0.598996 1.967252,1.721351 2.539189,2.494118 1.072406,1.448975 4.790443,4.574523 5.441685,4.574523 0.470253,0 3.854429,4.246714 5.136466,6.445613 1.074448,1.842852 1.064472,2.836602 -0.05876,5.853321 -0.486054,1.305409 -0.518337,2.044383 -0.212538,4.864958 0.332958,3.071104 0.451142,3.4192 1.54348,4.546209 0.650603,0.671251 1.335225,1.220456 1.521386,1.220456 0.709295,0 2.624469,1.775188 2.839505,2.631962 0.123662,0.492697 0.380562,0.895816 0.570893,0.895816 0.190331,0 0.346057,0.3175 0.346057,0.705555 0,0.388056 0.166413,0.705556 0.369807,0.705556 0.480141,0 1.371181,2.118611 1.142131,2.715553 -0.23987,0.625076 -1.325488,0.580009 -1.871327,-0.07769 -0.414923,-0.499953 -0.838535,-0.483161 -2.374638,0.09412 -0.771794,0.290043 -0.473636,-0.49039 0.352777,-0.923407 l 0.79375,-0.4159 -0.794237,0.152703 c -0.479763,0.09224 -0.706448,0.01065 -0.572512,-0.206054 0.121948,-0.197315 0.757167,-0.271868 1.411598,-0.165668 0.79194,0.128514 1.189344,0.05303 1.188293,-0.225703 -0.0011,-0.234125 -0.569249,-0.448289 -1.288934,-0.485687 -0.708042,-0.03679 -1.404535,-0.256505 -1.547763,-0.488252 -0.424709,-0.687193 -0.140945,-1.552303 0.5536,-1.687763 0.613156,-0.119588 0.615164,-0.09413 0.03807,0.482971 -0.691293,0.691289 -0.589129,0.99641 0.228561,0.682632 1.362156,-0.522708 0.850914,-2.145785 -0.539591,-1.713089 -0.443752,0.138084 -0.629762,-0.01298 -0.661459,-0.537221 -0.06904,-1.141973 -0.117044,-1.360844 -0.349391,-1.593187 -0.258671,-0.258674 -0.880448,1.293566 -1.152303,2.876674 -0.159991,0.93169 -0.09553,1.093004 0.366007,0.915899 0.454117,-0.174261 0.437007,-0.07109 -0.09035,0.544823 -0.7883,0.920666 -0.881603,0.941751 -0.630273,0.142434 0.167051,-0.531287 0.116829,-0.52258 -0.360204,0.06244 -0.304878,0.373892 -0.648564,0.585558 -0.763753,0.470369 -0.115189,-0.115185 0.121295,-0.540159 0.525522,-0.944386 0.404224,-0.404223 0.734953,-1.121495 0.734953,-1.593931 0,-0.47244 0.163191,-1.288207 0.362648,-1.812816 0.199457,-0.524609 0.283274,-1.033212 0.18626,-1.130226 -0.09701,-0.09701 -0.344022,0.26452 -0.548908,0.803409 -0.204887,0.538889 -0.460315,0.892002 -0.56762,0.784694 -0.107304,-0.107304 -0.02349,-0.515757 0.18626,-0.907676 0.467296,-0.873153 0.478532,-1.11174 0.05236,-1.11174 -0.180954,0 -0.429775,0.3175 -0.552941,0.705555 -0.25315,0.797606 -0.4777,0.855896 -1.234722,0.32052 -0.346273,-0.244887 -0.393361,-0.43054 -0.136239,-0.53715 0.272087,-0.112811 0.299124,-0.665 0.08792,-1.795551 -0.326546,-1.747911 -0.185586,-2.495596 0.189067,-1.002859 0.124012,0.494104 0.400639,0.898374 0.61473,0.898374 0.282673,0 0.282049,-0.129173 -0.0021,-0.471781 -0.21535,-0.259478 -0.563869,-1.71075 -0.774488,-3.225048 -0.320562,-2.304751 -0.287031,-3.144651 0.205821,-5.155777 0.666877,-2.721251 0.47729,-4.807699 -0.549854,-6.051262 l -0.656435,-0.794744 0.213678,0.848913 c 0.149073,0.592247 0.09022,0.772612 -0.19467,0.596541 -0.224762,-0.138804 -0.40852,-0.568385 -0.40852,-0.954628 0,-2.439931 -3.694913,-5.6388 -7.151673,-6.191561 -0.838218,-0.134037 -1.20311,-0.323994 -0.937585,-0.488099 0.239088,-0.147765 1.045729,-0.05308 1.792538,0.21041 0.746806,0.263487 1.357831,0.433649 1.357831,0.378132 0,-0.05552 -0.754062,-0.635804 -1.675694,-1.289529 -0.921632,-0.653726 -1.954118,-1.49938 -2.29441,-1.87923 -0.340293,-0.37985 -1.406999,-1.524134 -2.370458,-2.542851 l -1.751744,-1.85221 -1.241483,0.632943 c -0.682815,0.348118 -1.817414,1.138619 -2.521331,1.756664 -0.703917,0.618049 -1.816981,1.379866 -2.473475,1.692924 -0.656495,0.313062 -1.193627,0.680883 -1.193627,0.81738 0,0.334232 2.410759,0.807197 3.607927,0.707838 1.078898,-0.08954 3.447629,0.666803 3.447629,1.100843 0,0.155049 -0.635,0.281908 -1.411112,0.281908 -0.776111,0 -1.411111,-0.15875 -1.411111,-0.352778 0,-0.194028 -0.241149,-0.352778 -0.535887,-0.352778 -0.382607,0 -0.477797,0.231454 -0.332796,0.809184 0.139093,0.55419 -0.02623,1.016713 -0.524608,1.467747 -0.400235,0.362207 -0.809839,0.576421 -0.910231,0.476027 -0.28597,-0.285968 0.226012,-1.359288 0.552223,-1.157675 0.706422,0.436591 0.604847,-0.512752 -0.103813,-0.970259 -1.098539,-0.709214 -4.14211,-1.702911 -4.14211,-1.352363 0,0.398067 0.979853,1.177872 2.079833,1.655216 0.787385,0.34169 0.831771,0.434883 0.310372,0.651668 -0.72357,0.300842 -3.09576,-1.047108 -3.09576,-1.759101 0,-0.495547 -1.622487,-1.93711 -2.180228,-1.93711 -0.387248,0 -0.114883,1.909289 0.670154,4.697811 0.438764,1.558527 0.80676,2.170437 1.530294,2.54459 0.937572,0.484836 1.592298,1.493231 1.214692,1.870837 -0.106044,0.106041 -0.436283,-0.154806 -0.733864,-0.57966 -0.91618,-1.308029 -1.20347,-0.857691 -0.572351,0.897181 0.397026,1.103962 1.408365,2.50836 2.985002,4.145139 1.854995,1.925754 2.305462,2.254953 2.028472,1.482387 -0.195833,-0.546206 -0.343167,-1.181206 -0.327408,-1.411111 0.04606,-0.672014 0.996267,1.623631 1.013769,2.449216 0.02141,1.009929 0.874788,1.689181 1.607233,1.279285 0.515878,-0.288699 0.51763,-0.362352 0.01847,-0.776619 -0.709809,-0.58909 -0.704946,-1.076833 0.01073,-1.076833 0.309206,0 0.638846,0.293119 0.732532,0.651376 0.163112,0.623739 0.261928,0.618211 2.329099,-0.130292 1.720038,-0.622811 2.449425,-1.140029 3.588996,-2.545002 2.771711,-3.417239 5.441279,-5.105852 6.866283,-4.343213 1.008842,0.539915 0.932017,0.65213 -0.446458,0.65213 -1.812657,0 -3.237244,0.934272 -5.16502,3.38732 -1.241375,1.579623 -2.252959,2.463112 -3.437614,3.002319 -2.963617,1.348924 -6.018285,3.059899 -7.215957,4.041789 -0.640994,0.525509 -2.230461,1.667126 -3.532149,2.536928 -1.955,1.30635 -2.395366,1.779566 -2.531455,2.720301 -0.207634,1.435287 -0.765705,4.555942 -1.465417,8.194401 -0.418683,2.177127 -0.495658,4.185735 -0.336759,8.787475 0.180308,5.22172 0.294924,6.09017 0.919543,6.96736 0.847553,1.19028 0.307183,1.0985 6.727791,1.14277 5.054891,0.0349 5.911188,-0.34031 1.698836,-0.74432 -2.870251,-0.27529 -3.496649,-0.86048 -0.705556,-0.65914 1.261181,0.091 2.967743,0.27025 3.792361,0.39838 0.91246,0.14178 1.499306,0.0961 1.499306,-0.11682 0,-0.43503 -1.617721,-0.78819 -4.518325,-0.98637 -1.223897,-0.0836 -2.716907,-0.40629 -3.317799,-0.71702 -0.680517,-0.35191 -1.537576,-0.49275 -2.272648,-0.37346 -0.649064,0.10533 -1.180117,0.0427 -1.180117,-0.13909 0,-0.18183 -0.238125,-0.3306 -0.529167,-0.3306 -0.795344,0 -0.636708,-0.54731 0.176389,-0.60856 0.388056,-0.0293 0.715619,0.13542 0.727917,0.3659 0.06214,1.16451 0.776287,-1.62706 0.885532,-3.46151 0.184823,-3.10356 0.864298,-6.52755 1.577267,-7.948118 0.343764,-0.684932 0.888219,-2.193057 1.2099,-3.351385 1.11553,-4.016866 1.136777,-4.046326 2.918209,-4.046326 2.806313,0 5.388999,-1.466385 7.837955,-4.450193 1.17609,-1.432948 2.322742,-2.605363 2.54811,-2.605363 0.225372,0 0.08821,0.357187 -0.304803,0.79375 -1.337229,1.485406 -1.279335,1.598828 0.638175,1.250308 2.612584,-0.47485 3.30987,-0.81261 4.169293,-2.019561 0.846145,-1.188301 0.653362,-1.476654 -0.278786,-0.416994 -0.322142,0.366208 -1.061963,0.82622 -1.644047,1.022248 -0.582083,0.196028 -1.375833,0.468774 -1.763889,0.606097 -0.398578,0.141051 -0.245088,-0.07247 0.352778,-0.490757 0.582084,-0.407243 1.307553,-0.741489 1.612156,-0.742766 1.00216,-0.0042 2.742611,-1.932852 3.355784,-3.718649 0.965557,-2.812062 1.188343,-4.123549 0.818025,-4.815498 -0.220402,-0.411822 -0.220871,-0.640401 -0.0013,-0.640401 0.929365,0 0.846335,3.03113 -0.135015,4.928853 -0.254917,0.492957 -0.5608,1.508612 -0.679739,2.257009 -0.466655,2.93631 -3.222653,5.045301 -6.334033,4.847043 -1.31825,-0.084 -1.680073,0.0011 -1.558238,0.367041 0.197732,0.593704 3.798655,0.744192 3.815539,0.159455 0.0062,-0.213713 0.220306,-0.11322 0.475855,0.223312 0.255549,0.336533 0.563559,0.512953 0.684466,0.392046 0.120908,-0.120908 0.379095,0.199058 0.573748,0.711037 0.194655,0.51198 0.595972,0.930872 0.891815,0.930872 0.295843,0 0.537898,0.161318 0.537898,0.358485 0,0.197168 0.555625,0.623443 1.234722,0.947283 0.679097,0.323839 1.234722,0.727516 1.234722,0.897057 0,0.169542 0.153106,0.213632 0.340237,0.09798 0.187131,-0.115655 0.09846,0.368385 -0.197055,1.075644 -0.671012,1.605954 -0.392977,2.010456 0.36903,0.536889 0.511362,-0.988864 1.259724,-1.485177 1.246276,-0.826534 -0.0077,0.374862 -0.688199,1.385041 -0.694754,1.031265 -0.01048,-0.565302 -1.76929,1.81241 -1.76929,2.391869 0,0.322993 -0.158513,0.489289 -0.352248,0.369556 -0.193739,-0.119736 -0.327336,0.06933 -0.296884,0.420151 0.03045,0.35082 0.02014,1.034729 -0.0229,1.519797 l -0.07826,0.88195 -0.341171,-0.85356 c -0.255796,-0.639957 -0.44202,-0.752698 -0.744181,-0.450536 -0.302162,0.302161 -0.298348,0.632716 0.01524,1.320956 0.230035,0.504868 0.312836,1.088498 0.184005,1.296958 -0.328567,0.53163 -1.115843,-1.908278 -0.812419,-2.517814 0.136465,-0.274143 0.04693,-0.988518 -0.19896,-1.5875 -0.324199,-0.789732 -0.346364,-1.331471 -0.08065,-1.971008 0.30256,-0.728201 0.392473,-0.773571 0.51579,-0.260265 0.08214,0.341926 0.323067,0.514321 0.535382,0.383102 0.250899,-0.155063 0.303298,-0.023 0.149691,0.37731 -0.129988,0.338741 -0.23634,0.691653 -0.23634,0.784246 0,0.0926 -0.135816,0.08442 -0.301815,-0.01817 -0.166,-0.102595 -0.225591,0.212214 -0.13243,0.699569 0.09316,0.487359 0.254064,0.80143 0.357555,0.697943 0.103487,-0.103491 0.38875,-0.0217 0.633913,0.181776 0.347684,0.288554 0.423337,0.08746 0.343874,-0.914048 -0.0664,-0.836803 0.06611,-1.34845 0.380457,-1.469076 0.717373,-0.275283 0.583325,-0.81516 -0.2024,-0.81516 -0.376604,0 -0.777099,-0.149444 -0.889984,-0.332098 -0.112889,-0.182658 0.234929,-0.30172 0.772929,-0.264583 0.866683,0.05982 0.978179,-0.05312 0.978179,-0.990819 0,-0.790688 -0.163788,-1.058972 -0.647651,-1.060863 -0.356207,-0.0014 -0.851972,-0.281964 -1.101704,-0.623492 -0.295387,-0.403966 -0.676035,-0.535774 -1.089289,-0.377194 -0.483274,0.185448 -0.58408,0.110451 -0.421393,-0.313506 0.388235,-1.011721 -0.928942,-1.721584 -3.569681,-1.923793 -2.14364,-0.164147 -2.655132,-0.08422 -3.736008,0.583798 -1.347597,0.832862 -1.563534,1.324716 -0.723163,1.647197 0.291042,0.111686 0.529167,0.407219 0.529167,0.656742 0,0.573398 0.964664,0.966131 1.247799,0.508003 0.116636,-0.188718 0.381441,-0.238442 0.588455,-0.1105 0.230516,0.142466 0.05016,0.479125 -0.465349,0.868652 -0.673778,0.509114 -0.753749,0.724302 -0.400766,1.07841 0.595467,0.597369 0.55494,1.354504 -0.111954,2.091411 -0.511281,0.56496 -0.438217,0.679602 0.970138,1.522176 1.471691,0.880463 1.533529,0.888193 1.833253,0.229165 0.342889,-0.753939 2.211493,-1.558326 2.50748,-1.079409 0.103086,0.166797 -0.05215,0.542851 -0.344981,0.835675 -0.292823,0.292826 -0.532409,0.772505 -0.532409,1.065953 0,0.587812 -0.634883,1.116232 -0.955685,0.795422 -0.111757,-0.11175 -0.01274,-0.43266 0.22002,-0.713122 0.35039,-0.422194 0.298337,-0.477284 -0.302507,-0.320157 -0.975536,0.255108 -0.98334,1.742069 -0.01076,2.050747 0.393223,0.1248 0.967108,0.61175 1.275295,1.08211 0.308186,0.47035 0.746643,0.85519 0.974344,0.85519 0.2277,0 1.038126,0.31819 1.800948,0.7071 l 1.386949,0.70711 1.95084,-0.77555 c 1.07296,-0.42655 2.585837,-1.35519 3.361948,-2.06364 1.490306,-1.360378 3.555019,-2.369544 3.979506,-1.945048 0.371189,0.37119 -0.985136,1.253358 -1.927024,1.253358 -0.530038,0 -1.078403,0.40751 -1.581859,1.17554 -0.774294,1.18119 -2.413607,2.35223 -3.292846,2.35223 -0.259595,0 -0.948944,0.27373 -1.531888,0.6083 -1.003412,0.57588 -1.09572,0.57588 -1.732061,0 -0.36969,-0.33457 -1.039527,-0.6083 -1.488532,-0.6083 -1.035847,0 -4.243352,-3.14519 -4.243352,-4.160918 0,-0.51753 -0.520086,-1.017002 -1.763889,-1.693965 -1.901913,-1.035149 -2.184665,-1.656211 -1.034316,-2.271861 0.681733,-0.36485 0.6933,-0.445819 0.176389,-1.234722 -0.30425,-0.464347 -0.553184,-1.038465 -0.553184,-1.275821 0,-0.237352 -0.350494,-0.943067 -0.778875,-1.568249 l -0.778875,-1.136692 -1.249597,0.656403 c -0.687278,0.361022 -1.502643,0.729163 -1.811922,0.818091 -0.371376,0.106783 -0.710481,0.921322 -0.998629,2.398738 -0.239968,1.230379 -1.09018,3.655667 -1.889359,5.389528 -1.526276,3.311338 -2.160468,6.900078 -1.360695,7.699848 0.216078,0.21608 1.386951,0.42694 2.601939,0.46858 1.214988,0.0416 3.082194,0.26876 4.149347,0.50472 1.067152,0.23597 2.495902,0.44986 3.175,0.47531 0.984108,0.0369 1.234722,0.18949 1.234722,0.75184 0,0.62241 -0.247435,0.70989 -2.099518,0.74231 -1.233719,0.0216 -2.155083,0.20344 -2.23426,0.44097 -0.07411,0.22232 -0.597762,0.40422 -1.163676,0.40422 -1.542071,0 -1.238859,0.62252 0.467582,0.95999 0.981484,0.19409 1.536731,0.50476 1.613367,0.9027 0.06427,0.33372 -0.07573,0.60676 -0.311098,0.60676 -0.235371,0 -0.631105,0.27781 -0.879407,0.61736 -0.379586,0.51907 -1.059739,0.62148 -4.272225,0.64322 -2.101421,0.0142 -4.455765,0.1248 -5.231876,0.24572 -0.826891,0.12884 -1.914245,0.0348 -2.626367,-0.22717 z m 10.052481,-4.10135 c 0.269083,0 0.406874,-0.21465 0.306202,-0.477 -0.100672,-0.26235 -1.070681,-0.67564 -2.155575,-0.91843 -1.187103,-0.26566 -1.799247,-0.54853 -1.537339,-0.7104 0.282294,-0.17447 0.08326,-0.33624 -0.566482,-0.46045 -0.576846,-0.11027 -1.111983,-0.0181 -1.261758,0.21726 -0.143044,0.22481 -0.262511,-0.67585 -0.265482,-2.00145 -0.0055,-2.46884 0.94889,-5.91399 2.455932,-8.865096 0.392516,-0.768629 0.713666,-1.741432 0.713666,-2.161781 0,-0.420348 0.239772,-1.338125 0.532827,-2.039503 l 0.532828,-1.275239 -1.04206,0.114081 c -1.496479,0.163827 -2.026849,0.748002 -2.218964,2.44407 -0.09305,0.82151 -0.656285,2.604907 -1.251627,3.963102 -0.799739,1.824506 -1.186269,3.436856 -1.480002,6.173606 -0.21866,2.0373 -0.468642,4.04574 -0.555515,4.46321 -0.13675,0.65716 0.07629,0.81523 1.587202,1.1777 0.959834,0.23026 1.875673,0.33799 2.035198,0.2394 0.159524,-0.0986 0.841747,-0.0498 1.516051,0.10843 0.674303,0.15823 1.437427,0.22487 1.695831,0.14809 0.258404,-0.0768 0.689984,-0.1396 0.959067,-0.1396 z m 1.569719,-0.15557 c 0,-0.0856 -0.15875,-0.25368 -0.352778,-0.3736 -0.194027,-0.11992 -0.352777,-0.0499 -0.352777,0.15557 0,0.20548 0.15875,0.3736 0.352777,0.3736 0.194028,0 0.352778,-0.07 0.352778,-0.15557 z m 1.763889,-1.46291 c -1.067153,-0.26381 -2.734028,-0.57973 -3.704167,-0.70203 -1.62794,-0.20524 -1.708741,-0.18144 -1.048363,0.30872 0.841182,0.62437 1.708177,0.78248 4.576141,0.83454 l 2.116667,0.0384 z m 19.05,-14.609301 c 0,-0.194028 -0.15875,-0.352778 -0.352778,-0.352778 -0.194028,0 -0.352778,0.15875 -0.352778,0.352778 0,0.194028 0.15875,0.352778 0.352778,0.352778 0.194028,0 0.352778,-0.15875 0.352778,-0.352778 z m -5.297068,-5.577071 c 0.003,-0.253986 -0.153349,-0.363679 -0.347377,-0.243763 -0.194027,0.119917 -0.350347,0.565849 -0.347376,0.99096 0.0044,0.628379 0.06936,0.673968 0.347376,0.243763 0.188087,-0.291042 0.344407,-0.736974 0.347377,-0.99096 z M 38.149011,62.724614 c -0.11163,-0.180622 -0.04162,-0.428117 0.155569,-0.549988 0.197192,-0.12187 0.371065,0.0656 0.386383,0.416596 0.01701,0.389756 0.09863,0.46199 0.209666,0.185571 0.1,-0.248934 0.09107,-0.689091 -0.01984,-0.978129 -0.168816,-0.439925 -0.332241,-0.452395 -1.003416,-0.07656 -0.440966,0.24693 -0.85734,0.478088 -0.925276,0.513686 -0.304949,0.159791 0.395515,0.817221 0.870715,0.817221 0.291042,0 0.437833,-0.147782 0.326204,-0.328401 z m -1.767853,-1.047733 c -0.106693,-0.336158 0.10126,-1.473736 0.462117,-2.527949 0.360857,-1.054213 0.773399,-2.551751 0.916761,-3.327862 0.143362,-0.776111 0.434681,-1.621649 0.647377,-1.878972 0.282459,-0.341722 0.274033,-0.537503 -0.03125,-0.726179 -0.514104,-0.317737 0.736953,-4.294714 1.810746,-5.75617 0.807418,-1.098917 1.84738,-1.65457 1.525169,-0.814902 -0.112529,0.293243 -0.05083,0.533167 0.137109,0.533167 0.315195,0 0.48456,-0.506367 0.383482,-1.146528 -0.02298,-0.145521 0.09713,-0.264583 0.266904,-0.264583 0.169774,0 0.308681,-0.393556 0.308681,-0.874568 V 44.01777 l -1.014236,0.7222 c -0.55783,0.39721 -1.014237,0.975974 -1.014237,1.28614 0,0.310169 -0.09279,0.471148 -0.206203,0.357737 -0.306782,-0.306782 -1.553838,0.86734 -1.58248,1.489929 -0.01712,0.372064 -0.118681,0.320478 -0.327983,-0.166596 -0.241592,-0.562215 -0.314119,-0.418874 -0.356992,0.705556 -0.07414,1.944434 -0.282499,3.075436 -0.87699,4.760401 -0.279769,0.79295 -0.354698,1.346564 -0.166511,1.23026 0.392378,-0.242503 0.420718,0.03023 0.119809,1.153089 -0.116995,0.436563 -0.36365,0.793751 -0.548123,0.793751 -0.184473,0 -0.236942,-0.357188 -0.116597,-0.793751 0.215786,-0.782789 0.208475,-0.78184 -0.529349,0.06867 l -0.748157,0.862415 0.208458,-1.038804 c 0.203036,-1.011784 0.198301,-1.015866 -0.18205,-0.156859 -0.396756,0.896059 -0.494304,1.250873 -0.775908,2.822223 -0.08693,0.485069 -0.09018,0.683507 -0.0072,0.440972 0.08295,-0.242535 0.308628,-0.440972 0.501504,-0.440972 0.383832,0 0.06705,1.377727 -0.442068,1.922639 -0.61362,0.656755 -0.336482,1.971826 0.480623,2.280641 0.996001,0.376428 1.408038,0.148445 1.157629,-0.640525 z m -0.882242,-0.916922 c 0,-0.194028 0.153888,-0.590903 0.341974,-0.881944 0.188085,-0.291042 0.341973,-0.370417 0.341973,-0.176389 0,0.194027 -0.153888,0.590902 -0.341973,0.881944 -0.188086,0.291042 -0.341974,0.370417 -0.341974,0.176389 z M 35.135334,57.40857 c 0,-0.194028 0.168119,-0.352778 0.373598,-0.352778 0.205478,0 0.275485,0.15875 0.155569,0.352778 -0.119916,0.194028 -0.288035,0.352778 -0.373598,0.352778 -0.08556,0 -0.155569,-0.15875 -0.155569,-0.352778 z m 5.422094,4.497917 c 0.290518,-1.084065 0.274399,-1.322917 -0.08928,-1.322917 -0.171397,0 -0.409625,0.277813 -0.529393,0.617361 -0.119768,0.339549 -0.310263,0.815799 -0.423321,1.058334 -0.114568,0.245773 0.02348,0.440972 0.31186,0.440972 0.284581,0 0.613142,-0.357188 0.730137,-0.79375 z m -1.356833,-2.998611 c 0.323152,-1.11566 0.810667,-2.155423 1.083366,-2.310586 0.2727,-0.155162 0.495817,-0.520234 0.495817,-0.811269 0,-0.497279 0.605837,-1.796538 1.371316,-2.940879 0.280748,-0.4197 0.434075,-0.427408 0.894853,-0.045 0.468725,0.389005 0.556054,0.368322 0.556054,-0.131699 0,-0.343824 -0.164157,-0.49173 -0.390502,-0.351839 -0.475633,0.293956 -0.07181,-1.90288 0.474433,-2.580954 0.254186,-0.315532 0.201242,-0.440972 -0.186116,-0.440972 -0.358155,0 -0.623392,0.485577 -0.783776,1.434881 -0.133332,0.789189 -0.311301,1.366005 -0.395486,1.281822 -0.08419,-0.08419 -0.04477,-0.830309 0.08759,-1.658049 0.166438,-1.040843 0.442037,-1.557641 0.893644,-1.67574 0.359144,-0.09392 0.652988,-0.340452 0.652988,-0.54785 0,-0.207398 0.345173,-0.74451 0.76705,-1.193578 0.421877,-0.449069 0.620315,-0.811438 0.440972,-0.805268 -0.470921,0.01619 -1.55973,0.89342 -1.566894,1.262394 -0.0034,0.172639 -0.366057,0.654851 -0.806011,1.07158 -0.439954,0.416733 -1.015636,1.607358 -1.279292,2.645834 -0.263657,1.038479 -0.774077,2.266738 -1.134267,2.729466 -0.36019,0.462728 -0.654891,1.06741 -0.654891,1.343738 0,0.276324 -0.151203,0.408961 -0.336006,0.294746 -0.390386,-0.241272 -1.427883,3.001818 -1.427883,4.463387 0,1.640424 0.617035,1.127072 1.243039,-1.034168 z M 38.690963,57.90834 c 0.01693,-0.410969 0.10052,-0.49456 0.213136,-0.213138 0.101907,0.25466 0.08937,0.55893 -0.02785,0.676159 -0.117225,0.117224 -0.200603,-0.09114 -0.185286,-0.463021 z m 4.180687,0.940738 c 0.03585,-1.23268 -0.199844,-0.7854 -0.44925,0.852548 -0.149752,0.983474 -0.117994,1.197292 0.104794,0.705555 0.175813,-0.388055 0.330819,-1.089201 0.344456,-1.558103 z m 2.053267,-2.43e-4 c 0.242535,-0.284233 0.440972,-1.089692 0.440972,-1.789914 0,-0.700221 0.174729,-1.447856 0.388286,-1.661414 0.411901,-0.4119 -0.268399,-2.927826 -0.791677,-2.927826 -0.277282,0 -0.172452,0.824777 0.23591,1.856084 0.187875,0.474472 0.111658,0.569796 -0.322407,0.403228 -0.386484,-0.148308 -0.568445,-0.02458 -0.568445,0.386521 0,0.367753 0.189821,0.531813 0.484494,0.418737 0.39694,-0.152322 0.420008,0.07993 0.127646,1.285173 -0.196267,0.809099 -0.515261,1.62984 -0.708876,1.823868 -0.363736,0.364511 -0.247669,-0.358443 0.283185,-1.763889 0.238147,-0.630498 0.208647,-0.649263 -0.277313,-0.176389 -0.299097,0.291042 -0.701164,1.292137 -0.893484,2.224656 l -0.349673,1.695485 0.755205,-0.62877 c 0.415363,-0.345821 0.953643,-0.861321 1.196177,-1.14555 z m -3.086805,-1.734118 c 0,-0.311097 0.373894,-0.888182 0.830877,-1.282415 0.57523,-0.496245 0.758008,-0.923142 0.594046,-1.387454 -0.204952,-0.58039 -0.298813,-0.521031 -0.697288,0.440973 -0.25325,0.611399 -0.587333,1.111638 -0.742404,1.111638 -0.231602,0 -0.768943,1.603438 -0.847259,2.528242 -0.05123,0.604982 -0.549723,0.684272 -0.554485,0.08819 -0.0045,-0.565707 -0.06127,-0.589717 -0.347376,-0.146992 -0.436583,0.675563 -0.449745,1.159902 -0.02438,0.897012 0.180621,-0.111633 0.44052,-0.02155 0.577553,0.20017 0.268957,0.435183 1.210713,-1.470068 1.210713,-2.449368 z m -8.119291,0.558436 c 0.003,-0.145521 -0.153348,-0.264583 -0.347376,-0.264583 -0.194028,0 -0.350347,0.357187 -0.347375,0.79375 0.0044,0.641858 0.07084,0.692489 0.347375,0.264583 0.188086,-0.291041 0.344405,-0.648229 0.347376,-0.79375 z m 12.240834,0.374827 c -0.112616,-0.281422 -0.196209,-0.197831 -0.213137,0.213137 -0.01532,0.371885 0.06806,0.580246 0.185286,0.463021 0.117225,-0.117228 0.129758,-0.421499 0.02785,-0.676158 z m 1.522901,-1.010187 c 0,-0.318378 -0.129151,-0.313986 -0.529167,0.01799 -0.291041,0.241544 -0.529166,0.669195 -0.529166,0.950338 0,0.438375 0.07536,0.435814 0.529166,-0.01799 0.291042,-0.291042 0.529167,-0.718697 0.529167,-0.950341 z m -14.488684,-1.14935 c 0.01364,-0.156972 -0.133955,-0.187289 -0.327982,-0.06737 -0.194028,0.119916 -0.34162,0.565848 -0.327983,0.99096 0.0239,0.745193 0.03567,0.747614 0.327983,0.06737 0.166753,-0.388055 0.314345,-0.833988 0.327982,-0.99096 z m 1.788684,-0.970139 c 0,-0.399506 -0.15875,-0.628262 -0.352777,-0.508345 -0.194028,0.119916 -0.352778,0.446786 -0.352778,0.726376 0,0.279591 0.15875,0.508346 0.352778,0.508346 0.194027,0 0.352777,-0.32687 0.352777,-0.726377 z m 7.408334,-0.373595 c 0,-0.194028 -0.15875,-0.254667 -0.352778,-0.13475 -0.194028,0.119916 -0.352778,0.376777 -0.352778,0.570805 0,0.194028 0.15875,0.254666 0.352778,0.13475 0.194028,-0.119916 0.352778,-0.376777 0.352778,-0.570805 z M 32.154543,52.616987 c -0.124399,-0.663103 -0.377736,-1.20564 -0.562972,-1.20564 -0.185236,0 -0.336792,-0.238125 -0.336792,-0.529166 0,-0.291042 -0.26273,-0.529167 -0.583843,-0.529167 -0.543272,0 -0.543272,0.04483 0,0.645139 0.321113,0.354827 0.583843,0.919822 0.583843,1.255543 0,0.335721 0.149346,0.5181 0.331881,0.405289 0.196037,-0.121158 0.258798,0.339612 0.153333,1.125707 -0.148609,1.107666 -0.109859,1.222424 0.23109,0.684378 0.239812,-0.378442 0.31587,-1.146274 0.18346,-1.852083 z m 1.872867,-0.323695 v -0.705556 l -0.303187,0.705556 c -0.166753,0.388055 -0.303187,1.023055 -0.303187,1.411111 v 0.705556 l 0.303187,-0.705556 c 0.166753,-0.388056 0.303187,-1.023056 0.303187,-1.411111 z m 10.161006,0.440972 c -0.09786,-0.242535 -0.177936,-0.0441 -0.177936,0.440972 0,0.48507 0.08007,0.683507 0.177936,0.440973 0.09786,-0.242535 0.09786,-0.63941 0,-0.881945 z M 35.84089,52.075113 c 0,-0.363527 0.326954,-1.605721 0.726566,-2.76043 0.671471,-1.940271 0.684761,-2.174452 0.175264,-3.08821 -0.534118,-0.957919 -0.545232,-0.961111 -0.356569,-0.102369 0.113356,0.515969 -0.101194,1.555359 -0.51342,2.487264 -0.395202,0.89342 -0.61848,1.943795 -0.50524,2.376826 0.119581,0.457278 0.04114,0.775931 -0.191012,0.775931 -0.216658,0 -0.393923,0.416313 -0.393923,0.925139 0,0.782348 0.08167,0.857359 0.529167,0.485972 0.291042,-0.241543 0.529167,-0.7366 0.529167,-1.100123 z m 4.682231,-0.687081 c -0.139427,-0.533167 -0.295528,-0.623944 -0.581385,-0.338088 -0.285857,0.285859 -0.249493,0.48011 0.135436,0.72347 0.28942,0.182975 0.551043,0.335118 0.581385,0.338088 0.03034,0.0028 -0.0306,-0.322591 -0.135436,-0.72347 z m 4.421859,-0.162408 c -0.108615,-0.108617 -0.305875,0.08718 -0.438354,0.435091 -0.191447,0.502779 -0.150926,0.543299 0.197483,0.197485 0.241095,-0.239303 0.349487,-0.523959 0.240871,-0.632576 z M 33.939279,49.785715 c 0.292508,-0.700066 0.443157,-1.361524 0.334777,-1.469905 -0.108381,-0.10838 -0.197055,-0.0025 -0.197055,0.235338 0,0.237818 -0.183279,0.319123 -0.407285,0.180679 -0.25346,-0.156647 -0.311479,-0.0967 -0.153618,0.158725 0.139517,0.225743 0.14669,0.747498 0.01594,1.159454 -0.186867,0.588765 -0.303794,0.644694 -0.546536,0.261426 -0.169845,-0.268171 -0.311239,-0.315606 -0.31421,-0.10541 -0.0053,0.374206 0.33167,0.852548 0.600561,0.852548 0.07458,0 0.374918,-0.572785 0.667426,-1.272855 z m 11.640626,-0.140289 c 0.03033,-0.853426 -0.05519,-0.981724 -0.440973,-0.661557 -0.599381,0.497445 -0.618505,1.253896 -0.03763,1.488285 0.242535,0.09786 0.440972,0.190108 0.440972,0.204982 0,0.01489 0.01693,-0.449393 0.03763,-1.03171 z m 1.902651,-0.02464 c 0,-0.167181 -0.238125,-0.212587 -0.529167,-0.100905 -0.291041,0.111686 -0.529166,0.339845 -0.529166,0.507023 0,0.167182 0.238125,0.212588 0.529166,0.100905 0.291042,-0.111686 0.529167,-0.339845 0.529167,-0.507023 z m -9.525,-0.544135 c 0,-0.291041 -0.15875,-0.431055 -0.352778,-0.311139 -0.194027,0.119916 -0.352777,0.456152 -0.352777,0.747194 0,0.291041 0.15875,0.431055 0.352777,0.311139 0.194028,-0.119916 0.352778,-0.456152 0.352778,-0.747194 z m 3.302574,0.04164 c -0.111683,-0.291042 -0.265451,-0.529167 -0.341706,-0.529167 -0.07626,0 -0.138646,0.238125 -0.138646,0.529167 0,0.291041 0.153768,0.529166 0.341706,0.529166 0.187939,0 0.250329,-0.238125 0.138646,-0.529166 z M 30.902001,48.097935 c 0,-0.247252 -0.238125,-0.449552 -0.529167,-0.449552 -0.604907,0 -0.60087,-0.0094 -0.315812,0.733474 0.237851,0.619831 0.844979,0.415827 0.844979,-0.283922 z m 7.408333,-2.842793 c 0,-0.207303 0.538525,-0.846649 1.196723,-1.420774 1.032133,-0.900299 1.121758,-1.098681 0.65166,-1.442427 -0.559103,-0.408824 -0.338972,-1.21115 0.332299,-1.21115 0.236569,0 0.21292,0.195478 -0.06402,0.529167 -0.244981,0.295183 -0.283181,0.529166 -0.08639,0.529166 0.593248,0 1.169541,-0.935958 0.941769,-1.529524 -0.196103,-0.511034 -0.29024,-0.511401 -1.06442,-0.0041 -0.46711,0.306049 -0.849291,0.776334 -0.849291,1.045059 0,0.268725 -0.186278,0.448906 -0.413952,0.400399 -0.227674,-0.04851 -0.672611,0.591347 -0.98875,1.421899 -0.316139,0.830549 -0.710779,1.386174 -0.876978,1.234723 -0.166199,-0.151455 -0.197511,0.01542 -0.06958,0.370843 0.127928,0.355417 0.237646,0.911042 0.243816,1.234722 0.0097,0.507662 0.08237,0.494436 0.529167,-0.09628 0.284871,-0.376632 0.517947,-0.854396 0.517947,-1.061695 z m 0.0302,-1.07574 c 0.03673,-0.668238 0.624684,-1.793469 0.645161,-1.234722 0.01067,0.291042 -0.134495,0.767292 -0.322581,1.058334 -0.188085,0.291041 -0.333246,0.370416 -0.32258,0.176388 z m -6.043306,1.595604 c 0.751914,-0.383597 2.293403,-1.746882 3.425529,-3.029522 1.343827,-1.522483 2.854457,-2.770724 4.351469,-3.595638 1.26118,-0.694962 2.330028,-1.286881 2.375216,-1.315371 0.04519,-0.0285 -0.08059,-0.596914 -0.27951,-1.26316 -0.198921,-0.666245 -0.363123,-2.147785 -0.364896,-3.292313 -0.0048,-3.10745 -1.835858,-10.196481 -3.582864,-13.871325 -0.575009,-1.209538 -0.0799,-7.749008 0.813918,-10.7502718 0.879868,-2.954433 0.817234,-6.3276633 -0.155951,-8.39883874 -0.319088,-0.67909724 -0.497778,-0.94216188 -0.397089,-0.5845877 0.517385,1.83737684 0.605113,2.50525904 0.28531,2.17208784 -0.627535,-0.6537667 -1.393631,-4.5645418 -1.485799,-7.5847227 -0.05033,-1.6492362 -0.255985,-3.1970488 -0.457009,-3.4395836 -0.201024,-0.2425347 -1.035831,-0.4409722 -1.855126,-0.4409722 -2.777115,0 -2.937847,0.646581 -3.200919,12.8763897 -0.09182,4.2686114 -0.311872,8.1579862 -0.489004,8.6430562 -1.343579,3.679349 -1.525396,4.87855 -1.080149,7.124263 0.39757,2.005245 0.365489,2.525352 -0.325679,5.280141 -0.616978,2.459094 -0.772106,4.146815 -0.794432,8.643057 -0.0319,6.424672 0.850176,13.524763 1.680243,13.524763 0.09329,0 0.784825,-0.313852 1.536739,-0.697452 z m -1.012679,-7.328243 c 0.01637,-0.921632 0.182665,-2.628194 0.369539,-3.792361 0.186873,-1.164167 0.480427,-4.146067 0.652341,-6.626441 0.317096,-4.575041 0.824605,-6.955505 1.482898,-6.955505 0.215958,0 0.251148,0.25024 0.08682,0.617362 -0.151991,0.339548 -0.288038,2.204861 -0.302327,4.145139 -0.01429,1.940278 -0.140899,3.70435 -0.281355,3.920162 -0.245796,0.37767 -0.675821,4.377426 -0.725857,6.751366 -0.01329,0.630591 -0.172807,1.146528 -0.354478,1.146528 -0.186435,0 -0.229416,0.53782 -0.09868,1.234722 0.183543,0.978366 0.11845,1.234723 -0.313516,1.234723 -0.41935,0 -0.538283,-0.386694 -0.515384,-1.675695 z M 31.120965,22.584938 c -0.125863,-0.12586 0.209943,-0.710036 0.746235,-1.298158 0.536294,-0.588127 0.69343,-0.854326 0.349192,-0.591552 -0.896786,0.684561 -1.103572,0.262272 -0.249885,-0.510304 1.258073,-1.138538 1.565055,-0.116523 0.403882,1.344623 -0.561319,0.706332 -1.12356,1.181255 -1.249424,1.055391 z m 2.25048,-4.922668 c 0,-1.099489 0.06016,-1.932926 0.133691,-1.852084 0.315043,0.346386 0.49012,3.851159 0.19238,3.851159 -0.179339,0 -0.326071,-0.899583 -0.326071,-1.999075 z m -1.011605,0.52765 c -0.187728,-0.507478 -0.36945,-0.626499 -0.538619,-0.352778 -0.140417,0.227199 -0.414054,0.413092 -0.608082,0.413092 -0.194028,0 -0.232945,-0.193894 -0.08648,-0.430876 0.146464,-0.236982 0.229644,-0.911669 0.184846,-1.499305 -0.09614,-1.261079 0.564771,-2.65593 1.25843,-2.65593 0.269706,0 0.390635,0.161381 0.268731,0.358626 -0.402926,0.651948 -0.508379,3.16839 -0.170062,4.058229 0.182931,0.481147 0.252041,0.874812 0.153577,0.874812 -0.09846,0 -0.306517,-0.344643 -0.462339,-0.76587 z m 3.260563,-0.336561 c 0.121268,-0.606337 0.220487,-1.955712 0.220487,-2.998611 0,-1.0429 0.15875,-1.896181 0.352777,-1.896181 0.194028,0 0.352778,0.612842 0.352778,1.361874 0,2.193149 -0.420229,4.635349 -0.797604,4.635349 -0.202646,0 -0.256491,-0.462164 -0.128438,-1.102431 z m -1.384141,-4.757727 c 0.108937,-1.826977 0.541763,-3.1605676 0.550177,-1.695168 0.0022,0.371888 0.09847,1.24798 0.214075,1.946871 0.158467,0.958004 0.07605,1.322183 -0.334889,1.479878 -0.458776,0.176051 -0.52676,-0.09813 -0.429363,-1.731581 z m 1.604628,-2.60651 c 0,-0.194027 0.15509,-0.352777 0.344645,-0.352777 0.525003,0 1.441863,-1.5730398 1.573961,-2.7004224 0.06469,-0.5520584 0.135713,-1.9165571 0.157837,-3.0322169 0.02245,-1.1322806 0.200974,-2.0284724 0.404073,-2.0284724 0.693495,0 0.817418,1.2005248 0.411443,3.9859165 -0.327491,2.2469159 -0.58687,2.9646636 -1.315344,3.6397912 -0.955906,0.885903 -1.576615,1.0781 -1.576615,0.488181 z M 33.960206,-1.3008451 c -0.105755,-0.2755928 -0.212601,-1.9027804 -0.237435,-3.6159724 -0.05987,-4.1298763 -0.05427,-4.1981624 0.311595,-3.802811 0.393659,0.4253844 0.767588,7.91986158 0.395154,7.91986158 -0.152368,0 -0.363559,-0.22548538 -0.469314,-0.50107818 z m 6.114017,46.6733311 c 0,-0.194027 -0.15875,-0.254666 -0.352778,-0.13475 -0.194028,0.119916 -0.352778,0.376777 -0.352778,0.570805 0,0.194028 0.15875,0.254667 0.352778,0.13475 0.194028,-0.119916 0.352778,-0.376777 0.352778,-0.570805 z m 5.644444,0.04164 c 0,-0.194028 -0.228756,-0.352778 -0.508347,-0.352778 -0.27959,0 -0.606459,0.15875 -0.726375,0.352778 -0.119916,0.194028 0.10884,0.352778 0.508347,0.352778 0.399506,0 0.726375,-0.15875 0.726375,-0.352778 z M 44.43513,44.532181 c 0.111683,-0.291041 0.0096,-0.540325 -0.22684,-0.553963 -0.236445,-0.01364 -0.112401,-0.171038 0.275655,-0.349783 l 0.705556,-0.324986 -0.705556,0.08992 c -0.453365,0.05778 -0.719863,0.371948 -0.745583,0.87895 -0.0454,0.89488 0.390679,1.057515 0.696768,0.259859 z m -1.715074,-1.234722 c 0.119916,-0.194028 0.05928,-0.352778 -0.134749,-0.352778 -0.194028,0 -0.45089,0.15875 -0.570806,0.352778 -0.119916,0.194028 -0.05928,0.352778 0.134749,0.352778 0.194028,0 0.45089,-0.15875 0.570806,-0.352778 z m 3.311278,-0.480836 c 0.322998,-0.389188 0.230371,-0.448589 -0.485971,-0.311651 -0.517449,0.09891 -0.885029,0.0056 -0.885029,-0.22472 0,-0.216648 -0.15875,-0.393904 -0.352778,-0.393904 -0.619208,0 -0.203469,0.873139 0.529167,1.111363 0.388055,0.126181 0.725805,0.245244 0.750554,0.264583 0.02475,0.01933 0.224575,-0.181211 0.444057,-0.445671 z m -2.782111,-3.388651 c 0,-0.187935 -0.238125,-0.250327 -0.529167,-0.138645 -0.291041,0.111686 -0.529166,0.265451 -0.529166,0.341708 0,0.07625 0.238125,0.138645 0.529166,0.138645 0.291042,0 0.529167,-0.153769 0.529167,-0.341708 z M 30.430083,2.9925945 c -0.09786,-0.2425347 -0.177936,-0.044097 -0.177936,0.4409722 0,0.4850695 0.08007,0.683507 0.177936,0.4409723 0.09786,-0.2425347 0.09786,-0.6394098 0,-0.8819445 z m 0.316872,-4.5106131 c 0.200602,-3.2038073 0.164655,-3.6215651 -0.272107,-3.1623041 -0.386064,0.4059499 -0.468695,1.294322 -0.35487,3.8152044 0.0816,1.80732056 0.204054,3.2303574 0.272108,3.1623041 0.06805,-0.068054 0.227744,-1.78489554 0.354869,-3.8152044 z m 0.07802,-6.2491099 c -0.296537,-0.3395486 -0.649826,-1.23395 -0.785087,-1.9875589 -0.220531,-1.2287026 -0.179608,-1.3449426 0.396289,-1.1256276 0.489795,0.186525 0.544853,0.146433 0.231983,-0.168925 -0.598915,-0.603677 -1.177266,-0.0876 -1.177266,1.0504949 0,0.8881259 1.147875,2.8489778 1.667781,2.8489778 0.113003,0 -0.03716,-0.2778125 -0.3337,-0.6173612 z m 0.643988,-0.6071503 c -0.04189,-0.2854255 -0.174682,-0.6174719 -0.295091,-0.737881 -0.169582,-0.169582 -0.136554,0.5462729 0.05392,1.1686424 0.104198,0.3404659 0.302406,-0.013554 0.241171,-0.4307614 z m -0.566958,-1.5977109 c 0,-0.1940283 -0.168119,-0.3527783 -0.373598,-0.3527783 -0.205478,0 -0.275485,0.15875 -0.155569,0.3527783 0.119916,0.1940278 0.288035,0.3527778 0.373598,0.3527778 0.08556,0 0.155569,-0.15875 0.155569,-0.3527778 z m 1.763889,0.043196 c 0,-0.1702703 -0.238125,-0.5072083 -0.529167,-0.7487513 -0.429157,-0.356169 -0.529167,-0.342108 -0.529167,0.0744 0,0.282461 0.105834,0.6193993 0.235186,0.748751 0.335028,0.3350281 0.823148,0.2909115 0.823148,-0.074397 z m 4.517212,-0.6605573 c -0.06999,-0.358167 -0.437739,-0.617361 -0.875935,-0.617361 -0.415416,0 -0.88871,-0.144356 -1.051762,-0.320792 -0.173967,-0.188245 -0.04138,-0.22926 0.320901,-0.09927 1.090594,0.391333 0.669429,0.0077 -1.65182,-1.504666 -1.582172,-1.030825 -2.25368,-1.684205 -2.217983,-2.158103 0.02816,-0.373821 0.12486,-0.679674 0.214891,-0.679674 0.09003,0 1.048436,0.592164 2.129789,1.315919 1.081352,0.723754 2.032241,1.358754 2.113086,1.411111 0.08085,0.05236 0.04789,0.194295 -0.07324,0.31542 -0.121126,0.121125 -1.036259,-0.366033 -2.033631,-1.082573 -0.997372,-0.71654 -1.875371,-1.240833 -1.95111,-1.165094 -0.191326,0.191326 4.542387,3.417007 4.789951,3.264003 0.110307,-0.06817 0.19579,-1.445851 0.189963,-3.061507 -0.01007,-2.792709 -0.04802,-2.933716 -0.769695,-2.85966 -0.417506,0.04284 -0.952881,-0.155595 -1.189724,-0.440973 -0.524223,-0.631651 0.02644,-0.691665 0.714728,-0.0779 0.420697,0.375148 0.424781,0.348818 0.02736,-0.176389 -0.586344,-0.774874 -0.08887,-0.797139 0.986192,-0.04414 0.765178,0.535951 0.86303,0.528582 1.50495,-0.113338 0.680229,-0.680229 0.67492,-0.685644 -0.575717,-0.587152 -0.857764,0.06755 -1.184371,-0.02665 -1.01917,-0.293947 0.14137,-0.228741 0.084,-0.29502 -0.137095,-0.158378 -0.209111,0.129238 -0.954792,-0.104039 -1.65707,-0.518393 -1.629701,-0.961547 -2.005783,-0.65495 -0.467781,0.381354 0.638724,0.430372 0.875259,0.690119 0.525633,0.577215 -0.37271,-0.120359 -0.546521,-0.06101 -0.420152,0.143457 0.301621,0.488033 -0.04611,0.435519 -1.254739,-0.189489 -1.118606,-0.578454 -1.4348,-1.099558 -0.434206,-0.715594 0.333635,0.128027 0.483456,0.109624 0.332936,-0.0409 -0.416366,-0.416366 -2.789574,-0.484073 -3.260754,-0.09303 -0.313167,0.259905 -0.210653,0.844102 0.415136,2.365744 0.457048,1.111337 0.837195,2.338112 0.844771,2.726168 0.01746,0.894363 0.393795,1.411111 1.027675,1.411111 0.272545,0 0.536311,0.277812 0.586146,0.617361 0.105358,0.71785 -0.232406,0.79636 -0.834738,0.194028 -0.232834,-0.232833 -0.423334,-0.290022 -0.423334,-0.127086 0,0.162937 0.277813,0.525146 0.617361,0.80491 0.578503,0.476647 0.573475,0.494515 -0.0799,0.283888 -0.620418,-0.200004 -0.603923,-0.125426 0.149689,0.676757 0.895473,0.953188 1.825785,1.2749155 1.076734,0.372365 -0.24498,-0.295183 -0.28318,-0.529167 -0.08639,-0.529167 0.194028,0 0.558873,0.248331 0.810768,0.551846 0.285319,0.343787 0.75897,0.476304 1.256298,0.351482 0.439069,-0.110199 0.89678,-0.04103 1.017136,0.153711 0.362338,0.5862746 0.943137,0.3983799 0.813846,-0.263289 z m -3.028225,-0.637798 c -0.431568,-0.302283 -0.958979,-0.441876 -1.172025,-0.310207 -0.279032,0.172452 -0.282329,0.04316 -0.01179,-0.462344 0.206559,-0.385959 0.275314,-0.801992 0.152789,-0.924517 -0.526422,-0.526422 0.501591,-0.146381 1.305931,0.482782 0.599234,0.468728 0.712318,0.695978 0.352777,0.708931 -0.40535,0.0146 -0.368937,0.140255 0.155621,0.537011 0.918103,0.694418 0.21261,0.665906 -0.7833,-0.03166 z m 0.09851,-0.861508 c -0.119916,-0.194028 -0.376779,-0.352778 -0.570807,-0.352778 -0.194028,0 -0.254665,0.15875 -0.134749,0.352778 0.119916,0.194028 0.376779,0.352778 0.570807,0.352778 0.194027,0 0.254664,-0.15875 0.134749,-0.352778 z m -0.352778,-3.241999 c -3.090036,-1.814292 -2.946536,-1.662866 -2.13688,-2.2549 0.376328,-0.275178 0.534828,-0.503853 0.352223,-0.508168 -0.182606,-0.0043 -0.728885,-0.315473 -1.213954,-0.691465 l -0.881945,-0.68362 0.881945,0.206386 c 0.866895,0.202864 0.869905,0.196226 0.176389,-0.389031 -0.96281,-0.812512 -0.439643,-0.609616 2.557639,0.991911 2.317975,1.238556 3.14694,1.984775 2.204861,1.984775 -0.494399,0 -0.280485,0.794602 0.352777,1.310421 0.656229,0.534526 0.212701,0.578626 -0.816942,0.08123 -0.665986,-0.321724 -0.690923,-0.309755 -0.183755,0.08819 0.322742,0.253238 0.878367,0.649536 1.234722,0.88066 0.356356,0.231125 0.48917,0.423218 0.295142,0.426875 -0.194028,0.0037 -1.464028,-0.645813 -2.822222,-1.443267 z m 0.315726,-0.698507 c -0.173062,-0.280021 -0.06043,-0.338036 0.350281,-0.18043 0.332948,0.127764 0.516751,0.08893 0.408451,-0.08631 -0.1083,-0.175233 0.0025,-0.389806 0.24626,-0.476828 0.243744,-0.08702 0.363796,-0.232502 0.266782,-0.323288 -0.470991,-0.440753 -3.654578,-2.038988 -3.790597,-1.902969 -0.08554,0.08554 0.335477,0.409433 0.935591,0.719764 1.122517,0.580477 1.519667,1.138835 0.543628,0.764293 -0.357701,-0.137262 -0.459931,-0.06842 -0.294907,0.198596 0.168685,0.272938 0.05759,0.333863 -0.334455,0.183421 -0.96681,-0.371 -0.665384,0.06797 0.55949,0.814788 1.335409,0.814215 1.453035,0.844851 1.109476,0.288961 z m -0.998435,-0.60864 c -0.245006,-0.396427 0.797648,-0.822138 1.281375,-0.523179 0.224957,0.139031 0.180223,0.334659 -0.12003,0.524909 -0.61644,0.390595 -0.919154,0.390145 -1.161345,-0.0017 z m -2.411446,4.688787 c -0.117225,-0.117225 -0.421496,-0.129758 -0.676158,-0.02785 -0.281422,0.112616 -0.197829,0.196209 0.213137,0.213137 0.371886,0.01532 0.580246,-0.06806 0.463021,-0.185287 z m 0.06615,-0.621022 c -0.08085,-0.07073 -0.543866,-0.334848 -1.028936,-0.586924 -0.806731,-0.419234 -0.840654,-0.408266 -0.397776,0.128604 0.266292,0.322808 0.729313,0.586923 1.028935,0.586923 0.299622,0 0.478621,-0.05787 0.397777,-0.128603 z m -0.146991,-0.92973 c -0.119916,-0.194028 -0.376779,-0.352778 -0.570807,-0.352778 -0.194027,0 -0.254665,0.15875 -0.134749,0.352778 0.119916,0.194028 0.376779,0.352778 0.570807,0.352778 0.194028,0 0.254665,-0.15875 0.134749,-0.352778 z m -0.309346,-2.207395 c -0.655608,-2.17842 -1.379061,-3.537691 -1.98371,-3.727124 -0.381116,-0.119401 -0.331765,0.06684 0.176389,0.66566 l 0.705556,0.831445 -0.990541,-0.625016 c -0.951333,-0.600276 -0.986242,-0.599728 -0.881944,0.01385 0.06192,0.364284 -0.08093,0.600956 -0.332376,0.550667 -0.623561,-0.124713 -0.549357,0.433018 0.271753,2.042526 0.860164,1.686061 1.240799,1.845102 0.599592,0.250529 -0.821734,-2.043514 -0.34521,-2.918993 0.995003,-1.828039 0.684842,0.557471 0.684709,0.5608 -0.01427,0.356839 -0.645069,-0.188232 -0.637509,-0.148049 0.08819,0.468721 0.436563,0.371031 0.79375,0.787657 0.79375,0.925834 0,0.138177 -0.241961,0.05042 -0.537691,-0.195013 -0.295731,-0.245435 -0.627005,-0.356932 -0.736164,-0.247773 -0.10916,0.10916 0.210813,0.466646 0.711051,0.794415 0.500239,0.327769 0.822143,0.737328 0.715344,0.910132 -0.106797,0.172804 0.04572,0.314189 0.338935,0.314189 0.462927,0 0.473608,-0.197719 0.08113,-1.501839 z m -4.453154,-3.430329 c 0,-0.190331 0.396875,-0.445666 0.881944,-0.56741 1.137989,-0.285617 1.111756,-0.613153 -0.129639,-1.618604 -0.556372,-0.450625 -1.283897,-1.248085 -1.616722,-1.772133 -0.332826,-0.524049 -1.34605,-1.302566 -2.251611,-1.73004 -0.905559,-0.427474 -1.928991,-1.019758 -2.274292,-1.316188 -0.517579,-0.444325 -1.683986,-0.61911 -2.954634,-0.44275 -0.535364,0.0743 1.239562,1.583618 2.782359,2.365984 0.918141,0.465597 1.944332,1.281876 2.280423,1.813953 0.336091,0.532076 1.053322,1.434111 1.593846,2.004521 0.540524,0.57041 0.98277,1.165723 0.98277,1.322917 0,0.157194 0.15875,0.285807 0.352778,0.285807 0.194028,0 0.352778,-0.155726 0.352778,-0.346057 z m 12.958629,-1.153249 c 0.189762,-0.242535 0.432714,-0.799118 0.539893,-1.236853 0.165319,-0.675184 -0.118712,-0.979667 -1.872925,-2.007783 -1.137288,-0.666546 -2.352989,-1.222795 -2.701558,-1.236109 -3.637205,-0.138927 -4.761913,-0.3843 -6.179505,-1.348154 -0.830396,-0.564606 -2.065437,-1.226072 -2.744534,-1.469924 -1.555746,-0.558641 -5.644444,-1.034547 -5.644444,-0.656987 0,0.468357 1.298913,1.618562 2.538877,2.24821 0.640909,0.32545 2.170349,1.603893 3.398756,2.840983 1.708767,1.720846 2.454658,2.23797 3.175,2.201214 0.831295,-0.04242 0.848598,-0.06594 0.147783,-0.200925 -1.599445,-0.308066 -0.724721,-0.635117 1.91785,-0.717065 3.144088,-0.0975 5.363352,0.400674 6.030958,1.353814 0.547476,0.781632 0.914606,0.842102 1.393849,0.229579 z M 34.972253,107.94399 c 0.14585,-0.33955 0.333291,-2.12549 0.416536,-3.96875 0.08324,-1.84327 0.377772,-3.85163 0.654505,-4.463038 0.276733,-0.61141 0.503151,-1.524219 0.503151,-2.028472 0,-0.504254 0.176418,-0.916824 0.392039,-0.916824 0.271723,0 0.299015,0.405998 0.08893,1.322917 -0.166711,0.727604 -0.293501,2.235727 -0.281758,3.351387 0.02476,2.35199 -0.448133,2.74011 -0.644755,0.52917 -0.07333,-0.82462 -0.149153,-0.0694 -0.168487,1.67837 -0.03819,3.4525 -0.321683,5.1126 -0.873066,5.1126 -0.201339,0 -0.238656,-0.26452 -0.08709,-0.61736 z m 25.386692,-5.37986 c 0.119916,-0.19403 -0.148527,-0.36978 -0.59654,-0.39056 -0.472472,-0.0219 -0.185516,-0.17867 0.683277,-0.37325 0.86329,-0.19335 1.651346,-0.62228 1.860169,-1.01247 0.199277,-0.37235 0.715868,-0.859958 1.147985,-1.083578 0.654943,-0.33894 0.613269,-0.22289 -0.250476,0.697468 -0.802601,0.85521 -0.902991,1.10405 -0.445399,1.10405 0.324908,0 0.973352,-0.60609 1.44098,-1.34686 0.958734,-1.518728 2.312529,-2.533691 3.379537,-2.533691 0.394882,0 0.717967,0.220917 0.717967,0.490922 0,0.568291 -1.447712,1.019371 -2.265024,0.705741 -0.368021,-0.14122 -0.557198,-0.0176 -0.557198,0.36417 0,0.31789 -0.232082,0.66704 -0.515737,0.77589 -0.283658,0.108838 -0.613925,0.507258 -0.733929,0.885358 -0.125194,0.39445 -0.65719,0.77526 -1.248153,0.89345 -0.566476,0.1133 -1.029959,0.33992 -1.029959,0.50361 0,0.16368 -0.238125,0.20623 -0.529167,0.0945 -0.291042,-0.11168 -0.529167,-0.0273 -0.529167,0.18746 0,0.21479 -0.168119,0.39052 -0.373598,0.39052 -0.205479,0 -0.275484,-0.15875 -0.155568,-0.35277 z m 6.783624,-4.093695 C 67.025341,98.35321 66.72107,98.34068 66.46641,98.442605 c -0.281421,0.112614 -0.197831,0.196208 0.213138,0.213134 0.371884,0.01531 0.580245,-0.06806 0.463021,-0.185286 z m -6.817311,2.275295 c -0.15561,-0.25178 -0.09681,-0.31155 0.154009,-0.15653 0.513895,0.3176 2.239398,-1.501648 1.933176,-2.038205 -0.124488,-0.218122 -0.108599,-0.291073 0.0353,-0.162108 0.143901,0.128965 0.829073,-0.15059 1.522599,-0.621231 0.693526,-0.470638 1.355302,-0.75286 1.470611,-0.627155 0.115312,0.125706 -0.0092,0.306243 -0.276779,0.401197 -0.267536,0.09495 -1.340782,0.946348 -2.384983,1.891984 -2.089421,1.892188 -2.093909,1.894588 -2.453936,1.312048 z m -22.823929,-0.18664 c -0.144101,-0.22965 -0.0057,-1.102768 0.307567,-1.940277 0.546282,-1.460482 1.243684,-3.916281 1.721577,-6.062285 0.12392,-0.556472 0.307984,-0.929093 0.40903,-0.828047 0.289124,0.289126 -0.614888,4.547807 -1.214291,5.720369 -0.297556,0.582084 -0.635707,1.613962 -0.751446,2.293052 -0.125426,0.735938 -0.316275,1.066048 -0.472437,0.817188 z m 23.039406,-1.070908 c -0.0071,-0.56671 1.380878,-3.217066 1.830221,-3.494776 0.204739,-0.126535 0.189488,0.0854 -0.03654,0.507735 -0.577366,1.078819 -0.471452,1.308996 0.286639,0.622935 0.371038,-0.335784 0.96635,-0.665745 1.322917,-0.733241 0.356566,-0.0675 0.727678,-0.137302 0.824692,-0.155117 0.09701,-0.01782 -0.02956,-0.16304 -0.28128,-0.322714 -0.365108,-0.231606 -0.346255,-0.382792 0.09321,-0.747511 0.475188,-0.394371 0.53388,-0.3458 0.427158,0.35349 -0.132433,0.867791 -1.945171,2.536398 -2.429976,2.23677 -0.160429,-0.09915 -0.520647,0.346862 -0.800481,0.991129 -0.279834,0.64428 -0.517433,0.93329 -0.527999,0.64225 -0.01707,-0.47037 -0.05721,-0.47037 -0.361185,0 -0.216506,0.33502 -0.343954,0.37136 -0.347376,0.099 z m -8.015496,-3.511727 c -0.452857,-0.691145 -0.502172,-0.981848 -0.184524,-1.087731 0.238429,-0.07948 0.433508,-0.616892 0.433508,-1.194258 0,-0.678064 0.138366,-0.964241 0.390779,-0.808239 0.244997,0.151416 0.306895,0.766124 0.165918,1.647747 -0.138645,0.867033 -0.06902,1.594013 0.181582,1.895969 0.286096,0.344728 0.291606,0.489741 0.01859,0.489741 -0.213314,0 -0.665952,-0.424452 -1.005868,-0.943229 z M 37.604778,92.879337 c 0,-0.08788 0.145835,-0.524446 0.324078,-0.970139 0.178243,-0.445692 0.420104,-1.110883 0.537471,-1.478202 0.117366,-0.36732 0.299465,-0.58178 0.404664,-0.476582 0.294971,0.294972 -0.543416,3.084714 -0.927032,3.084714 -0.186549,0 -0.339181,-0.07191 -0.339181,-0.159791 z m 21.166667,-0.213808 c 0,-0.205479 0.15875,-0.275484 0.352778,-0.155568 0.194027,0.119916 0.352777,0.288036 0.352777,0.373599 0,0.08556 -0.15875,0.155568 -0.352777,0.155568 -0.194028,0 -0.352778,-0.16812 -0.352778,-0.373599 z m 5.644444,-0.311136 c 0,-0.182576 0.156933,-0.428949 0.348739,-0.54749 0.199975,-0.123592 0.259115,0.01803 0.138645,0.331957 -0.234523,0.611159 -0.487384,0.722979 -0.487384,0.215533 z M 51.017411,90.754599 c -0.278254,-0.335277 -0.305019,-0.537694 -0.07109,-0.537694 0.426349,0 0.923427,0.669291 0.67878,0.913942 -0.08879,0.08879 -0.362254,-0.08052 -0.607688,-0.376248 z M 36.323983,88.989327 c -0.297807,-0.776072 0.0295,-1.017496 0.542099,-0.399853 0.288557,0.347688 0.303524,0.57838 0.04778,0.736438 -0.204819,0.126587 -0.470265,-0.02487 -0.589879,-0.336585 z m 3.450086,0.187762 c 0.185509,-0.556528 1.977071,-2.00207 2.179778,-1.75878 0.07,0.08402 -0.429663,0.627687 -1.110373,1.208147 -0.680711,0.580464 -1.161943,0.828248 -1.069405,0.550633 z m -1.816513,-0.276556 c 0,-0.495071 3.123203,-2.564183 3.870482,-2.564183 0.315985,0 0.765018,-0.1905 0.997852,-0.423334 0.329259,-0.329258 0.423333,-0.290061 0.423333,0.176389 0,0.36938 -0.277719,0.599722 -0.723075,0.599722 -0.895843,0 -2.719789,0.901937 -3.774842,1.86665 -0.436562,0.399179 -0.79375,0.55432 -0.79375,0.344756 z m 4.938889,-1.287124 c 0,-0.09988 0.793993,-0.580397 1.764428,-1.06782 0.970436,-0.487419 2.374606,-1.527651 3.120378,-2.311619 1.194068,-1.255225 2.17075,-1.809309 2.17075,-1.23149 0,0.547655 -1.131952,2.275536 -1.490726,2.275536 -0.312148,0 -0.309914,-0.104358 0.0091,-0.423333 0.476104,-0.476105 0.558707,-0.988917 0.15875,-0.985548 -0.145521,0.0011 -0.529337,0.467589 -0.852925,1.036358 -0.323588,0.568774 -1.196713,1.341149 -1.940278,1.716395 -1.565092,0.789834 -2.939436,1.253427 -2.939436,0.991521 z m 8.126391,-4.388496 c -0.01848,-0.689053 1.883809,-3.324779 3.291981,-4.56117 0.676071,-0.593598 1.728809,-1.188995 2.339414,-1.323107 0.712724,-0.156542 1.353143,-0.642268 1.788774,-1.356703 0.373221,-0.612073 0.679175,-0.870373 0.679898,-0.573997 0.0025,1.013163 -1.125047,2.147651 -2.97586,2.994233 -2.120854,0.9701 -2.611071,1.466148 -3.441305,3.482259 -0.38409,0.932709 -0.609159,1.199191 -0.62986,0.745755 -0.02889,-0.632838 -0.08418,-0.614659 -0.536377,0.176389 -0.277291,0.485069 -0.509793,0.672422 -0.516665,0.416341 z m -1.825503,-1.810004 c 0.458057,-0.397651 1.079828,-0.723004 1.381712,-0.723004 0.691021,0 0.553322,0.120092 -0.979822,0.85453 l -1.234722,0.591481 z M 46.071445,76.63496 c -0.679097,-0.4627 -1.671285,-0.850424 -2.204861,-0.861607 -0.533576,-0.01119 -0.970139,-0.179087 -0.970139,-0.373115 0,-0.194028 0.198438,-0.349293 0.440972,-0.345031 0.748166,0.01316 3.236465,1.259247 3.747363,1.876623 0.631463,0.763069 0.475077,0.717253 -1.013335,-0.29687 z m 0.8573,-0.996382 c -1.313182,-1.669965 -1.554123,-1.82245 -2.822222,-1.786125 -0.762557,0.02184 -1.783342,0.161714 -2.268411,0.310822 -0.849544,0.261148 -0.859096,0.247022 -0.260002,-0.384475 0.403486,-0.425312 1.115984,-0.655584 2.028472,-0.655584 0.903434,0 1.40653,-0.160595 1.40653,-0.448987 0,-0.246945 -0.168119,-0.448991 -0.373598,-0.448991 -0.205479,0 -0.264993,-0.175726 -0.132255,-0.390501 0.454124,-0.73479 -2.113202,0.07418 -2.749497,0.866373 -0.672548,0.837322 -0.8266,0.559608 -0.268277,-0.48363 0.295428,-0.552013 2.250571,-1.3938 3.254874,-1.401385 0.143228,-0.0011 0.361238,0.628544 0.484466,1.399173 0.149853,0.937126 0.444583,1.471136 0.889966,1.612498 0.366252,0.116244 1.021367,0.833882 1.455811,1.59475 0.434444,0.760871 0.978967,1.384621 1.210051,1.386117 0.231084,0.0014 0.518265,0.161466 0.638181,0.355494 0.119916,0.194028 -0.06915,0.340967 -0.420152,0.326534 -0.351,-0.01443 -1.284272,-0.847873 -2.073937,-1.852083 z m -7.824661,-1.545639 c -0.436562,-0.08409 -0.79375,-0.319109 -0.79375,-0.52227 0,-0.210912 0.340541,-0.278127 0.79375,-0.156672 0.436563,0.116995 0.912812,0.214887 1.058333,0.217536 0.145521,0.0028 0.264584,0.163566 0.264584,0.357594 0,0.194027 -0.119063,0.331159 -0.264584,0.304736 -0.145521,-0.02642 -0.62177,-0.11684 -1.058333,-0.200924 z m 15.08125,-1.829958 c 0,-0.17327 0.260579,-0.415029 0.579063,-0.537241 0.484181,-0.185798 0.506004,-0.134176 0.133195,0.315034 -0.508046,0.612154 -0.712258,0.675865 -0.712258,0.222207 z m -6.702778,-0.361018 c 0,-0.357798 1.581635,-1.440614 2.104255,-1.440614 0.200854,0 0.36519,0.15875 0.36519,0.352777 0,0.194028 -0.3175,0.352778 -0.705556,0.352778 -0.388056,0 -0.705556,0.141768 -0.705556,0.315034 0,0.173271 -0.238125,0.406411 -0.529166,0.518097 -0.291042,0.111682 -0.529167,0.06755 -0.529167,-0.09807 z m -6.702778,-1.243405 c 0,-0.27959 0.15875,-0.60646 0.352778,-0.726376 0.194028,-0.119916 0.352778,0.108839 0.352778,0.508346 0,0.399506 -0.15875,0.726376 -0.352778,0.726376 -0.194028,0 -0.352778,-0.228755 -0.352778,-0.508346 z M 38.446947,69.79505 c -2.097659,-2.14147 -2.3082,-2.433119 -1.926681,-2.668912 0.206142,-0.127402 0.906661,0.174025 1.556708,0.66984 0.650046,0.495815 1.365355,0.901482 1.589576,0.901482 0.22422,0 0.407673,0.15875 0.407673,0.352777 0,0.486671 -0.826846,0.443153 -1.340556,-0.07055 -0.30593,-0.305929 -0.423333,-0.311478 -0.423333,-0.02 0,0.221831 0.34761,0.646804 0.772466,0.944387 0.424856,0.297578 0.68477,0.628752 0.577585,0.735936 -0.107185,0.107185 -0.653232,-0.273043 -1.213438,-0.844952 z m 3.391165,-0.623591 c 0,-0.234262 0.30039,-0.329392 0.705555,-0.223439 0.394472,0.103156 0.705556,0.01083 0.705556,-0.209416 0,-0.216658 0.436562,-0.381388 0.970139,-0.36607 0.533576,0.01531 0.780619,0.104947 0.548984,0.199181 -0.231635,0.09423 -0.348942,0.359509 -0.260683,0.58951 0.107275,0.279555 -0.3086,0.418179 -1.25454,0.418179 -0.835726,0 -1.415011,-0.167008 -1.415011,-0.407945 z m 8.819444,0.227083 c 0,-0.496933 1.6426,-0.898751 2.822222,-0.690379 1.150807,0.203278 1.174782,0.233003 0.352778,0.437353 -1.474368,0.366525 -3.175,0.502055 -3.175,0.253026 z M 48.981862,66.10758 c -1.47882,-0.362828 -2.04468,-0.937898 -0.922874,-0.937898 0.947762,0 3.304124,0.794582 3.304124,1.114174 0,0.347352 -0.353755,0.321166 -2.38125,-0.176276 z m -2.199459,-4.53305 c -0.003,-0.522125 0.153348,-1.047433 0.347375,-1.167349 0.450461,-0.278401 0.450461,0.890461 0,1.5875 -0.267476,0.41389 -0.34315,0.322362 -0.347375,-0.420151 z"
       style="fill:#000000;stroke-width:0.35277778" />
  </g>
</svg>
