<?xml version="1.0" encoding="UTF-8" standalone="no"?>
<svg
   xmlns:dc="http://purl.org/dc/elements/1.1/"
   xmlns:cc="http://creativecommons.org/ns#"
   xmlns:rdf="http://www.w3.org/1999/02/22-rdf-syntax-ns#"
   xmlns:svg="http://www.w3.org/2000/svg"
   xmlns="http://www.w3.org/2000/svg"
   id="svg8"
   version="1.1"
   viewBox="0 0 58.185518 129.86537"
   height="129.86539mm"
   width="58.185516mm">
  <defs
     id="defs2" />
  <metadata
     id="metadata5">
    <rdf:RDF>
      <cc:Work
         rdf:about="">
        <dc:format>image/svg+xml</dc:format>
        <dc:type
           rdf:resource="http://purl.org/dc/dcmitype/StillImage" />
        <dc:title></dc:title>
      </cc:Work>
    </rdf:RDF>
  </metadata>
  <g
     transform="translate(-35.231082,14.423393)"
     id="layer1">
    <path
       id="path4257"
       d="m 73.445637,114.58183 c -1.234422,-0.5612 -2.205591,-1.34712 -2.998611,-2.42663 -0.64509,-0.87814 -2.006325,-2.25524 -3.024971,-3.06022 -1.639973,-1.29599 -1.852083,-1.61388 -1.852083,-2.77577 0,-1.00889 0.286777,-1.62525 1.240794,-2.66679 0.682436,-0.74505 1.307475,-1.68889 1.388975,-2.09741 0.0815,-0.40853 0.242515,-1.1872 0.357809,-1.730377 0.41,-1.9316 1.199351,-6.805948 1.439674,-8.89018 0.308677,-2.677054 0.78686,-3.834528 2.736486,-6.623836 1.92785,-2.758154 1.880133,-2.604223 2.52765,-8.15382 0.468506,-4.015362 1.143476,-6.693358 2.708557,-10.746387 0.198427,-0.513859 0.403902,-2.956912 0.456611,-5.42901 0.08966,-4.205167 0.155885,-4.581369 1.027973,-5.839795 0.512674,-0.739792 0.932138,-1.507306 0.932138,-1.705592 0,-0.198282 0.396875,-0.733358 0.881944,-1.189058 1.318736,-1.238889 1.163909,-2.666383 -0.548576,-5.057839 -0.786787,-1.098733 -1.80164,-2.83114 -2.255235,-3.849789 -0.608372,-1.366245 -1.436158,-2.355385 -3.15559,-3.770676 -1.32836,-1.093393 -2.330877,-2.196927 -2.330877,-2.565742 0,-0.355939 -0.733795,-1.910063 -1.630652,-3.453603 -1.54203,-2.653915 -1.651673,-3.140057 -1.040557,-4.613695 0.169694,-0.409197 -0.140176,-0.724584 -1.166738,-1.187495 -1.492068,-0.672832 -1.741115,-1.176348 -2.043437,-4.131377 -0.110618,-1.081225 0.0176,-2.001746 0.37511,-2.693099 0.509833,-0.985909 0.489464,-1.161716 -0.331861,-2.86424 -0.481269,-0.997623 -1.251,-3.119478 -1.710514,-4.715235 l -0.83548,-2.9013752 -1.364185,-0.11198 c -1.372347,-0.112649 -3.304464,-1.504391 -3.304464,-2.3802705 0,-0.2309833 -0.238125,-0.6175957 -0.529167,-0.8591387 -0.815616,-0.6769012 -0.629648,-1.8918368 0.440973,-2.8808947 1.64458,-1.5192925 3.365545,-1.7188638 2.471053,-0.2865554 -0.581723,0.9314871 -0.04318,1.4045032 2.042743,1.794196 1.15298,0.2154001 2.115781,0.7183952 3.131323,1.6358947 0.806537,0.7286727 2.438021,2.1186096 3.625521,3.0887486 1.187499,0.9701382 2.312345,2.0813882 2.499656,2.4694442 0.187314,0.388055 0.995468,1.574408 1.7959,2.636339 0.807378,1.071144 1.456365,2.327677 1.457657,2.822222 0.0013,0.490291 0.317732,1.367688 0.70323,1.949772 0.385498,0.582083 0.701954,1.316707 0.703231,1.6325 0.0014,0.315789 0.24045,0.77179 0.531492,1.013333 0.291041,0.241543 0.529166,0.744104 0.529166,1.116803 0,1.177769 1.218551,4.879421 1.60643,4.879929 0.592413,7.05e-4 4.102803,1.808547 5.395652,2.778629 0.649686,0.487489 1.32631,1.212772 1.503613,1.611739 0.177299,0.398971 1.040444,1.83665 1.918099,3.194844 0.87765,1.358194 1.75208,2.84552 1.94319,3.305168 0.60338,1.451222 1.11335,5.753322 1.05767,8.922353 -0.0318,1.810205 0.0971,3.148502 0.31639,3.284011 0.51307,0.317095 0.45573,1.777408 -0.15971,4.067634 -0.28676,1.067153 -0.6814,3.6062 -0.87696,5.642328 -0.28002,2.915521 -0.49627,3.814928 -1.01781,4.233333 -0.4199,0.336864 -0.73541,1.176761 -0.86217,2.295172 -0.43774,3.861925 -2.918919,9.560926 -5.507535,12.650215 -0.880999,1.051398 -1.437203,2.074334 -1.438628,2.645834 -0.0025,0.996488 -0.669434,2.148723 -2.156728,3.72601 -0.508384,0.539143 -1.593716,2.635292 -2.411846,4.65811 -0.818134,2.022817 -2.18711,4.824796 -3.042166,6.226619 -2.035083,3.336399 -2.900454,7.532089 -2.058588,9.980909 0.251805,0.73245 0.555469,1.90967 0.67481,2.61604 0.134649,0.79697 0.744933,1.86189 1.608304,2.8064 2.513125,2.74932 1.388255,3.68409 -2.374685,1.97335 z m 3.060446,-0.15888 c 0,-0.17819 -0.612726,-0.96171 -1.361613,-1.74115 -0.9808,-1.02082 -1.415919,-1.82205 -1.555785,-2.86485 -0.233469,-1.74062 -0.78002,-2.47834 -1.836127,-2.47834 -1.026492,0 -3.061562,-1.38376 -3.587998,-2.43968 l -0.414302,-0.83101 -0.913754,0.91376 c -1.45684,1.45684 -1.297192,1.82377 1.996662,4.58907 1.11566,0.93664 2.028472,1.90115 2.028472,2.14337 0,0.69327 1.487216,1.91301 3.014279,2.47216 1.639817,0.60043 2.630166,0.68955 2.630166,0.23667 z m -3.893961,-8.89497 c -0.200925,-0.70058 -0.170424,-1.63315 0.08461,-2.58668 0.219346,-0.82011 0.27602,-1.7934 0.125941,-2.16287 -0.264975,-0.65231 -0.281273,-0.65133 -0.562991,0.0338 -0.251696,0.61211 -0.293402,0.62264 -0.31491,0.0795 -0.01365,-0.34435 -0.432005,-0.78091 -0.929707,-0.970137 -1.19966,-0.45611 -1.121284,-0.50072 -1.407206,0.801067 -0.138332,0.62981 -0.493152,1.65184 -0.788494,2.27117 -0.488224,1.02383 -0.482541,1.20916 0.06259,2.04113 0.329766,0.50329 0.734712,0.83154 0.899887,0.72946 0.16517,-0.10208 0.391339,0.0516 0.502595,0.34154 0.227909,0.59392 1.411852,0.73802 1.215143,0.1479 -0.06952,-0.20858 -0.241505,-0.36733 -0.382175,-0.35278 -0.406615,0.0421 -1.667072,-1.34007 -1.664906,-1.82562 0.0011,-0.24254 0.170007,-1.04612 0.375394,-1.78575 0.420123,-1.51292 1.082636,-1.5832 1.237439,-0.13127 0.05627,0.52779 -0.03795,0.87292 -0.209377,0.76698 -0.171429,-0.10595 -0.485253,0.13166 -0.697382,0.52803 -0.309453,0.57821 -0.271046,0.76466 0.194292,0.94323 0.318993,0.12241 0.702868,0.0237 0.853059,-0.21929 0.217184,-0.35141 0.330991,-0.34814 0.556024,0.016 0.16516,0.26724 0.112268,0.51471 -0.127053,0.59449 -0.294929,0.0983 -0.258738,0.42916 0.128954,1.17888 0.685705,1.326 1.268018,1.02484 0.848276,-0.43871 z m -0.64256,-2.06992 c 0,-0.29104 0.136433,-0.84667 0.303188,-1.23473 0.191106,-0.44472 0.303187,-0.50993 0.303187,-0.17638 0,0.29104 -0.136433,0.84666 -0.303187,1.23472 -0.191107,0.44472 -0.303188,0.50993 -0.303188,0.17639 z m -3.237983,-1.41111 c 0.005,-0.29105 -0.228101,-0.0745 -0.517947,0.48129 -0.671007,1.2866 -0.67504,1.61318 -0.009,0.73266 0.284871,-0.37663 0.522018,-0.92291 0.526994,-1.21395 z m 4.987341,-2.921907 c 0.310324,-0.62426 1.283254,-2.367393 2.162062,-3.873609 0.878808,-1.506217 2.053657,-3.94413 2.610774,-5.417584 0.647386,-1.712203 1.565297,-3.301382 2.543518,-4.403598 1.383354,-1.558702 1.510245,-1.851995 1.319173,-3.049083 -0.116275,-0.728472 -0.04615,-1.562618 0.155829,-1.85366 0.277425,-0.39975 0.319494,-0.27033 0.172022,0.529167 -0.182273,0.988148 -0.170678,1.002005 0.174882,0.208946 0.20356,-0.467158 0.922458,-1.460771 1.597555,-2.208021 1.865545,-2.064936 3.944246,-6.901614 4.902264,-11.40648 0.19494,-0.916672 0.10196,-0.845841 -0.694659,0.529166 -0.505852,0.873125 -1.057776,1.637443 -1.226506,1.698488 -0.16873,0.06104 -0.21934,0.338853 -0.112466,0.617361 0.106871,0.278504 0.01859,0.506373 -0.196208,0.506373 -0.656149,0 -0.438146,-0.805779 0.668109,-2.469444 0.580584,-0.873125 1.152934,-2.102047 1.271891,-2.730941 0.11896,-0.628893 0.357629,-1.056086 0.530379,-0.949318 0.17276,0.106765 0.3141,-0.05035 0.3141,-0.349144 0,-0.860795 -1.447458,-1.000926 -3.904051,-0.377955 -1.248258,0.316547 -2.74581,0.667169 -3.327894,0.779159 -1.899197,0.365389 -2.602332,1.111271 -3.374111,3.579226 -0.500317,1.599883 -0.826943,3.98217 -1.030746,7.517899 -0.34011,5.900469 -0.743116,7.126704 -2.915938,8.872389 -2.076397,1.668216 -3.098737,3.670554 -3.492193,6.839761 -0.185533,1.494413 -0.638429,3.803657 -1.006436,5.131654 -0.625034,2.255508 -0.629596,2.426928 -0.06929,2.602598 0.329904,0.10343 0.917321,0.32279 1.305377,0.48749 1.012722,0.429787 1.003575,0.434357 1.622559,-0.81084 z m -0.740615,-2.172547 c 0,-0.27959 0.143944,-0.597309 0.319878,-0.706042 0.175934,-0.108733 0.236791,0.120022 0.135244,0.508346 -0.215409,0.823732 -0.455122,0.927858 -0.455122,0.197696 z M 72.27275,95.91285 c 0,-0.507376 2.636036,-5.559062 3.100966,-5.942676 0.297854,-0.245759 0.469353,-0.288082 0.381116,-0.09405 -1.7194,3.780751 -3.482082,6.836639 -3.482082,6.03673 z m 1.58611,-0.621673 c 0.755964,-1.383717 2.506465,-3.826284 2.742586,-3.826876 0.149465,-3.53e-4 -0.05506,0.639924 -0.454498,1.42289 -0.399439,0.782966 -0.877097,1.330343 -1.061462,1.216399 -0.184365,-0.113944 -0.24534,0.02702 -0.135502,0.313263 0.120371,0.313679 -0.10837,0.685313 -0.575779,0.935464 -0.6316,0.338021 -0.72722,0.326676 -0.515345,-0.06114 z m 3.339493,-5.79163 c 0.179952,-0.568995 0.541863,-1.714958 0.804256,-2.546582 0.262389,-0.831625 0.579811,-1.409305 0.705382,-1.283734 0.125572,0.125571 -0.09997,1.123491 -0.501198,2.2176 -0.77119,2.10295 -1.564919,3.372298 -1.00844,1.612716 z m -1.04249,-1.930467 c 0.143326,-0.783801 0.38294,-1.537864 0.532472,-1.675694 0.149529,-0.13783 0.169693,0.285182 0.04481,0.940026 -0.124883,0.654843 -0.227062,1.408906 -0.227062,1.675694 0,0.266788 -0.137435,0.485069 -0.30541,0.485069 -0.167975,0 -0.18814,-0.641293 -0.04481,-1.425095 z m 3.877998,-2.918625 c 0,-0.06071 0.500803,-0.576651 1.112894,-1.146528 1.07962,-1.005163 1.087924,-0.611544 0.01351,0.639554 -0.460223,0.535877 -1.126405,0.835717 -1.126405,0.506974 z m -1.283032,-1.831979 c 0.292192,-0.292192 0.63173,-0.847817 0.754528,-1.234722 0.122799,-0.386906 0.371324,-0.703467 0.552278,-0.703467 0.603867,0 0.338617,0.926313 -0.487483,1.702396 -0.911729,0.856523 -1.65354,1.070014 -0.819323,0.235793 z m 2.791302,-3.614529 c 0.307608,-0.339905 0.728789,-1.06383 0.935958,-1.608727 0.207172,-0.544897 0.511429,-0.907439 0.676127,-0.805649 0.536599,0.331636 2.084712,-1.686754 2.747564,-3.582201 0.356228,-1.018645 0.769175,-1.852083 0.917663,-1.852083 0.389174,0 0.341214,0.31321 -0.322301,2.104873 -0.764018,2.063038 -1.60563,3.275023 -2.669611,3.844449 -0.468591,0.250783 -1.125964,0.919776 -1.460828,1.486655 -0.334864,0.566879 -0.783223,1.03069 -0.99635,1.03069 -0.216123,0 -0.140149,-0.273333 0.171778,-0.618007 z M 71.200305,92.412906 c 0.465741,-3.641721 1.285699,-5.376785 3.836991,-8.119233 2.384439,-2.563093 2.376756,-2.536232 2.662421,-9.306899 0.115655,-2.741171 0.407744,-4.701356 0.952666,-6.393289 0.477573,-1.482806 0.680886,-2.699864 0.518255,-3.10232 -0.514463,-1.273133 -2.644235,5.501692 -3.053489,9.713178 -0.551991,5.680354 -0.564787,5.726941 -2.291609,8.343741 -2.966798,4.495832 -2.915864,4.33481 -3.983828,12.595165 -0.144621,1.118587 -0.175623,2.121115 -0.0689,2.227841 0.284832,0.284833 1.023214,-2.797084 1.42749,-5.958184 z M 83.208861,63.94585 c 0,-0.556246 -0.616744,-0.707365 -1.000375,-0.245117 -0.28163,0.33934 -0.203892,0.464435 0.312804,0.503357 0.378164,0.02847 0.687571,-0.08772 0.687571,-0.25824 z m -3.992347,-0.770597 c -0.112614,-0.281422 -0.196208,-0.197831 -0.213135,0.213137 -0.01531,0.371885 0.06806,0.580246 0.185286,0.463021 0.117225,-0.117228 0.129756,-0.421499 0.02783,-0.676158 z m 1.784547,-0.33062 c -0.825433,-0.461938 -0.911966,-4.542123 -0.09633,-4.542123 0.315592,0 0.438725,-0.20683 0.315034,-0.529167 -0.286935,-0.747733 -0.745218,-0.656357 -1.017958,0.202974 -0.127804,0.402679 -0.310112,0.6544 -0.405133,0.559382 -0.09502,-0.09502 -0.0073,-0.481926 0.194931,-0.859797 0.265638,-0.496351 0.245113,-0.854671 -0.07395,-1.291014 -0.389502,-0.532677 -0.453753,-0.465551 -0.544273,0.568628 -0.05645,0.644934 -0.141502,1.555538 -0.189011,2.023565 -0.162246,1.598422 1.582544,5.059958 2.226095,4.416411 0.112755,-0.112759 -0.07148,-0.359742 -0.409413,-0.548859 z m 2.913356,0.396766 c 0,-0.194028 -0.16812,-0.352778 -0.373599,-0.352778 -0.205479,0 -0.275484,0.15875 -0.155568,0.352778 0.119916,0.194027 0.288036,0.352777 0.373599,0.352777 0.08556,0 0.155568,-0.15875 0.155568,-0.352777 z m 1.949827,-0.01545 c 0.125169,-0.20253 0.03013,-0.606132 -0.211173,-0.896899 -0.350869,-0.422769 -0.346586,-0.613995 0.02138,-0.954683 0.360831,-0.334081 0.406407,-0.330857 0.211172,0.01496 -0.390613,0.691865 0.195436,0.517003 1.092857,-0.326076 0.449068,-0.42188 0.816486,-1.032273 0.816486,-1.356437 0,-0.752754 -1.26299,-1.929359 -1.55823,-1.451649 -0.119443,0.193259 -0.05583,0.451097 0.141365,0.572968 0.197192,0.12187 0.355001,0.410654 0.350686,0.641738 -0.0078,0.417717 -1.103828,-0.788836 -1.774243,-1.953158 -0.269377,-0.467833 -0.23664,-0.565577 0.140903,-0.420698 0.270492,0.103798 0.586684,-0.05853 0.702645,-0.360719 0.275756,-0.718601 -0.595214,-0.722644 -1.190367,-0.0055 -0.374802,0.451609 -0.316989,0.725735 0.340645,1.615232 0.435632,0.589224 0.698705,1.164671 0.584606,1.27877 -0.114099,0.114099 -0.225711,-0.01746 -0.248024,-0.292315 -0.02229,-0.274874 -0.165132,0.13523 -0.317373,0.911342 -0.210862,1.074959 -0.14569,1.558692 0.273594,2.030634 0.302715,0.340738 0.468157,0.701763 0.367643,0.802277 -0.100513,0.100513 -0.383561,-0.05921 -0.628995,-0.35494 -0.653602,-0.787542 -1.145643,-0.656594 -0.630764,0.167862 0.479941,0.768505 1.155715,0.918954 1.515181,0.337326 z m 0.343228,-2.806771 c -0.119916,-0.194027 -0.04991,-0.352777 0.155568,-0.352777 0.205479,0 0.373599,0.15875 0.373599,0.352777 0,0.194028 -0.07,0.352778 -0.155568,0.352778 -0.08556,0 -0.253683,-0.15875 -0.373599,-0.352778 z m 1.299397,1.687453 c -0.253139,-0.253139 -0.417452,-0.273967 -0.417452,-0.05292 0,0.200498 0.105833,0.470373 0.235186,0.599722 0.12935,0.129353 0.317204,0.153166 0.417453,0.05292 0.100248,-0.100245 -0.0056,-0.37012 -0.235187,-0.599722 z m 1.207612,-0.275449 c -0.02067,-0.581589 -0.196314,-1.004923 -0.390342,-0.940738 -0.314509,0.104037 -0.365548,0.484914 -0.220486,1.645401 0.107907,0.863265 0.644535,0.2442 0.610828,-0.704663 z m 1.129028,-0.186616 c -0.10862,-0.108617 -0.30588,0.08717 -0.43836,0.435092 -0.191442,0.502778 -0.150922,0.543298 0.19749,0.197485 0.24109,-0.239304 0.34948,-0.52396 0.24087,-0.632577 z m -8.276102,-1.331771 c 0.141429,-1.079938 0.09551,-1.615814 -0.126689,-1.478485 -0.191689,0.118467 -0.348524,0.946863 -0.348524,1.840872 0,2.008629 0.182976,1.869094 0.475213,-0.362387 z m 8.892622,0.424349 c -0.28642,-0.659952 -0.52699,-1.008941 -0.53458,-0.775536 -0.017,0.521864 0.75881,2.271988 0.93085,2.099941 0.0685,-0.06847 -0.10984,-0.664456 -0.39627,-1.324405 z m -7.655536,0.273364 c 0.283782,-0.341937 0.271731,-0.592035 -0.045,-0.933866 -0.347433,-0.374968 -0.322125,-0.428346 0.128577,-0.271191 0.308638,0.107618 0.774679,0.06371 1.03565,-0.09758 0.391587,-0.242016 0.393859,-0.390409 0.01302,-0.849306 -0.253827,-0.30583 -0.608905,-0.556055 -0.789075,-0.556055 -0.328366,0 -1.349915,2.127147 -1.349915,2.810891 0,0.509485 0.544717,0.45381 1.006743,-0.102895 z m 8.406466,-0.657475 c -0.11261,-0.281422 -0.19621,-0.197831 -0.21313,0.213137 -0.0153,0.371885 0.068,0.580246 0.18528,0.463021 0.11723,-0.117228 0.12976,-0.421499 0.0278,-0.676158 z m -2.046652,-0.551216 c -0.110578,-0.700316 0.07664,-1.166618 0.390512,-0.972636 0.19998,0.123592 0.25912,-0.01803 0.13865,-0.331957 -0.26297,-0.685281 -0.840163,-0.717691 -0.840163,-0.04718 0,0.275174 -0.09636,0.751424 -0.214133,1.058333 -0.117771,0.306913 -0.0384,0.558021 0.176389,0.558021 0.214789,0 0.371722,-0.119063 0.348745,-0.264584 z m 0.08079,-4.192153 c 0.227872,-0.27456 0.324012,-0.589495 0.213662,-0.699851 -0.243493,-0.243484 -1.493523,2.026334 -1.364924,2.478426 0.05014,0.176248 -0.09631,0.436312 -0.325441,0.57792 -0.250219,0.154644 -0.298736,0.448169 -0.121487,0.734967 0.205987,0.33329 0.42932,0.01393 0.7395,-1.057381 0.244415,-0.844183 0.630823,-1.759518 0.85869,-2.034081 z m -4.850332,2.516459 c -0.2147,-0.559499 -0.83313,-0.734074 -0.83313,-0.235186 0,0.373069 0.385618,0.764353 0.753279,0.764353 0.1556,0 0.191534,-0.238125 0.07985,-0.529167 z m 2.177983,-1.346994 c 0.0194,-0.442916 0.161488,-1.009554 0.315775,-1.259198 0.452526,-0.732197 -0.266022,-1.09687 -1.033833,-0.524682 -0.660865,0.492488 -0.66645,0.547955 -0.08819,0.875724 0.766226,0.434312 0.800816,1.227321 0.06584,1.50936 -0.303339,0.116403 -0.444172,0.385343 -0.312959,0.597648 0.345743,0.559428 1.009473,-0.195965 1.053376,-1.198852 z m 3.384601,0.10988 c -0.19533,-0.951167 -0.30859,-1.088295 -0.49645,-0.601024 -0.13386,0.347222 -0.0535,0.935313 0.17852,1.306872 0.56046,0.897446 0.62001,0.765239 0.31793,-0.705848 z m -7.733751,-1.476756 c -0.295211,-0.295211 -0.425852,-0.304835 -0.425852,-0.03137 0,0.216966 -0.101914,0.685278 -0.226473,1.040695 -0.215695,0.615463 -0.195432,0.616955 0.425852,0.03136 0.50951,-0.480229 0.559093,-0.708075 0.226473,-1.040695 z m 1.18738,1.209163 c 0.504391,-0.345376 0.914114,-1.493904 0.532937,-1.493904 -0.165625,0 -0.561177,0.396875 -0.879005,0.881944 -0.564512,0.861554 -0.412084,1.131098 0.346068,0.61196 z m -3.136135,-1.56005 c -0.112614,-0.281421 -0.196208,-0.197831 -0.213134,0.213138 -0.01531,0.371884 0.06806,0.580245 0.185286,0.463021 0.117224,-0.117228 0.129755,-0.421499 0.02783,-0.676159 z m 5.756236,-0.856943 c 0,-0.268411 -0.15875,-0.488022 -0.352777,-0.488022 -0.194028,0 -0.352778,0.15875 -0.352778,0.352778 0,0.194027 -0.247495,0.352777 -0.549988,0.352777 -0.302493,0 -0.461084,0.143846 -0.352425,0.319659 0.291253,0.471262 1.607968,0.03136 1.607968,-0.537192 z m 2.163354,-0.135244 c 0.191251,0 0.239105,-0.175758 0.106345,-0.390571 -0.162437,-0.26283 0.0038,-0.312745 0.508345,-0.152619 0.551056,0.1749 0.749736,0.08849 0.749736,-0.326055 0,-0.310204 -0.23812,-0.655387 -0.529168,-0.767069 -0.291042,-0.111686 -0.529167,-0.443639 -0.529167,-0.73768 0,-0.39498 -0.118198,-0.436523 -0.452533,-0.159049 -0.248892,0.206561 -0.902014,0.546459 -1.451377,0.755328 -0.843908,0.320852 -0.966957,0.296655 -0.793263,-0.155984 0.113072,-0.294661 0.07033,-0.535746 -0.09497,-0.535746 -0.165308,0 -0.387766,0.333474 -0.494351,0.741052 -0.123331,0.471618 -0.350503,0.644194 -0.624819,0.474659 -0.261913,-0.161872 -0.340297,-0.119584 -0.199782,0.107774 0.127184,0.205793 0.516989,0.299445 0.866229,0.208114 0.419287,-0.109647 0.928458,0.217396 1.498952,0.962784 0.656273,0.857458 0.891396,0.990148 0.978034,0.551949 0.06274,-0.317289 0.270542,-0.576887 0.461794,-0.576887 z M 87.44219,53.024755 c 0,-0.395707 0.149381,-0.719465 0.331957,-0.719465 0.584098,0 0.667893,0.514773 0.160183,0.984049 -0.40882,0.377871 -0.49214,0.333075 -0.49214,-0.264584 z m 3.175009,1.749979 c 0,-0.194028 0.26458,-0.352778 0.58796,-0.352778 0.32338,0 0.49409,-0.09387 0.37936,-0.208601 -0.29429,-0.29429 -1.67288,0.187918 -1.67288,0.585153 0,0.18095 0.15875,0.329004 0.35278,0.329004 0.19403,0 0.35278,-0.15875 0.35278,-0.352778 z m -7.408338,-0.978487 c 0,-0.30262 -0.04492,-0.484071 -0.09983,-0.403229 -0.0549,0.08085 -0.315482,0.428438 -0.579063,0.772428 -0.417227,0.544506 -0.404308,0.596685 0.09982,0.403229 0.318485,-0.122213 0.579064,-0.469805 0.579064,-0.772428 z m 8.113888,-0.961793 c 0,-0.291041 -0.14938,-0.529166 -0.33196,-0.529166 -0.44484,0 -0.76344,0.550894 -0.4816,0.832739 0.3973,0.397291 0.81356,0.241967 0.81356,-0.303573 z m -7.67704,-0.516946 c 0.345349,-0.403334 0.450875,-0.781579 0.2523,-0.904303 -0.187745,-0.116033 -0.436591,0.03722 -0.552993,0.340557 -0.116403,0.30334 -0.442151,0.551526 -0.723886,0.551526 -0.281732,0 -0.41413,0.15875 -0.294213,0.352778 0.321708,0.520537 0.655249,0.434403 1.318792,-0.340558 z M 82.808501,51.31835 c 0.266396,-0.251774 0.414196,-0.527932 0.328446,-0.613682 -0.08575,-0.08575 -0.620589,0.352309 -1.188526,0.973466 -0.932861,1.020268 -0.335897,0.770551 0.86008,-0.359784 z m 6.985548,0.412506 c 0,-0.565256 -1.332348,-2.24779 -1.779952,-2.24779 -0.126023,0 0.191089,0.635 0.704694,1.411111 1.062728,1.605894 1.075258,1.615641 1.075258,0.836679 z m -5.379905,-1.315353 c -0.12234,-0.318812 -0.365548,-0.57966 -0.540459,-0.57966 -0.174914,0 -0.124252,0.310279 0.112582,0.689512 0.499353,0.799588 0.751974,0.73473 0.427877,-0.109852 z m 1.25663,-0.231538 c -0.239603,-0.148079 -0.326556,-0.445735 -0.193234,-0.661459 0.133321,-0.21572 0.07429,-0.392218 -0.131191,-0.392218 -0.404358,0 -0.516463,1.150655 -0.148005,1.519114 0.124076,0.124075 0.379152,0.13069 0.56683,0.01471 0.204046,-0.126108 0.166094,-0.319137 -0.0944,-0.480134 z m 4.363725,-0.489296 c -0.67823,-0.930956 -1.181193,-1.171275 -1.181193,-0.564381 0,0.194028 0.15875,0.352778 0.352777,0.352778 0.194026,0 0.352776,0.224896 0.352776,0.499769 0,0.274871 0.19844,0.57064 0.44097,0.657257 0.71725,0.256159 0.72649,0.0042 0.0347,-0.945423 z m -3.136538,-0.23598 c -0.11163,-0.180619 0.0539,-0.328401 0.367845,-0.328401 0.313944,0 0.481905,-0.143845 0.373246,-0.319659 -0.170653,-0.276126 -1.607969,-0.137072 -1.607969,0.155561 0,0.50783 0.491885,1.178098 0.748277,1.01964 0.176862,-0.109308 0.230234,-0.346519 0.118601,-0.527141 z m 4.939498,-1.474929 c -0.31593,-1.467037 -1.10643,-3.04843 -2.02727,-4.055554 -0.39846,-0.435797 -0.616365,-0.900472 -0.48422,-1.032612 0.39607,-0.396075 2.30103,1.673761 2.45429,2.66671 0.10252,0.664193 0.15712,0.542329 0.19519,-0.435645 0.0615,-1.579227 -0.80886,-3.62743 -1.75702,-4.134869 -0.68103,-0.36448 -0.78557,-0.237857 -0.67761,0.820765 0.0348,0.340872 -0.18981,0.716859 -0.499056,0.83553 -0.349331,0.134048 -0.486047,0.455891 -0.361008,0.849848 0.240665,0.758271 -0.390836,1.246258 -0.989429,0.764572 -0.234036,-0.188327 -0.981145,-0.458918 -1.660243,-0.601317 -0.679097,-0.142395 -1.631597,-0.48654 -2.116666,-0.764765 -0.839347,-0.481429 -0.805269,-0.495586 0.705555,-0.293169 0.873125,0.116981 1.939103,0.442796 2.36884,0.72403 0.987393,0.646187 1.286721,0.647615 1.040112,0.005 -0.106874,-0.278507 -0.0048,-0.577525 0.22684,-0.664485 0.28298,-0.106235 0.24754,-0.212947 -0.108014,-0.325254 -0.291042,-0.09193 -1.450291,-0.456522 -2.576114,-0.810203 -1.12582,-0.353685 -2.127377,-0.773201 -2.225678,-0.932261 -0.285616,-0.462136 1.124944,-0.334286 2.215564,0.200815 0.5493,0.269508 1.521848,0.655306 2.161215,0.857324 1.06093,0.33522 1.143932,0.30885 0.950095,-0.301876 -0.161686,-0.509421 0.0028,-0.723229 0.689597,-0.895568 0.49609,-0.12452 0.90199,-0.298997 0.90199,-0.387731 0,-0.544693 -0.81539,-1.526064 -1.267956,-1.526064 -0.295667,0 -0.432774,-0.169573 -0.304684,-0.376827 0.128094,-0.207257 0.441921,-0.296615 0.6974,-0.198578 0.73033,0.28025 -0.366575,-2.600611 -1.424679,-3.741731 -0.481295,-0.519056 -0.875083,-1.169948 -0.875083,-1.446431 0,-0.805183 -4.911884,-4.11421 -6.107092,-4.11421 -0.60869,0 -1.001462,1.253507 -0.730747,2.332129 0.105727,0.421245 0.0206,0.87196 -0.189131,1.001592 -0.432199,0.267113 -0.534487,-0.526309 -0.408803,-3.170982 0.06067,-1.276664 -0.168282,-2.349073 -0.812528,-3.805823 -0.493349,-1.115553 -0.99573,-2.554559 -1.116401,-3.197785 -0.120671,-0.643227 -0.534434,-1.629357 -0.919469,-2.191399 l -0.700074,-1.021899 0.23356,1.852083 c 0.145683,1.155242 0.100828,1.852084 -0.119217,1.852084 -0.517988,0 -0.960078,-3.641396 -0.462238,-3.807342 0.854011,-0.284671 0.353215,-1.091405 -0.7505,-1.20898 L 73.86025,17.180746 74.838569,16.691011 75.816886,16.201276 74.994931,15.29149 C 74.542857,14.791082 73.719745,13.746678 73.165792,12.970567 72.61184,12.194456 71.730675,11.162581 71.207646,10.677512 69.038098,8.6654238 66.113079,6.2822392 65.682668,6.1759911 65.429019,6.1133769 64.744271,5.9713362 64.161007,5.8603449 63.577743,5.7493536 63.100527,5.5178108 63.100527,5.3458051 c 0,-0.1720059 -0.241528,-0.3127378 -0.53673,-0.3127378 -0.295201,0 -0.717558,-0.396875 -0.93857,-0.8819444 -0.713358,-1.5656499 -1.598426,-0.8838262 -0.976413,0.7521927 0.294083,0.7734963 0.443533,0.8778004 0.688898,0.4807924 0.172337,-0.2788479 0.423836,-0.3965007 0.558887,-0.2614507 0.13505,0.1350504 -0.134131,0.5617341 -0.59818,0.9481859 l -0.843725,0.7026394 0.926041,0.011737 c 3.101172,0.039304 4.462939,1.1241443 6.623091,5.2762284 1.414659,2.719155 1.987457,3.424619 4.357118,5.366285 0.727604,0.596189 1.318091,1.345347 1.312189,1.664795 -0.0098,0.532712 -0.03838,0.533488 -0.344604,0.0094 -0.183632,-0.314288 -0.774118,-0.852074 -1.312189,-1.19508 l -0.978313,-0.623648 0.990149,1.05888 c 0.740674,0.792089 1.066937,1.602155 1.294927,3.2151 0.217847,1.541212 0.629395,2.608242 1.442875,3.740997 0.625955,0.871622 1.274671,1.500364 1.441595,1.397201 0.16692,-0.103163 0.398731,0.06062 0.515133,0.363957 0.116403,0.30334 0.432781,0.551526 0.703065,0.551526 0.270281,0 0.491423,0.15875 0.491423,0.352778 0,0.61456 -1.230097,0.381053 -1.858423,-0.352778 -0.917889,-1.072018 -1.316577,-0.853053 -1.316577,0.723074 0,1.5361 0.660742,3.091352 1.98991,4.683855 1.328967,1.592252 0.950606,1.972306 -0.412058,0.413903 -1.769767,-2.023981 -2.369199,-3.560878 -2.183144,-5.597397 0.123556,-1.352409 -0.02265,-2.038008 -0.688803,-3.229878 -0.465109,-0.832171 -1.078586,-1.602423 -1.363278,-1.711671 -0.730867,-0.280458 -0.64263,0.262301 0.160853,0.989443 0.512808,0.464086 0.630749,0.908145 0.483009,1.818566 -0.107509,0.662502 -0.05564,1.204549 0.11527,1.204549 0.170907,0 0.326507,0.595312 0.345772,1.322916 0.01926,0.727604 0.150114,1.719792 0.290766,2.204861 0.246028,0.848463 0.234654,0.855949 -0.299614,0.197157 -0.522305,-0.644041 -0.55535,-0.578393 -0.55535,1.103334 0,1.103446 0.189364,1.945276 0.494556,2.19856 0.272002,0.225746 0.600826,0.840497 0.730716,1.366115 0.251689,1.018497 1.897288,2.969997 2.296428,2.723313 0.395524,-0.244446 2.666273,3.05525 3.316393,4.819149 0.334056,0.90635 0.87683,1.85885 1.206169,2.116667 0.516791,0.404565 0.542847,0.396293 0.190281,-0.06041 -0.224684,-0.291042 -0.734116,-1.457657 -1.132074,-2.592483 -0.397959,-1.134822 -1.246001,-2.755364 -1.884543,-3.601201 -1.183576,-1.567819 -2.173637,-2.318537 -1.810826,-1.373071 0.10789,0.28116 0.105392,0.511199 -0.0056,0.511199 -0.320869,0 -1.039442,-1.505136 -1.135249,-2.377912 -0.129068,-1.17577 0.874074,-1.001723 1.302025,0.225905 0.400734,1.149547 0.826153,1.317466 3.227123,1.273799 1.021588,-0.01859 1.628944,0.112977 1.549492,0.335629 -0.07187,0.201405 -0.822227,0.3198 -1.667454,0.263105 l -1.536781,-0.103085 0.737588,0.808641 c 0.405673,0.44475 0.940025,1.439778 1.18745,2.211169 0.247424,0.771387 0.833095,1.703976 1.301489,2.072414 1.002185,0.78832 2.70933,3.381371 2.417963,3.672741 -0.111022,0.111019 -0.248147,0.135706 -0.304722,0.05486 -0.05658,-0.08085 -0.544721,-0.836246 -1.08476,-1.678668 -0.540043,-0.84242 -1.03971,-1.473857 -1.110375,-1.403195 -0.07067,0.07066 0.334546,1.077418 0.900469,2.237232 0.565919,1.159813 1.032503,2.307187 1.036849,2.549722 0.0043,0.242535 0.285718,0.438542 0.625267,0.435571 0.423675,-0.0037 0.483429,-0.09052 0.190461,-0.276708 -0.307481,-0.195411 -0.231122,-0.393569 0.272976,-0.708381 0.639784,-0.399553 0.685645,-0.358606 0.53413,0.476941 -0.156676,0.86402 -0.104062,0.900815 0.961746,0.672578 0.62012,-0.132796 1.183076,-0.291719 1.251014,-0.353155 0.257556,-0.232915 -0.363284,-0.864207 -0.849881,-0.864207 -0.27959,0 -0.508345,-0.15875 -0.508345,-0.352778 0,-0.523218 0.743779,-0.427538 1.417725,0.182376 0.325237,0.294333 1.386833,0.7415 2.359103,0.993704 1.716069,0.445146 1.762639,0.437237 1.592739,-0.27057 -0.0963,-0.401016 -0.55813,-1.245058 -1.02637,-1.875649 -0.468226,-0.63059 -0.696018,-1.146527 -0.506199,-1.146527 0.514239,0 1.791559,1.747537 2.040269,2.791347 0.42821,1.797138 1.01709,2.071281 0.63466,0.295458 z m -4.042487,-1.665831 c -0.485069,-0.374 -1.440815,-0.77514 -2.123884,-0.891427 -1.550843,-0.264011 -2.644927,-0.869773 -1.580283,-0.874955 1.336845,-0.0065 3.352557,0.733079 4.320946,1.585404 1.151638,1.013608 0.652918,1.159947 -0.616779,0.180978 z m -6.702778,-6.88903 c -0.779092,-0.445367 -0.799662,-0.504165 -0.176389,-0.504165 0.388056,0 1.102431,0.226875 1.5875,0.504165 0.779093,0.445368 0.799663,0.504166 0.176389,0.504166 -0.388055,0 -1.10243,-0.226875 -1.5875,-0.504166 z m 2.008975,-0.653743 c -0.175634,-0.457694 1.758509,-2.697645 2.329349,-2.697645 0.599362,0 0.145563,0.973952 -0.94942,2.037665 -0.881296,0.856128 -1.239009,1.027211 -1.379929,0.65998 z M 81.901978,37.37308 c 0.427743,-0.451605 1.219017,-1.346454 1.758382,-1.988548 0.539366,-0.642098 1.092616,-1.055497 1.229452,-0.918665 0.136832,0.136835 -0.08889,0.515743 -0.501608,0.84202 -0.412715,0.326281 -1.009734,1.109172 -1.326705,1.739762 -0.350887,0.698059 -0.842476,1.146528 -1.256775,1.146528 -0.644239,0 -0.63906,-0.04371 0.09725,-0.821097 z M 77.03525,35.724733 c -0.119916,-0.194028 0.113823,-0.352778 0.519419,-0.352778 0.405596,0 0.828823,-0.238125 0.940506,-0.529167 0.111686,-0.291041 0.407218,-0.529166 0.656741,-0.529166 0.249524,0 0.545056,-0.238125 0.656742,-0.529167 0.111683,-0.291042 0.372378,-0.529167 0.579321,-0.529167 0.674367,0 -0.329244,1.406243 -1.52316,2.134225 -1.283512,0.782613 -1.525644,0.826978 -1.829569,0.33522 z m 8.155443,-1.626154 c -0.440172,-1.064232 -1.255254,-2.042036 -2.536064,-3.042362 -2.052217,-1.602804 -2.300414,-2.196607 -0.434463,-1.039443 1.656955,1.027557 3.300279,2.872127 3.742538,4.200857 0.581978,1.748508 -0.0392,1.652718 -0.772011,-0.119052 z M 73.507472,33.960844 c -0.119916,-0.194028 0.02946,-0.352778 0.331957,-0.352778 0.302493,0 0.549987,0.15875 0.549987,0.352778 0,0.194028 -0.14938,0.352778 -0.331957,0.352778 -0.182576,0 -0.430071,-0.15875 -0.549987,-0.352778 z m 1.738136,-0.183963 c 0.724987,-0.548485 1.130106,-0.461306 0.745815,0.160493 -0.127896,0.206936 -0.50098,0.3712 -0.829078,0.365029 -0.523751,-0.0098 -0.513591,-0.07398 0.08326,-0.525522 z m -1.692437,-1.05888 c -0.326041,-0.849651 0.154749,-1.448678 0.568843,-0.708738 0.21922,0.391721 0.218514,0.730469 -0.0021,0.950959 -0.221471,0.22147 -0.421778,0.135879 -0.566868,-0.242221 z m 3.30569,-0.509976 c 0,-0.187935 0.221654,-0.256649 0.492566,-0.152689 0.271896,0.104338 0.746026,-0.172854 1.058333,-0.618733 0.564565,-0.806034 0.757238,-0.501873 0.351635,0.55511 -0.229246,0.597401 -1.902534,0.78765 -1.902534,0.216312 z m 0.758472,-5.285097 c 0.07761,-0.232834 0.256205,-0.411428 0.396875,-0.396875 0.421816,0.04363 0.340127,0.527505 -0.114653,0.679097 -0.232833,0.07761 -0.359833,-0.04939 -0.282222,-0.282222 z m -2.104549,-2.792201 c -1.000019,-0.634132 -2.281385,-4.280994 -1.504177,-4.280994 0.209448,0 0.381402,0.357188 0.382129,0.79375 0.0018,1.152419 1.334653,3.191126 1.935399,2.9606 0.327254,-0.125582 0.429849,-0.01619 0.300626,0.320562 -0.223326,0.581984 -0.453912,0.624642 -1.113977,0.206082 z m -3.47448,-7.90225 c -1.679762,-1.794686 -3.061134,-3.78409 -2.805229,-4.039993 0.253153,-0.253155 3.74523,3.032336 3.74523,3.523669 0,0.164266 -0.198437,0.182633 -0.440972,0.04082 -0.242535,-0.141817 -0.137675,0.08791 0.233024,0.510509 1.091283,1.244074 0.435783,1.212732 -0.732053,-0.035 z M 67.951732,10.267883 C 67.440241,9.3950898 66.774474,8.4757658 66.472249,8.2249416 65.779846,7.6502984 65.756425,7.1080528 66.435259,7.3685457 c 0.683029,0.262103 2.763939,3.5337863 2.586393,4.0664233 -0.07697,0.230896 -0.558429,-0.294292 -1.06992,-1.167086 z M 60.856287,4.5039006 C 60.744603,4.212859 60.806997,3.974734 60.994932,3.974734 c 0.187938,0 0.341706,0.238125 0.341706,0.5291666 0,0.2910417 -0.06239,0.5291667 -0.138645,0.5291667 -0.07626,0 -0.230023,-0.238125 -0.341706,-0.5291667 z M 90.793069,38.655526 c -0.31546,-0.544784 -0.4834,-0.697953 -0.37321,-0.340381 0.11019,0.357575 0.31145,1.07195 0.44724,1.5875 0.17331,0.657965 0.28455,0.759421 0.37322,0.340381 0.0695,-0.328341 -0.13179,-1.042716 -0.44725,-1.5875 z M 71.835873,28.580983 c -0.838482,-1.763677 -1.361034,0.534109 -0.556366,2.446479 l 0.417869,0.993104 0.216002,-1.411111 c 0.118798,-0.776111 0.08392,-1.688923 -0.07751,-2.028472 z m 0.0841,-1.322917 c -0.447432,-0.388055 -0.893202,-0.705555 -0.9906,-0.705555 -0.0974,0 0.110246,0.3175 0.461433,0.705555 0.351187,0.388056 0.796957,0.705556 0.9906,0.705556 0.193643,0 -0.014,-0.3175 -0.461433,-0.705556 z m -1.217965,-2.939295 c 0.0092,-1.098807 0.207655,-2.188728 0.440972,-2.422045 0.23332,-0.23332 0.419167,-0.749652 0.412997,-1.147409 -0.01044,-0.673002 -0.04347,-0.680727 -0.475855,-0.111316 -0.255549,0.336533 -0.540311,0.536198 -0.632809,0.443703 -0.09249,-0.09249 -0.15354,0.902158 -0.135658,2.210343 0.01789,1.308185 -0.128866,2.602773 -0.326111,2.87686 -0.270887,0.376421 -0.229164,0.455447 0.17054,0.323021 0.384574,-0.127416 0.533746,-0.721226 0.545924,-2.173157 z m -1.30398,-2.863899 c -0.168268,-0.187801 -0.278441,0.665201 -0.250606,1.940278 l 0.04967,2.275417 0.250606,-1.940278 c 0.13783,-1.067153 0.115482,-2.09109 -0.04967,-2.275417 z m 2.661994,2.922175 c -0.09993,-0.161689 -0.331071,-0.29398 -0.513648,-0.29398 -0.182577,0 -0.331957,0.132291 -0.331957,0.29398 0,0.161692 0.231144,0.293984 0.513648,0.293984 0.282508,0 0.431888,-0.132292 0.331957,-0.293984 z m 0.668761,-2.406678 c -0.100909,-0.385876 -0.331879,-0.609865 -0.513271,-0.497759 -0.194609,0.120276 -0.160464,0.407864 0.08331,0.701587 0.556483,0.670521 0.647348,0.627443 0.429966,-0.203828 z m -0.104574,-1.326886 c -0.0025,-0.474482 -1.391236,-2.557638 -1.705215,-2.557638 -0.551028,0 -2.644963,1.575205 -2.813704,2.116666 -0.0907,0.291042 0.24667,0.0926 0.749711,-0.440972 1.22924,-1.303864 2.291595,-1.269979 2.765054,0.08819 0.328937,0.943582 1.007576,1.480023 1.004154,0.79375 z m -3.067967,-2.667594 0.891921,-0.462734 -1.044392,-1.555058 c -0.574414,-0.855282 -1.235442,-1.676496 -1.468954,-1.82492 -0.233512,-0.148424 -0.303508,-0.272292 -0.155548,-0.275264 0.401855,-0.0081 -2.028839,-4.6762662 -2.78774,-5.3539122 -0.761333,-0.6798179 -4.249383,-1.3252188 -3.873287,-0.7166825 0.129163,0.2089912 0.940402,0.4857888 1.802753,0.6151065 1.930796,0.289541 2.238248,0.648446 3.227015,3.7670662 0.655755,2.068283 2.300724,6.242016 2.468443,6.263111 0.02633,0.0033 0.449234,-0.20221 0.939789,-0.456713 z M 49.672639,-1.5815157 c -1.44956,-1.1156598 -3.228145,-2.5047223 -3.952412,-3.0868056 -0.724266,-0.5820833 -1.379573,-0.9789583 -1.456237,-0.8819444 -0.226872,0.2870944 -1.624575,-1.1257512 -1.624575,-1.6421763 0,-0.5244224 -1.257093,-0.6563215 -1.561466,-0.1638349 -0.349111,0.5648717 -2.124917,0.6908768 -3.229907,0.2291828 -1.596375,-0.6670082 -2.61696,-2.1448898 -2.61696,-3.7895499 0,-3.189518 3.915162,-4.673027 6.421829,-2.43332 1.039334,0.928644 1.138739,1.196533 1.11269,2.998611 -0.01573,1.0883761 0.0685,1.9910113 0.187188,2.0058566 0.994534,0.1243968 1.565547,0.3755968 2.575513,1.1330184 0.642432,0.48179 2.098611,1.3955504 3.235954,2.0305779 2.451618,1.3688441 4.790094,3.723222 4.80245,4.83510653 0.01439,1.2946538 -1.043515,0.9592165 -3.894067,-1.23472213 z m 2.840187,1.05833323 C 52.510426,-0.66870334 51.915112,-1.1544818 51.18991,-1.6026905 l -1.31855,-0.8149244 1.234722,1.0700176 c 1.356358,1.17542833 1.413087,1.20867373 1.406744,0.82441483 z M 50.753305,-3.0808213 c 0,-0.1940278 -0.168119,-0.3527778 -0.373598,-0.3527778 -0.205479,0 -0.275485,0.15875 -0.155569,0.3527778 0.119916,0.1940277 0.288034,0.3527777 0.373598,0.3527777 0.08556,0 0.155569,-0.15875 0.155569,-0.3527777 z m -1.411112,-0.8695323 c 0,-0.090187 -0.357187,-0.3543028 -0.79375,-0.5869234 -0.719745,-0.3835132 -0.748609,-0.3682249 -0.309582,0.1639767 0.450789,0.5464595 1.103332,0.7966029 1.103332,0.4229467 z m -8.180409,-4.4358767 c 1.228574,-1.1445906 1.064268,-3.2054527 -0.350469,-4.3958747 -1.373712,-1.155903 -2.867789,-1.00704 -4.113514,0.409851 -2.261194,2.5718911 1.947787,6.3302165 4.463983,3.9860237 z"
       style="fill:#000000;stroke-width:0.35277778" />
  </g>
</svg>
