<?xml version="1.0" encoding="UTF-8" standalone="no"?>
<svg
   xmlns:dc="http://purl.org/dc/elements/1.1/"
   xmlns:cc="http://creativecommons.org/ns#"
   xmlns:rdf="http://www.w3.org/1999/02/22-rdf-syntax-ns#"
   xmlns:svg="http://www.w3.org/2000/svg"
   xmlns="http://www.w3.org/2000/svg"
   id="svg2252"
   version="1.1"
   viewBox="0 0 111.41576 267.17075"
   height="267.17075mm"
   width="111.41576mm">
  <defs
     id="defs2246" />
  <metadata
     id="metadata2249">
    <rdf:RDF>
      <cc:Work
         rdf:about="">
        <dc:format>image/svg+xml</dc:format>
        <dc:type
           rdf:resource="http://purl.org/dc/dcmitype/StillImage" />
        <dc:title></dc:title>
      </cc:Work>
    </rdf:RDF>
  </metadata>
  <g
     transform="translate(-38.867911,-14.088439)"
     id="layer1">
    <path
       id="path2859"
       d="m 50.044055,280.95795 c -1.552222,-0.2583 -3.536598,-0.65847 -4.409723,-0.88925 -0.886519,-0.23432 -2.536139,-0.3356 -3.735867,-0.22936 -2.140179,0.18951 -2.150401,0.18594 -2.681568,-0.93774 -0.420632,-0.88985 -0.451178,-1.36055 -0.144688,-2.22959 0.569757,-1.61553 2.024551,-3.26878 3.034346,-3.44828 0.485069,-0.0862 1.576591,-0.40746 2.425603,-0.71386 2.080806,-0.75093 3.293479,-0.70102 4.415725,0.18173 l 0.939257,0.73882 1.361619,-1.44576 c 1.353096,-1.43672 3.287604,-2.50132 4.545187,-2.50132 0.3615,0 0.867427,-0.39267 1.124281,-0.87261 0.256854,-0.47994 0.980212,-1.04198 1.607462,-1.24899 1.763865,-0.58213 6.773307,-5.94155 8.074037,-8.63812 0.374368,-0.77611 1.116232,-2.12549 1.648587,-2.99861 0.544899,-0.8937 1.219584,-2.82092 1.543761,-4.40973 0.316715,-1.55222 0.780552,-3.13972 1.030749,-3.52777 0.423353,-0.65662 0.87812,-2.6931 1.063511,-4.7625 0.04346,-0.48507 0.255503,-1.51695 0.471213,-2.29306 0.215709,-0.77611 0.501763,-2.52236 0.635674,-3.88056 0.13391,-1.35819 0.365908,-2.62819 0.515549,-2.82222 0.149641,-0.19403 0.352481,-1.06715 0.450758,-1.94028 0.09827,-0.87312 0.604189,-3.33375 1.12425,-5.46805 2.055097,-8.43397 2.328037,-9.63559 2.544689,-11.20291 0.100746,-0.72882 0.325155,-1.41287 0.498686,-1.52012 0.490238,-0.30298 0.350556,-2.01764 -0.226525,-2.78069 -0.285782,-0.37788 -0.433024,-0.95983 -0.327209,-1.29323 0.105816,-0.33339 0.0315,-0.70561 -0.165149,-0.82715 -0.6988,-0.43188 -1.07224,-2.77163 -0.678028,-4.24812 0.207214,-0.77612 0.357829,-1.95312 0.33469,-2.61557 -0.02727,-0.78084 0.199729,-1.42972 0.645425,-1.84495 0.583438,-0.54355 0.661007,-0.97528 0.512502,-2.85249 -0.394544,-4.98728 -0.157032,-12.48037 0.528577,-16.67588 0.900074,-5.50791 1.009371,-5.91153 2.372611,-8.76188 1.225144,-2.56159 1.231977,-3.23904 0.03651,-3.61846 -1.540125,-0.48882 -1.702385,-0.96326 -1.279162,-3.74021 0.215989,-1.41717 0.593323,-3.05293 0.838522,-3.63501 0.245201,-0.58208 0.633948,-1.51788 0.863882,-2.07956 0.229937,-0.56167 0.641336,-2.18815 0.914223,-3.61439 0.272885,-1.42625 0.728113,-3.10983 1.011616,-3.74128 0.283502,-0.63146 0.712688,-2.02123 0.953748,-3.08838 0.241061,-1.06716 0.565277,-2.17841 0.720489,-2.46945 0.53032,-0.99444 1.725457,-3.96965 1.725457,-4.29541 0,-0.17885 0.627723,-1.23023 1.394937,-2.33641 1.048812,-1.51219 1.530442,-2.68688 1.941064,-4.7342 0.533908,-2.66202 0.528479,-2.7593 -0.242474,-4.34616 l -0.788603,-1.62318 0.780072,-0.59274 c 0.844208,-0.64146 0.815926,-1.3613 -0.137601,-3.50229 -0.325596,-0.73108 -0.425795,-1.59582 -0.276884,-2.38958 0.227002,-1.21003 0.268273,-1.2376 1.515452,-1.01239 1.570016,0.28351 1.548225,0.26455 1.676516,1.45884 0.05743,0.53467 0.230308,1.75438 0.384168,2.71045 l 0.279743,1.73831 1.928297,0.4332 c 1.539547,0.34586 2.179631,0.34309 3.175,-0.0138 2.032331,-0.72864 4.516041,-1.25023 5.953291,-1.25023 h 1.34507 l 0.41375,-2.24554 c 0.22757,-1.23504 0.41376,-2.64361 0.41376,-3.13016 0,-0.48654 0.3269,-1.62363 0.72645,-2.52687 0.67576,-1.52766 0.68806,-1.7192 0.17638,-2.74488 -0.30253,-0.60644 -0.55103,-1.27667 -0.55223,-1.4894 -0.001,-0.21272 -0.2148,-0.79422 -0.47469,-1.29223 -0.25988,-0.498 -0.5714,-1.29175 -0.69227,-1.76388 -0.12087,-0.47214 -0.78375,-1.71084 -1.47306,-2.75266 -1.42932,-2.16024 -1.58334,-3.22565 -1.75266,-12.123973 -0.0708,-3.719565 -0.23901,-5.409727 -0.59127,-5.940252 -0.48491,-0.730317 -0.50951,-0.731718 -1.63143,-0.09292 -0.626502,0.356722 -1.140098,0.83802 -1.141325,1.069555 -0.0011,0.231532 -0.3556,0.668479 -0.787499,0.97099 -0.431895,0.302514 -1.027208,1.050258 -1.322917,1.661653 -0.450543,0.931531 -0.994883,1.27393 -3.35987,2.113411 -3.328028,1.181322 -5.285571,1.271616 -6.526389,0.301032 -1.169966,-0.915158 -1.531789,-0.883514 -1.008394,0.08819 0.622349,1.155411 0.460781,6.676884 -0.20986,7.171824 -0.441311,0.32569 -0.388321,0.56882 0.365869,1.67871 0.727347,1.07038 1.032545,1.26005 1.741332,1.08216 0.676311,-0.16975 1.059473,0.0221 1.798416,0.90024 1.753443,2.08385 3.557958,6.36498 2.682861,6.36498 -0.379635,0 -1.911051,-1.79263 -2.535365,-2.96784 -0.636891,-1.19887 -2.67703,-3.02938 -3.376302,-3.02938 -0.28429,0 -0.51689,0.0611 -0.51689,0.13589 0,0.32795 0.94016,2.23938 1.529369,3.10933 0.35469,0.52369 0.874688,1.83215 1.155549,2.90769 0.28086,1.07554 0.827066,2.4918 1.213792,3.14725 l 0.703135,1.19172 -0.877401,0.5749 c -0.482568,0.31619 -0.950951,0.57489 -1.040853,0.57489 -0.0899,0 -0.50426,-0.91089 -0.920799,-2.02419 -0.416539,-1.1133 -0.897234,-2.19274 -1.068208,-2.39875 -0.170974,-0.20602 -0.41221,-1.08107 -0.536085,-1.94456 -0.123874,-0.86351 -0.463966,-2.22915 -0.755763,-3.03477 -0.2918,-0.80562 -0.423901,-1.80075 -0.293567,-2.2114 0.166924,-0.52593 -0.03136,-1.06557 -0.670818,-1.8255 -1.087501,-1.29242 -1.175508,-2.91078 -0.339559,-6.244037 0.391862,-1.562509 0.464171,-2.500242 0.23296,-3.02115 -0.819841,-1.847071 -1.572436,-4.356079 -1.549308,-5.165091 0.180936,-6.328872 0.484152,-8.803686 1.325665,-10.819903 0.625203,-1.497944 2.490855,-4.232751 3.264796,-4.785776 0.34307,-0.245142 0.907144,-0.882273 1.253501,-1.415849 0.605155,-0.932265 1.959705,-1.354339 1.959705,-0.610641 0,0.202935 0.367334,0.267303 0.84346,0.147803 0.463899,-0.116431 0.934466,-0.06444 1.045701,0.115542 0.221308,0.358091 -2.998382,6.906497 -4.862937,9.890535 -0.645142,1.032485 -1.267191,2.58923 -1.388621,3.475157 -0.120982,0.882657 -0.489617,2.364046 -0.819185,3.291971 -0.509941,1.435763 -0.534011,1.904781 -0.161559,3.147918 0.392106,1.308731 0.493628,1.404821 0.975322,0.923124 0.713489,-0.713486 1.027818,-0.680773 2.26786,0.236029 0.810574,0.599285 1.141353,0.678808 1.467383,0.352778 0.326026,-0.326027 0.305601,-0.423894 -0.09062,-0.434157 -0.281341,-0.0073 -1.145685,-0.555812 -1.920766,-1.218953 -1.760446,-1.506191 -1.411101,-2.010509 1.540595,-2.224017 1.99511,-0.144311 2.11606,-0.104722 2.893815,0.947251 0.446426,0.603818 0.963912,1.097855 1.149978,1.097855 0.383109,0 3.360808,-2.34835 4.015715,-3.166978 0.236361,-0.295455 0.434799,-0.901337 0.440973,-1.346405 0.0076,-0.549649 0.194235,-0.775963 0.581787,-0.705555 0.951117,0.172797 1.406961,-0.927838 0.936822,-2.261951 -0.507714,-1.440734 -0.626152,-5.679589 -0.204967,-7.335778 0.224825,-0.884069 0.510266,-1.234723 1.005096,-1.234723 0.63099,0 0.68229,0.218225 0.58982,2.509453 -0.12678,3.141603 0.92683,6.348279 2.2513,6.851841 0.46672,0.177448 0.86181,0.445626 0.87798,0.595948 0.18024,1.67567 0.91904,3.707194 1.85515,5.101206 0.73547,1.095223 0.66639,2.93322 -0.11024,2.93322 -0.28531,0 -0.71953,-0.396875 -0.96494,-0.881945 -0.41477,-0.819845 -0.44655,-0.829098 -0.45139,-0.131388 -0.003,0.412803 -0.24333,0.948178 -0.53437,1.189722 -0.79268,0.65787 -0.69206,2.697335 0.14387,2.915934 0.55143,0.144202 0.71112,0.613735 0.88386,2.59878 0.11597,1.33253 0.38819,3.13716 0.60494,4.01029 0.21675,0.87312 0.51179,2.18132 0.65565,2.90711 0.15689,0.7915 0.81511,1.92097 1.6447,2.82222 0.76073,0.82644 1.84602,2.61386 2.41177,3.97206 0.56575,1.35819 1.30543,2.83676 1.64374,3.28571 0.5979,0.79343 0.54763,1.82957 -0.0888,1.82957 -0.17327,0 -0.31503,0.39687 -0.31503,0.88194 0,0.48507 -0.13932,0.88194 -0.30959,0.88194 -0.55375,0 -1.18888,-1.03893 -1.02325,-1.67381 0.1229,-0.47107 -0.075,-0.6367 -0.82718,-0.6922 -0.86916,-0.0641 -1.01648,0.075 -1.21823,1.15039 -0.14391,0.76711 -0.0683,1.41759 0.20273,1.74417 0.23772,0.28644 0.32992,0.7874 0.20488,1.11325 -0.28946,0.75434 -1.28822,12.01572 -1.2936,14.58598 -0.002,1.06716 -0.0902,3.3787 -0.19558,5.13676 -0.14762,2.46375 -0.0627,3.50468 0.37026,4.541 0.30898,0.73949 0.56178,1.82599 0.56178,2.41445 0,1.01211 -0.0347,1.03854 -0.64174,0.48916 -0.53771,-0.48662 -0.79038,-0.51063 -1.55859,-0.14809 -1.02784,0.48507 -1.49799,2.45103 -0.84103,3.5168 0.28227,0.45792 0.18304,0.99415 -0.40975,2.2143 -0.43022,0.88553 -0.78377,1.96299 -0.78565,2.39437 -0.002,0.43137 -0.56129,1.48612 -1.24313,2.34388 -0.68184,0.85777 -1.32764,1.96902 -1.43513,2.46945 -0.10749,0.50043 -0.36896,1.26763 -0.58106,1.7049 -0.31863,0.65691 -0.25258,0.93664 0.38022,1.61023 0.42123,0.44837 0.76586,1.1075 0.76586,1.46473 0,0.35724 0.39668,1.1696 0.88151,1.80524 0.48483,0.63565 1.03653,1.56344 1.22599,2.06178 0.39325,1.03433 0.8905,1.17059 1.21223,0.33216 0.22478,-0.58576 -0.23804,-1.39135 -1.22641,-2.13472 -0.67343,-0.5065 -1.51042,-2.92037 -1.33266,-3.84338 0.21219,-1.10181 1.24295,-1.0341 1.46347,0.0961 0.36527,1.87213 1.12461,3.63363 1.56636,3.63363 0.62555,0 0.54993,-1.06083 -0.12911,-1.81116 -0.31458,-0.3476 -0.47933,-0.87336 -0.36613,-1.16836 0.3506,-0.91366 1.19694,-0.21886 1.4181,1.16418 0.26002,1.62607 1.9899,3.43713 2.9362,3.074 0.59448,-0.22812 0.58711,-0.28308 -0.11263,-0.83957 -1.59347,-1.26726 -1.65909,-3.90869 -0.19447,-7.82742 1.10767,-2.96366 1.45591,-5.75058 0.77144,-6.17361 -0.59133,-0.36546 -0.39358,-2.14679 0.3089,-2.78252 0.4332,-0.39205 0.74366,-1.32341 0.8991,-2.69728 0.17696,-1.56417 0.41269,-2.19227 0.92582,-2.46688 0.37862,-0.20263 0.6884,-0.60885 0.6884,-0.9027 0,-0.29385 0.24983,-1.01739 0.55518,-1.60787 0.8038,-1.55437 0.37672,-1.62631 -0.53014,-0.0893 -0.54717,0.92738 -0.87691,1.19272 -1.1468,0.92283 -0.54971,-0.5497 -0.11825,-1.85348 1.32126,-3.99258 1.40064,-2.08133 2.26995,-3.95956 2.26995,-4.90443 0,-0.34061 0.21229,-0.79546 0.47175,-1.0108 0.25947,-0.21534 0.65349,-1.22697 0.87561,-2.24806 0.22213,-1.02109 0.57447,-2.65028 0.783,-3.62042 0.20852,-0.97014 0.5482,-2.39889 0.75483,-3.175 0.20663,-0.77611 0.44768,-2.60174 0.53565,-4.05695 0.088,-1.45521 0.30678,-2.79664 0.48623,-2.98097 0.17944,-0.18433 0.32626,-0.77964 0.32626,-1.32292 0,-0.81207 -0.15317,-0.98778 -0.86112,-0.98778 -1.18034,0 -1.36823,-0.46714 -0.58724,-1.46001 0.61012,-0.77564 0.62332,-1.00632 0.17893,-3.12828 -0.59596,-2.84579 -0.63981,-7.88853 -0.0764,-8.79065 0.5927,-0.94907 -0.39384,-8.697895 -1.45918,-11.461144 -0.25752,-0.667939 -0.27572,-1.148045 -0.052,-1.371762 0.44231,-0.442313 2.49806,1.564679 2.52018,2.460406 0.009,0.354471 0.2155,1.112358 0.45945,1.68419 0.43312,1.015259 0.45425,0.977949 0.899,-1.587501 0.25051,-1.444956 0.66747,-3.182817 0.92659,-3.861914 1.77076,-4.640796 1.92389,-7.181558 0.72604,-12.046904 -0.3034,-1.232327 -0.78238,-3.272472 -1.0644,-4.533653 -0.80671,-3.607527 -1.35659,-4.938889 -2.03986,-4.938889 -0.65905,0 -1.68662,-1.670075 -1.68662,-2.741203 0,-0.362769 -0.54014,-1.290603 -1.20031,-2.061856 -0.95897,-1.120352 -1.24958,-1.824652 -1.44542,-3.503084 -0.13482,-1.155442 -0.49291,-2.973927 -0.79577,-4.04108 -0.30383,-1.070628 -0.53932,-3.184073 -0.52538,-4.715313 0.0251,-2.750654 0.0131,-2.788189 -1.35533,-4.272784 -1.40291,-1.521979 -1.82329,-3.006348 -0.85141,-3.006348 0.88935,0 0.60764,-1.664924 -0.48947,-2.892803 -0.89234,-0.99871 -1.09114,-1.079863 -1.60355,-0.6546 -0.32171,0.266993 -0.49889,0.709634 -0.39375,0.983647 0.28124,0.732885 -0.43743,1.858201 -1.18673,1.858201 -0.35753,0 -1.23527,-0.244518 -1.95054,-0.543377 -1.70946,-0.714259 -1.63685,-1.857029 0.15598,-2.454826 0.94388,-0.314723 1.26102,-0.63333 1.34635,-1.352582 0.0614,-0.517486 0.29952,-0.952344 0.52917,-0.966352 0.80318,-0.04899 2.42533,-2.38106 2.18435,-3.140317 -0.34194,-1.077361 -0.82623,-0.858894 -0.95071,0.42887 -0.13091,1.35431 -1.20836,1.767212 -1.95324,0.748524 -0.31542,-0.431364 -0.56355,-0.522825 -0.72888,-0.268665 -0.13785,0.211936 -1.0444,0.471482 -2.01454,0.576768 -1.63541,0.177487 -1.8251,0.115436 -2.60427,-0.851946 -0.62568,-0.776805 -0.73835,-1.145422 -0.44098,-1.442792 0.29737,-0.297371 0.50758,-0.29126 0.82275,0.02392 0.23284,0.232833 0.55034,0.423333 0.70556,0.423333 0.56499,0 0.25862,-0.674884 -0.77611,-1.709615 -1.04888,-1.048876 -1.40327,-2.170942 -0.68567,-2.170942 0.20496,0 0.83996,0.511629 1.41111,1.136954 0.778,0.851804 1.03845,0.98452 1.03845,0.529166 0,-0.334282 -0.16873,-0.607787 -0.37496,-0.607787 -0.20622,0 -0.32564,-0.291066 -0.26537,-0.646813 0.0657,-0.387729 -0.43148,-1.157093 -1.24119,-1.920746 -1.02982,-0.971139 -1.32936,-1.509005 -1.26061,-2.263516 0.17367,-1.905998 -0.363057,-3.142588 -1.761355,-4.058081 -1.163133,-0.761525 -1.428966,-0.815535 -1.991043,-0.404533 -1.10273,0.806336 -1.920522,0.584638 -2.154252,-0.584002 -0.170769,-0.853848 -0.390592,-1.058095 -1.137708,-1.0571 -0.759121,0.001 -1.099471,0.334853 -1.88819,1.852084 -0.529181,1.017967 -1.189373,3.041475 -1.467087,4.496684 -0.277717,1.455208 -0.613431,2.988113 -0.74603,3.406454 -0.232297,0.732889 -0.141171,0.761648 2.499396,0.788793 2.691525,0.02767 2.75874,0.05032 3.762333,1.267852 0.562017,0.681823 1.327792,1.239679 1.701719,1.239679 0.801564,0 0.859402,0.615046 0.146438,1.557228 -0.462446,0.611123 -0.650434,0.633508 -1.978523,0.235603 -1.201483,-0.359973 -1.52153,-0.354485 -1.765437,0.03027 -0.465748,0.734712 -0.360518,1.60931 0.22045,1.832249 0.58414,0.224156 0.734152,1.283537 0.181752,1.283537 -0.191076,0 -0.945138,-0.784709 -1.675695,-1.743798 -0.730553,-0.95909 -1.502114,-1.75284 -1.714574,-1.763889 -0.669562,-0.03482 -1.553983,1.231475 -1.553983,2.22496 0,0.525125 -0.25558,1.344837 -0.567954,1.821582 -0.312375,0.476745 -0.483733,1.08629 -0.380792,1.354549 0.247177,0.644134 2.359857,0.96851 2.359857,0.362324 0,-0.518544 1.241492,-0.991086 1.760732,-0.670179 0.195763,0.120989 0.355935,0.682784 0.355935,1.248435 0,0.785922 -0.249576,1.157513 -1.058333,1.575739 -1.345527,0.695797 -1.345527,1.420869 0,2.116666 1.230249,0.636186 1.376595,1.492504 0.321765,1.882712 -0.662358,0.245022 -0.680131,0.319317 -0.176389,0.737383 0.643597,0.534138 0.739503,1.821971 0.177535,2.383938 -0.210456,0.210457 -0.329519,0.758145 -0.264583,1.217084 0.09213,0.651143 0.389283,0.874903 1.352783,1.018649 0.965599,0.144061 1.670569,-0.06739 3.234358,-0.970139 2.408429,-1.390332 4.879535,-1.623218 4.879535,-0.459863 0,0.48079 0.16738,0.630251 0.54398,0.485736 0.29919,-0.114811 0.50689,-0.467018 0.46156,-0.78268 -0.12557,-0.87436 0.3999,-2.161431 0.88244,-2.161431 0.65792,0 1.62066,-1.878573 1.86087,-3.631088 0.18417,-1.343692 0.31649,-1.546201 0.90904,-1.391247 0.97972,0.256205 1.13543,0.93938 0.45188,1.982611 -0.32355,0.493808 -0.67708,1.877149 -0.78562,3.074085 -0.17462,1.925736 -0.31277,2.24191 -1.20018,2.74664 -1.15916,0.659296 -1.2302,0.97409 -0.42151,1.86769 0.78867,0.871467 0.36656,1.188096 -1.02707,0.770424 -0.82913,-0.248493 -1.39021,-0.217484 -2.02817,0.112089 -0.48507,0.250592 -1.150389,0.457958 -1.478486,0.460819 -0.328098,0.0028 -0.670687,0.125166 -0.761305,0.271794 -0.34283,0.554711 0.235687,2.221283 1.091706,3.14494 1.486235,1.603679 2.203715,3.047598 2.205095,4.437772 0.001,1.581422 -0.87903,1.836981 -1.42069,0.412298 -0.44595,-1.172929 -1.119463,-0.939694 -1.614774,0.559192 -0.429796,1.300625 -2.423234,3.293823 -3.076649,3.076282 -0.819802,-0.27294 -0.619605,-1.337758 0.453217,-2.41058 0.60209,-0.602086 1.331846,-1.55328 1.621681,-2.113763 0.487229,-0.942196 0.466496,-1.132276 -0.274884,-2.520202 -0.441022,-0.825627 -0.881232,-2.136144 -0.978246,-2.912255 L 96.257946,56.22916 h -2.532285 c -2.321789,0 -2.622582,-0.08633 -3.618519,-1.038582 -1.077945,-1.030654 -1.08451,-1.059271 -0.860143,-3.749625 0.178512,-2.140497 0.104807,-2.954176 -0.350231,-3.866315 -0.316978,-0.635398 -0.576322,-1.526504 -0.576322,-1.980237 0,-0.607776 -0.348291,-0.988367 -1.322917,-1.445609 -1.0775,-0.505506 -1.343477,-0.833967 -1.433756,-1.770581 -0.104465,-1.083832 1.330568,-5.350816 2.13409,-6.34558 0.258837,-0.320442 0.18766,-0.440972 -0.260406,-0.440972 -0.554888,0 -0.594597,-0.291282 -0.396738,-2.910417 0.446719,-5.913333 1.095584,-8.96305 2.031334,-9.547437 0.362726,-0.226527 0.659504,-0.5568 0.659504,-0.73394 0,-0.831553 1.832952,-4.03563 2.883418,-5.040334 1.108287,-1.060006 3.659559,-2.212557 4.922694,-2.223851 0.315789,-0.0028 0.771789,0.232991 1.013333,0.524032 0.641713,0.773216 1.058333,0.647745 1.058333,-0.31873 0,-0.759903 0.192204,-0.870592 1.852085,-1.06659 2.608,-0.307951 5.67147,-0.22149 6.06778,0.171252 0.18432,0.182668 0.8987,0.333102 1.5875,0.334297 0.68879,0.0012 1.6965,0.233837 2.23933,0.51698 0.56808,0.296311 1.41342,0.42952 1.99173,0.313857 0.73546,-0.147093 1.20369,-0.002 1.74705,0.541353 0.40827,0.408267 0.88162,0.742304 1.05189,0.742304 0.17027,0 0.5072,0.238125 0.74875,0.529166 0.24154,0.291042 0.70865,0.529167 1.03803,0.529167 0.32937,0 1.24624,0.554137 2.03749,1.231414 1.14091,0.976578 1.52546,1.615381 1.85819,3.086806 0.65787,2.909268 0.7065,3.030954 1.66783,4.17342 0.864,1.026813 0.89812,1.224245 0.69904,4.045261 -0.12244,1.734957 -0.0703,3.051664 0.12561,3.172752 0.79865,0.493593 0.18482,1.729081 -1.89997,3.824165 -1.22919,1.235257 -2.64181,2.512541 -3.13914,2.838408 -0.763,0.499933 -0.88014,0.796471 -0.7499,1.898326 0.0922,0.779911 -0.0554,1.661044 -0.36635,2.187784 -1.56362,2.648465 -1.93227,3.85953 -2.17295,7.138321 -0.19913,2.71279 -0.14048,3.654203 0.28516,4.576688 0.29472,0.638761 0.64664,1.95513 0.78205,2.925269 0.28657,2.053033 3.2885,7.987729 4.75942,9.40918 0.77119,0.745243 1.02628,1.392943 1.21881,3.094602 0.13391,1.183651 0.45158,2.743895 0.70593,3.46721 0.25434,0.723318 0.58066,2.583377 0.72515,4.133469 0.14449,1.550091 0.64248,3.871175 1.10666,5.15796 0.46416,1.286786 0.84394,2.559037 0.84394,2.827222 0,0.268188 -0.55563,1.269114 -1.23472,2.224278 -0.6791,0.955163 -1.23473,1.941333 -1.23473,2.19148 0,0.250151 -0.46106,1.181848 -1.02459,2.070435 -0.77402,1.220499 -1.02797,2.052155 -1.03842,3.400595 -0.0157,2.030963 -0.34194,3.822207 -0.80006,4.393187 -0.53551,0.66744 -0.8187,5.70309 -0.35233,6.26503 0.22787,0.27457 0.48691,1.8266 0.57564,3.44895 0.21778,3.98191 0.47083,5.38772 1.31213,7.28963 l 0.71321,1.61232 -0.75264,0.60945 c -0.5222,0.42285 -0.92615,1.44853 -1.31941,3.3501 -0.65293,3.15725 -0.4827,5.15848 0.59402,6.98338 0.415,0.70338 0.67068,1.49743 0.56817,1.76456 -0.10251,0.26713 0.28902,0.94047 0.87005,1.49633 1.4072,1.3462 2.53097,3.20633 2.30027,3.80753 -0.10256,0.26725 0.0357,0.77916 0.30725,1.13757 0.27155,0.35841 0.50577,1.36603 0.52051,2.23915 0.0278,1.64837 0.71486,4.71736 1.15448,5.15698 0.39578,0.39578 0.29495,4.30001 -0.11763,4.555 -0.25328,0.15654 -0.24086,0.38411 0.0394,0.72179 0.53901,0.64948 0.14771,2.14704 -0.93168,3.56561 -0.84849,1.11512 -1.14955,3.06273 -0.53239,3.44415 0.17714,0.10948 0.43321,0.87291 0.56905,1.69652 0.13583,0.8236 0.35917,1.6562 0.49632,1.85023 0.88102,1.24648 1.61931,6.05534 1.03732,6.7566 -0.32944,0.39695 -0.18834,1.23238 0.66365,3.92933 1.68702,5.34018 2.16203,7.92965 2.56969,14.00852 0.2082,3.10444 0.51399,6.07932 0.67955,6.61085 0.16555,0.53152 0.22094,1.27257 0.12309,1.64676 -0.1335,0.51051 0.0286,0.70959 0.64942,0.79748 0.72335,0.10241 0.85271,0.36097 1.02933,2.05741 0.21583,2.07301 1.51289,5.73823 2.74653,7.76111 0.41415,0.6791 0.75359,1.64039 0.75431,2.13622 7.1e-4,0.56492 0.69726,1.75031 1.86537,3.175 1.02523,1.25042 2.3329,3.06725 2.90593,4.03739 0.57302,0.97014 1.23038,2.08139 1.46078,2.46944 1.07992,1.81885 1.88453,3.89352 1.89861,4.89554 0.008,0.60593 0.24408,1.73669 0.52347,2.5128 0.59347,1.64856 0.41818,3.21762 -0.62071,5.55625 -1.41521,3.18574 -3.13349,1.3219 -2.37448,-2.57562 0.46157,-2.37013 0.11617,-6.31879 -0.71515,-8.17559 -0.34078,-0.76116 -1.47319,-2.41275 -2.51647,-3.67019 -1.87646,-2.26166 -3.19119,-4.27209 -4.58413,-7.00985 -0.39488,-0.77611 -1.1811,-2.20486 -1.74715,-3.175 -1.7586,-3.014 -2.33942,-4.48875 -2.91773,-7.40834 -0.92158,-4.65253 -1.29096,-7.86435 -1.47096,-12.79008 -0.13059,-3.5737 -0.33004,-5.02923 -0.84596,-6.17361 -0.37129,-0.82358 -0.87149,-2.37054 -1.11155,-3.4377 -0.31942,-1.41991 -0.76282,-2.25011 -1.65329,-3.09554 -1.47195,-1.39751 -1.35097,-2.35776 0.26714,-2.12028 0.91065,0.13366 1.05427,0.0438 1.05427,-0.65939 0,-1.16113 -1.6398,-1.55356 -2.42988,-0.58151 -0.90065,1.10809 -3.71343,1.88176 -7.27151,2.00008 -1.21185,0.0403 -1.42703,-0.0652 -1.52384,-0.74683 -0.0675,-0.47557 0.0739,-0.79805 0.35277,-0.80448 0.27701,-0.006 0.20175,-0.16404 -0.18585,-0.38933 -0.92054,-0.53507 -1.40241,0.0556 -0.97101,1.19029 0.18927,0.49782 0.51267,1.00929 0.71867,1.1366 0.56832,0.35124 0.44762,1.60095 -0.15463,1.60095 -0.29104,0 -0.52917,0.12347 -0.52917,0.27437 0,0.42339 1.36074,1.48952 1.90112,1.48952 0.72045,0 1.45655,1.01677 1.03864,1.43468 -0.22674,0.22675 -0.79987,0.0387 -1.65877,-0.54412 -0.72178,-0.48981 -1.54972,-0.89056 -1.83988,-0.89056 -0.29015,0 -1.16005,-0.32268 -1.9331,-0.71706 -1.14748,-0.5854 -2.00313,-0.70594 -4.66025,-0.65651 -1.79009,0.0333 -3.4578,0.22052 -3.70602,0.41605 -0.32267,0.25418 -0.69936,0.12249 -1.32152,-0.462 -1.07725,-1.01202 -1.52748,-0.68099 -0.72974,0.53653 0.77306,1.17983 0.40547,1.79808 -0.65568,1.10279 -0.43993,-0.28826 -1.417417,-0.57469 -2.172196,-0.63654 -1.099665,-0.0901 -1.372327,-0.25261 -1.372327,-0.81798 0,-0.52407 -0.272238,-0.73415 -1.058333,-0.81672 -2.183003,-0.22929 -5.791278,-1.0914 -7.279006,-1.73916 -4.751359,-2.06872 -4.573612,-2.01524 -4.913221,-1.47853 -0.176318,0.27864 -0.323014,0.85823 -0.325984,1.28797 -0.0028,0.42973 -0.289137,0.93318 -0.635921,1.11878 -0.346787,0.18559 -1.002361,1.39072 -1.456827,2.67805 -0.669079,1.89525 -0.853557,3.25983 -0.969511,7.1715 -0.07876,2.65699 -0.234562,5.69845 -0.346224,6.75881 -0.111661,1.06037 -0.02205,2.73656 0.199115,3.72488 0.331245,1.48016 0.307055,2.02451 -0.137227,3.08782 -0.296647,0.70998 -0.539362,1.84764 -0.539362,2.52811 0,1.18633 0.04351,1.22853 1.057459,1.02575 1.413961,-0.2828 1.917354,0.21716 2.44868,2.43198 0.581836,2.42537 0.414538,3.61798 -0.507527,3.61798 -0.601261,0 -0.738879,-0.31033 -0.930992,-2.09936 -0.169195,-1.57563 -0.422687,-2.25908 -1.01612,-2.73961 -0.78052,-0.63203 -0.805328,-0.62332 -1.930431,0.67824 l -1.139751,1.3185 0.972195,2.30306 c 0.917392,2.17324 0.966654,2.56158 0.873894,6.88917 -0.0591,2.75736 -0.335879,5.57082 -0.69409,7.05556 -0.327681,1.35819 -0.723999,3.07752 -0.880703,3.82073 -0.156707,0.74321 -0.46265,1.52902 -0.679877,1.74625 -0.468079,0.46808 -0.534825,5.25557 -0.08002,5.73954 0.173217,0.18433 0.234576,0.85108 0.136348,1.48167 -0.160362,1.0295 -0.544096,1.32672 -1.553354,1.20312 -0.121067,-0.0148 -0.326796,0.64107 -0.457176,1.45753 -0.71767,4.49415 -1.339264,9.17285 -1.495192,11.25426 -0.104884,1.4 -0.377864,2.52821 -0.670489,2.77107 -0.354514,0.29422 -0.396258,0.59149 -0.148167,1.05505 0.479294,0.89558 -0.157321,2.4555 -1.002108,2.4555 -0.55621,0 -0.722316,0.4454 -1.062065,2.84782 -0.471969,3.33739 -0.548529,3.50218 -1.627134,3.50218 -0.905888,0 -1.420465,1.10458 -0.802472,1.72257 0.259431,0.25943 0.197015,0.43772 -0.2076,0.59298 -0.318209,0.12211 -0.681981,0.77329 -0.808382,1.44706 -0.126401,0.67378 -0.527594,1.41101 -0.89154,1.6383 -0.363946,0.22729 -0.66172,0.60576 -0.66172,0.84105 0,0.23529 -0.714375,0.7438 -1.5875,1.13003 -0.873125,0.38622 -1.5875,0.84442 -1.5875,1.01821 0,0.1738 -0.421025,0.50783 -0.935611,0.74229 -0.644383,0.29359 -0.822043,0.53985 -0.570758,0.79114 0.251285,0.25129 0.591274,0.22345 1.092266,-0.0894 0.610739,-0.38142 0.829599,-0.36218 1.364508,0.11994 0.350402,0.31581 1.113345,0.68785 1.695429,0.82673 0.582083,0.13889 1.24506,0.3991 1.473282,0.57825 0.53868,0.42286 4.322187,0.48979 6.893612,0.12196 1.604631,-0.22955 2.191269,-0.17427 2.869982,0.27045 0.469198,0.30742 0.950658,0.46139 1.069911,0.34214 0.369757,-0.36976 0.238167,-2.51385 -0.169753,-2.76596 -0.256279,-0.15839 -0.294562,-0.78968 -0.113587,-1.8729 0.353345,-2.11492 0.271684,-3.52859 -0.239395,-4.1444 -0.311073,-0.37482 -0.303209,-0.87129 0.03281,-2.07138 0.582471,-2.08039 1.156751,-2.55294 2.035097,-1.67459 0.562434,0.56243 0.679401,1.25428 0.728603,4.30966 0.03224,2.00181 -0.09613,3.82612 -0.285253,4.054 -0.234675,0.28276 0.08518,1.25328 1.007255,3.05631 0.743116,1.45309 1.464571,3.26698 1.60323,4.03086 0.138663,0.76389 0.337009,1.74269 0.440775,2.17512 0.14459,0.60258 -0.211275,1.18693 -1.523393,2.50153 l -1.712052,1.71529 -3.708136,0.22399 c -4.083276,0.24665 -5.765236,0.0945 -8.030699,-0.72631 -1.158564,-0.41979 -2.221917,-0.49183 -4.586111,-0.31072 -1.692808,0.12967 -3.130749,0.39091 -3.195425,0.58052 -0.06469,0.18961 -0.350383,0.34474 -0.634891,0.34474 -0.284508,0 -0.945966,0.22144 -1.469907,0.49208 -1.441877,0.7448 -5.204607,0.92446 -8.360954,0.3992 z m 2.645833,-3.38475 c 1.261181,-0.0361 2.489753,-0.22217 2.730161,-0.41355 0.240408,-0.19137 0.960687,-0.24972 1.600619,-0.12967 1.140025,0.21387 3.528206,-0.0838 7.222907,-0.90014 1.390466,-0.30724 2.182084,-0.30922 3.175,-0.008 0.727486,0.22074 2.891542,0.47758 4.809012,0.57077 4.298072,0.20889 5.865294,-0.27583 5.856902,-1.81145 -0.01055,-1.93091 -0.170085,-1.98267 -6.224698,-2.01956 l -5.587958,-0.0341 -2.597179,-1.3437 -2.59718,-1.34369 -0.82546,0.77548 c -0.525882,0.49404 -1.089999,0.7063 -1.554376,0.58486 -0.421412,-0.1102 -1.433126,0.18255 -2.398194,0.69394 -2.141563,1.13482 -2.555156,1.48661 -2.941025,2.50152 -0.254826,0.67025 -0.470516,0.77958 -1.109777,0.56254 -0.436412,-0.14817 -1.872123,-0.24397 -3.19047,-0.21289 -1.827703,0.0431 -2.651066,0.23743 -3.466763,0.81826 -0.791267,0.56343 -1.172903,0.6586 -1.465923,0.36559 -0.570647,-0.57065 -1.666154,-0.48762 -1.666154,0.12629 0,0.74732 3.792509,1.51183 6.702778,1.35117 0.679098,-0.0375 2.266598,-0.0977 3.527778,-0.13376 z m 41.62778,-106.47167 c 0,-0.50989 -0.999705,-1.1794 -1.395659,-0.93469 -0.559224,0.34562 -0.440987,0.82075 0.249131,1.00109 1.014402,0.26509 1.146528,0.25744 1.146528,-0.0664 z m 18.520832,-0.39597 c 0.11992,-0.19403 0.0499,-0.35278 -0.15556,-0.35278 -0.20548,0 -0.3736,0.15875 -0.3736,0.35278 0,0.19403 0.07,0.35278 0.15556,0.35278 0.0856,0 0.25369,-0.15875 0.3736,-0.35278 z m -14.287498,-1.25554 c 0,-0.2796 -0.238125,-0.50835 -0.529167,-0.50835 -0.531365,0 -0.725198,0.74471 -0.303572,1.16634 0.329226,0.32922 0.832739,-0.0686 0.832739,-0.65799 z m 0.981505,-2.00766 c -0.216094,-0.63059 -0.922313,-1.77053 -1.569367,-2.5332 -0.647058,-0.76267 -1.367011,-1.91361 -1.599893,-2.55764 -0.396692,-1.09702 -0.937705,-1.45569 -1.439256,-0.95414 -0.246574,0.24658 0.347426,1.2332 2.41814,4.01651 0.793933,1.06715 1.544489,2.21809 1.667902,2.55764 0.425718,1.17132 0.930141,0.66044 0.522474,-0.52917 z m -10.859284,0.22716 c 0,-0.52928 -2.293059,-3.03428 -3.213054,-3.51003 -0.561153,-0.29018 -1.020279,-0.44114 -1.020279,-0.33546 0,0.10568 0.824717,1.06225 1.832702,2.12572 1.674488,1.76666 2.400631,2.28686 2.400631,1.71977 z m 35.310857,-0.15666 c 0.38073,-0.20377 0.59905,-0.52127 0.48515,-0.70556 -0.34055,-0.55103 -1.02517,-0.38133 -1.49469,0.37048 -0.49795,0.79735 -0.10063,0.92922 1.00954,0.33508 z m -29.313634,-0.52745 c 0,-0.43197 0.256356,-0.49706 1.234722,-0.31352 0.716217,0.13436 1.234722,0.0891 1.234722,-0.10786 0,-0.18672 -0.795118,-1.1172 -1.766933,-2.06773 -3.070821,-3.00358 -5.218642,-5.75179 -4.185328,-5.35527 0.440094,0.16888 0.414073,-0.0437 -0.14322,-1.1701 -0.685306,-1.38513 -1.312852,-1.8042 -1.312852,-0.87671 0,0.27487 0.198437,0.57984 0.440972,0.6777 0.242535,0.0979 0.0044,0.19047 -0.529167,0.20579 -0.533576,0.0153 -0.970139,0.16477 -0.970139,0.33212 0,0.69993 3.542246,4.54721 4.762501,5.17261 0.388055,0.19889 0.758225,0.72964 0.8226,1.17946 0.101586,0.70981 0.0084,0.78484 -0.705556,0.56799 -0.45243,-0.13743 -1.179787,-0.5768 -1.61635,-0.97637 -1.466991,-1.34271 -0.875224,0.1687 0.690813,1.76438 1.588453,1.61852 2.043215,1.83386 2.043215,0.96751 z m -11.12773,-0.74433 c -0.497882,-0.36406 -0.709662,-0.37575 -0.91083,-0.0503 -0.392793,0.63556 -0.04901,0.94526 0.802185,0.72267 0.724581,-0.18948 0.729283,-0.21859 0.108645,-0.67241 z m 29.077624,-0.73899 c -0.11614,-0.73552 0.0966,-1.14653 0.59329,-1.14653 0.40949,0 0.52305,-0.29452 0.44098,-1.14364 -0.13997,-1.44795 -1.02144,-1.65502 -1.60986,-0.37816 -0.74574,1.61825 -0.57485,2.55642 0.52917,2.90506 0.0485,0.0153 0.0694,-0.0912 0.0464,-0.23673 z m 7.20416,-0.61253 c 0.0383,-0.19137 -0.20825,-0.40145 -0.5478,-0.46684 -0.38615,-0.0744 -0.61736,0.0987 -0.61736,0.462 0,0.61376 1.04256,0.61809 1.16516,0.005 z m -20.474749,-0.26942 c -0.515257,-0.65673 -1.504305,-3.79349 -1.504305,-4.77088 0,-1.18482 -1.378327,-3.07593 -1.877822,-2.57644 -0.208975,0.20898 -0.665706,0.37996 -1.014956,0.37996 -0.843322,0 -0.802749,0.52179 0.106433,1.36882 0.407787,0.37991 0.938527,1.06078 1.179421,1.51305 1.74607,3.27813 2.657549,4.52646 3.305045,4.52646 0.08369,0 -0.0035,-0.19843 -0.193816,-0.44097 z m 22.131809,0.0882 c 0,-0.19403 -0.2475,-0.35278 -0.54999,-0.35278 -0.30249,0 -0.45187,0.15875 -0.33196,0.35278 0.11992,0.19402 0.36742,0.35277 0.54999,0.35277 0.18258,0 0.33196,-0.15875 0.33196,-0.35277 z m -32.98923,-2.10938 c 0.305766,-0.49474 -0.411558,-1.68774 -1.15708,-1.92436 -0.348244,-0.11052 -0.784973,-0.71626 -0.970516,-1.34607 -0.434496,-1.47489 -1.416463,-1.70669 -1.667475,-0.39361 -0.333915,1.74676 2.994163,4.95993 3.795071,3.66404 z m 31.57812,0.20684 c 0,-0.0762 -0.23813,-0.23002 -0.52917,-0.34171 -0.29104,-0.11168 -0.52917,-0.0493 -0.52917,0.13865 0,0.18794 0.23813,0.34171 0.52917,0.34171 0.29104,0 0.52917,-0.0624 0.52917,-0.13865 z m 3.61652,-4.98921 c 0.16239,-0.84948 0.13823,-0.86487 -0.47972,-0.30563 -0.35789,0.32389 -0.56572,0.72643 -0.46183,0.89452 0.35239,0.57019 0.7699,0.30906 0.94155,-0.58889 z m -30.780413,-0.0567 c 0,-0.55681 -1.896057,-2.92938 -2.341034,-2.92938 -0.755628,0 -0.571662,0.57796 0.613689,1.928 1.022259,1.16429 1.727345,1.57304 1.727345,1.00138 z m 8.819443,-0.22887 c 0,-0.26097 -0.3175,-0.76183 -0.70555,-1.11301 -0.79565,-0.72005 -0.85336,-0.61108 -0.36151,0.68259 0.36247,0.95337 1.06706,1.23758 1.06706,0.43042 z m 11.55069,-1.68713 c -0.58297,-0.37964 -1.67291,0.0978 -1.67291,0.73285 0,1.02499 0.45287,1.13039 1.25035,0.29101 0.42918,-0.45174 0.61388,-0.89927 0.42256,-1.02386 z m -26.14162,-0.23323 c -0.799896,-0.7999 -1.025571,-0.36614 -0.327805,0.63006 0.388169,0.55419 0.638496,0.68472 0.738389,0.38504 0.08312,-0.24936 -0.101643,-0.70616 -0.410584,-1.0151 z m 7.888154,-0.2601 c 0,-0.53835 -2.502006,-4.13281 -2.722947,-3.91187 -0.157833,0.15783 1.256206,3.42893 1.728022,3.99744 0.508659,0.61289 0.994925,0.57107 0.994925,-0.0856 z m 26.105556,0.20637 c 0,-0.41622 -0.68804,-0.86148 -0.94074,-0.60878 -0.2527,0.2527 0.19256,0.94074 0.60878,0.94074 0.18258,0 0.33196,-0.14938 0.33196,-0.33196 z m -23.283334,-1.04034 c 0,-0.71424 -3.233956,-4.63729 -4.260215,-5.16799 -1.42657,-0.73771 -1.199025,-0.36017 1.762506,2.92432 2.411547,2.67452 2.497709,2.75192 2.497709,2.24367 z m 4.938884,-0.1389 c 0,-0.63191 -3.290537,-5.81585 -4.570358,-7.20017 -0.963168,-1.04182 -0.829236,0.2248 0.186326,1.76211 0.538174,0.81466 1.369459,2.07652 1.847302,2.80412 0.47784,0.72761 0.98048,1.32292 1.11698,1.32292 0.13649,0 0.429,0.39687 0.65001,0.88194 0.43717,0.95949 0.76974,1.14487 0.76974,0.42908 z m 16.51463,-0.87005 c -0.0647,-0.33955 -0.48559,-0.66971 -0.93528,-0.73369 -0.7285,-0.10365 -0.77482,-0.0364 -0.42496,0.61736 0.48193,0.9005 1.52673,0.98985 1.36024,0.11633 z m -30.653423,-1.05833 c -1.087462,-1.81924 -1.383425,-2.11013 -1.383425,-1.35974 0,0.75311 1.306679,2.68265 1.816682,2.68265 0.196642,0 0.0018,-0.59531 -0.433257,-1.32291 z m 26.486023,0.69586 c 0,-0.15086 -0.26492,-0.65251 -0.5887,-1.11477 l -0.5887,-0.84049 -0.29393,0.79457 c -0.16166,0.43701 -0.20488,0.93866 -0.096,1.11477 0.24121,0.39029 1.56736,0.42914 1.56736,0.0459 z m 5.29167,-0.66808 c 0,-0.63166 -0.97327,-1.87987 -1.46579,-1.87987 -0.46309,0 -0.35341,0.64597 0.27164,1.59991 0.65841,1.00487 1.19415,1.13047 1.19415,0.27996 z m -21.725279,-0.59465 c -0.12234,-0.31881 -0.364201,-0.57966 -0.537471,-0.57966 -0.481372,0 -0.374904,0.97815 0.125938,1.15703 0.596308,0.21296 0.67334,0.10489 0.411533,-0.57737 z m 24.834129,-0.20483 c 0.0882,-0.26459 -0.0441,-0.39688 -0.30868,-0.30868 -0.25466,0.0849 -0.53248,0.36269 -0.61736,0.61736 -0.0882,0.26458 0.0441,0.39687 0.30868,0.30868 0.25466,-0.0849 0.53247,-0.3627 0.61736,-0.61736 z m -7.15129,-0.35136 c -0.1279,-0.20694 -0.40136,-0.37625 -0.60769,-0.37625 -0.23393,0 -0.20716,0.20242 0.0711,0.5377 0.48385,0.583 0.91628,0.45289 0.5366,-0.16145 z M 89.198171,149.4507 c -0.125483,-0.43657 -0.305629,-1.07157 -0.400322,-1.41112 -0.246845,-0.88512 -1.182959,-0.76752 -1.182959,0.14862 0,0.78842 0.918425,2.05625 1.489562,2.05625 0.177031,0 0.219202,-0.35719 0.09372,-0.79375 z m 14.618909,-0.86412 c 0.29396,-1.06463 0.25444,-1.42213 -0.21448,-1.94028 -0.69024,-0.7627 -1.17104,-0.8183 -1.17104,-0.13542 0,0.27487 -0.19844,0.56675 -0.44098,0.64862 -0.33502,0.11308 -0.29401,0.45917 0.17069,1.4405 0.77447,1.63551 1.20147,1.63205 1.65581,-0.0134 z m -12.674412,0.42314 c 0,-0.29104 -0.153769,-0.52916 -0.341708,-0.52916 -0.187935,0 -0.250327,0.23812 -0.138645,0.52916 0.111686,0.29105 0.265451,0.52917 0.341708,0.52917 0.07625,0 0.138645,-0.23812 0.138645,-0.52917 z m 4.938889,-0.10583 c 0,-0.49854 -0.827338,-1.12889 -1.481667,-1.12889 -0.892129,0 -0.791259,0.66549 0.15875,1.04734 1.022957,0.41118 1.322917,0.42967 1.322917,0.0815 z m 25.023593,-1.45828 c -1.07072,-1.33238 -1.74026,-1.78666 -1.74026,-1.18078 0,0.32437 2.60459,2.89784 2.76945,2.73635 0.068,-0.0666 -0.39515,-0.7666 -1.02919,-1.55557 z m -3.48179,-1.78728 c 0.18173,0 0.33042,-0.49323 0.33042,-1.09607 0,-0.82935 0.12877,-1.04667 0.52917,-0.89302 0.84099,0.32272 0.61747,-0.26375 -0.5135,-1.34728 l -1.04266,-0.99894 -0.40641,1.02113 c -0.22352,0.56162 -0.54807,1.29679 -0.72122,1.6337 -0.58426,1.13685 -0.35927,2.66749 0.47893,3.25818 0.76837,0.54149 0.79728,0.52522 0.90429,-0.50916 0.0608,-0.58769 0.25924,-1.06854 0.44098,-1.06854 z m -26.480692,1.37735 c 0,-0.65708 -1.187217,-2.43568 -1.625819,-2.43568 -0.714647,0 -0.860375,1.05759 -0.269907,1.95876 0.567796,0.86657 1.895726,1.20065 1.895726,0.47692 z m 9.172222,-0.0994 c 0,-0.0733 -0.27781,-0.35107 -0.617361,-0.61736 -0.559526,-0.43881 -0.572004,-0.42633 -0.133194,0.13319 0.460855,0.58764 0.750555,0.77452 0.750555,0.48417 z m -3.176319,-1.18972 c -0.0021,-0.42239 -1.272163,-2.27469 -2.47934,-3.61597 -0.711711,-0.79078 -1.020008,-0.98104 -0.85744,-0.52917 0.139608,0.38806 0.335227,1.10243 0.434714,1.5875 0.241342,1.17673 2.906892,3.52592 2.902066,2.55764 z m -5.290347,-0.61736 c -0.241544,-0.29104 -0.59792,-0.52917 -0.791948,-0.52917 -0.19679,0 -0.158588,0.23398 0.08639,0.52917 0.241543,0.29104 0.59792,0.52916 0.791947,0.52916 0.19679,0 0.158588,-0.23398 -0.08639,-0.52916 z m 0.860545,-1.60984 c -0.917607,-0.95777 -1.566101,-1.07474 -1.566101,-0.28248 0,0.1975 0.510335,0.86282 1.134078,1.47848 0.991634,0.97879 1.150814,1.03747 1.267309,0.46715 0.07549,-0.36957 -0.286505,-1.09034 -0.835286,-1.66315 z m 7.958901,1.45427 c 0,-0.41623 -0.688042,-0.86148 -0.940744,-0.60878 -0.252698,0.2527 0.192557,0.94074 0.608784,0.94074 0.18258,0 0.33196,-0.14938 0.33196,-0.33196 z m 3.88055,0.13805 c 0,-0.4727 -1.0519,-2.16037 -1.72777,-2.77202 -1.04363,-0.94448 -0.92201,-0.12642 0.22847,1.53672 0.86822,1.2551 1.4993,1.77506 1.4993,1.2353 z m 16.89122,-2.36373 c -0.62163,-1.17561 -3.25797,-4.49792 -3.56921,-4.49792 -0.51818,0 -0.26195,0.78875 0.58212,1.79187 0.46824,0.55647 0.78254,1.29376 0.69845,1.63842 -0.10634,0.43581 0.19844,0.80014 1.00073,1.19628 1.60654,0.79326 1.76693,0.77724 1.28791,-0.12865 z m -31.355105,-1.90679 c 0,-0.26097 -0.09071,-0.47449 -0.201588,-0.47449 -0.432294,0 -1.209524,1.03906 -1.209524,1.61698 0,0.56704 0.04865,0.56501 0.705556,-0.0295 0.388056,-0.35118 0.705556,-0.85204 0.705556,-1.11301 z m 7.952006,0.96009 c -0.127896,-0.20694 -0.401355,-0.37625 -0.607688,-0.37625 -0.233927,0 -0.207162,0.20242 0.07109,0.53769 0.483849,0.58301 0.91628,0.4529 0.536596,-0.16144 z m -3.070701,-2.20433 c -0.652022,-1.03185 -1.353707,-2.18414 -1.559299,-2.56064 -0.596054,-1.09158 -1.20534,-1.07808 -1.20534,0.0267 0,0.71766 0.50171,1.49646 1.831415,2.84289 1.007275,1.01995 1.896057,1.78981 1.975068,1.7108 0.07901,-0.079 -0.389819,-0.9879 -1.041844,-2.01975 z m 27.41746,0.16443 c -0.11693,-0.3047 -0.31928,-0.44731 -0.44969,-0.31691 -0.42559,0.42559 -0.42091,1.4163 0.009,1.93857 0.35517,0.43133 0.43908,0.38786 0.53703,-0.27823 0.0639,-0.43418 0.0204,-1.03872 -0.0965,-1.34343 z m -18.18765,1.31087 c 0,-0.19402 -0.16812,-0.35277 -0.3736,-0.35277 -0.20548,0 -0.27549,0.15875 -0.15557,0.35277 0.11992,0.19403 0.28804,0.35278 0.3736,0.35278 0.0856,0 0.15557,-0.15875 0.15557,-0.35278 z m -0.35278,-2.31659 c 0,-0.10996 -0.42286,-0.75432 -0.93968,-1.43191 -0.99403,-1.30325 -2.49151,-2.24986 -3.17255,-2.0055 -0.663222,0.23797 -1.589222,-1.33696 -1.11912,-1.9034 0.21615,-0.26044 0.294266,-0.57227 0.173591,-0.69295 -0.333192,-0.33319 -2.350576,-0.42646 -2.350576,-0.10868 0,0.15312 0.573313,0.9646 1.274032,1.80331 0.700719,0.8387 1.408007,1.8773 1.571756,2.30798 0.163745,0.43069 0.715229,1.05663 1.225517,1.39098 0.78817,0.51643 0.97444,0.53248 1.23771,0.10665 0.26136,-0.42275 0.40665,-0.40457 0.92743,0.11609 0.60814,0.60798 1.17189,0.80879 1.17189,0.41743 z m -2.82222,-1.56396 c -0.31796,-0.20548 -0.36147,-0.34413 -0.10902,-0.34738 0.23108,-0.003 0.51827,0.15335 0.63818,0.34738 0.27069,0.43798 0.14856,0.43798 -0.52916,0 z m 3.52777,-2.09098 c 0,-0.35102 -0.81751,-1.69719 -1.81669,-2.99148 l -1.8167,-2.35327 -1.622886,0.23529 c -1.861781,0.26992 -1.953147,0.31606 -1.637393,0.82697 0.300503,0.48622 1.703948,0.48597 2.190309,-3.6e-4 0.49377,-0.49376 3.80588,2.96351 3.85967,4.02883 0.0612,1.21283 0.11786,1.34087 0.49092,1.11031 0.19402,-0.11992 0.35277,-0.50523 0.35277,-0.85625 z m -2.96333,-1.64847 c -0.12555,-0.32718 -0.30765,-0.5155 -0.40466,-0.41848 -0.097,0.097 -0.0737,0.44408 0.0519,0.77126 0.12555,0.32718 0.30765,0.5155 0.40466,0.41849 0.097,-0.097 0.0737,-0.44409 -0.0519,-0.77127 z m 3.31611,-4.00084 c 0,-0.37661 -0.15875,-0.78285 -0.35278,-0.90277 -0.20008,-0.12365 -0.35277,0.17273 -0.35277,0.68474 0,0.49652 0.15875,0.90276 0.35277,0.90276 0.19403,0 0.35278,-0.30813 0.35278,-0.68473 z m -10.93611,-1.05834 c 0,-0.18257 -0.15875,-0.43007 -0.352777,-0.54998 -0.194028,-0.11992 -0.352778,0.0295 -0.352778,0.33195 0,0.3025 0.15875,0.54999 0.352778,0.54999 0.194027,0 0.352777,-0.14938 0.352777,-0.33196 z m 19.75556,-80.806934 c 0,-0.194028 -0.2475,-0.352778 -0.54999,-0.352778 -0.30249,0 -0.45187,0.15875 -0.33196,0.352778 0.11992,0.194027 0.36741,0.352777 0.54999,0.352777 0.18258,0 0.33196,-0.15875 0.33196,-0.352777 z m -1.02053,-5.780593 c -0.40885,-0.4352 -0.74336,-0.954872 -0.74336,-1.15483 0,-0.651065 -1.39934,-1.684127 -1.7739,-1.309574 -0.22629,0.226294 0.23456,0.953942 1.33126,2.10195 0.92255,0.965715 1.73406,1.620365 1.80336,1.454781 0.0693,-0.165579 -0.20851,-0.657129 -0.61736,-1.092327 z m 3.63751,-1.136318 c 0.72409,-0.277859 0.71146,-0.983923 -0.0285,-1.594755 -0.45726,-0.377461 -0.61924,-0.386981 -0.73495,-0.0432 -0.0816,0.242535 -0.3789,0.440972 -0.6606,0.440972 -0.40286,0 -0.43159,0.150591 -0.13458,0.705556 0.40136,0.749953 0.66682,0.833649 1.55865,0.491423 z m 0.9108,-3.666423 c 0,-0.194028 -0.3175,-0.352778 -0.70556,-0.352778 -0.4949,0 -0.70717,-0.236986 -0.71096,-0.79375 -0.004,-0.6024 -0.0813,-0.673895 -0.32014,-0.296575 -0.55543,0.877402 -0.0118,1.525441 1.47207,1.754958 0.14552,0.02251 0.26459,-0.117827 0.26459,-0.311855 z m -5.64445,-1.60832 c 0,-0.279591 -0.23813,-0.508347 -0.52917,-0.508347 -0.53136,0 -0.7252,0.744711 -0.30357,1.166335 0.32923,0.329227 0.83274,-0.06862 0.83274,-0.657988 z m 8.11389,-1.046245 c 0,-0.295844 -0.38888,-0.68575 -0.86417,-0.866458 -0.60062,-0.228354 -0.98134,-0.763648 -1.24833,-1.755157 -0.42528,-1.579399 -1.0625,-1.913195 -1.0625,-0.556577 0,0.512666 0.53742,1.454522 1.3084,2.293056 1.39967,1.522296 1.8666,1.743714 1.8666,0.885136 z m -6.15809,-1.177082 c -0.12391,-0.3904 -1.01153,-1.547269 -1.97249,-2.57082 -1.31442,-1.400032 -1.74227,-1.689557 -1.72729,-1.168852 0.0476,1.653773 0.88857,3.082852 2.27315,3.862708 1.58966,0.895368 1.74559,0.88192 1.42663,-0.123036 z m -5.1308,0.358545 c 0,-0.163956 -0.30831,-0.577122 -0.68514,-0.918147 -0.5122,-0.463535 -0.91292,-0.544122 -1.5875,-0.319259 -1.26213,0.42071 -1.27109,0.958283 -0.0204,1.225721 1.58804,0.339579 2.29305,0.343172 2.29305,0.01168 z m 13.05278,-1.642176 c 0,-0.548766 -0.19991,-0.881945 -0.52917,-0.881945 -0.52913,0 -0.73777,1.084918 -0.29398,1.528704 0.47964,0.479638 0.82315,0.209738 0.82315,-0.646759 z m -13.03883,-1.215129 c -0.81772,-1.148383 -2.13062,-2.053117 -2.13062,-1.468235 0,0.499724 2.44221,3.004582 2.68891,2.757885 0.11565,-0.115658 -0.13557,-0.696001 -0.55829,-1.28965 z m 9.53384,-6.116318 c -0.64667,-0.624372 -1.05147,-0.897096 -0.89957,-0.606054 0.45244,0.866854 1.68847,2.128122 1.88902,1.92758 0.10247,-0.102468 -0.34279,-0.697154 -0.98945,-1.321526 z m -8.87163,-0.694249 c -0.0808,-0.04851 -0.58356,-0.473054 -1.11713,-0.943439 -0.67392,-0.594108 -0.96995,-0.701823 -0.96951,-0.352777 7.1e-4,0.477171 1.77606,1.75696 2.08664,1.50409 0.0808,-0.06582 0.0808,-0.159367 0,-0.207874 z m -4.21534,-3.406882 c -0.95664,-0.804554 -1.45404,-0.98612 -2.28165,-0.832876 -0.58209,0.107781 -1.11392,0.241976 -1.18186,0.29821 -0.27033,0.223775 0.37387,0.854742 0.87267,0.854742 0.29212,0 0.94154,0.487745 1.44315,1.083876 l 0.91202,1.083877 0.72949,-0.729494 0.7295,-0.729494 z m 6.54968,1.391549 c -0.93963,-1.038288 -0.45707,-1.892124 0.90083,-1.59388 1.02295,0.224678 1.06542,0.19399 0.69343,-0.501073 -0.21794,-0.407225 -0.43259,-0.740409 -0.47701,-0.740409 -0.0444,0 -0.89979,-0.299362 -1.90081,-0.66525 -1.77898,-0.650239 -1.84454,-0.650356 -2.90544,-0.0052 -0.59697,0.363037 -1.08539,0.882436 -1.08539,1.154222 0,0.428006 1.9506,1.632881 2.64351,1.632881 0.1341,0 0.64745,0.3175 1.14078,0.705556 1.1517,0.905928 1.80592,0.91461 0.9901,0.01314 z m -6.39074,-3.755049 c 1.21394,-0.465835 0.45308,-0.873862 -1.44259,-0.773612 -2.49726,0.132065 -3.10669,0.987744 -0.70348,0.987744 0.87343,0 1.83916,-0.09636 2.14607,-0.214132 z m 11.51475,256.652104 c -0.66775,-0.1429 -2.46202,-0.37028 -3.98726,-0.5053 -2.21556,-0.19612 -2.98225,-0.42141 -3.81299,-1.12043 -0.5719,-0.48122 -1.03982,-1.15669 -1.03982,-1.50104 0,-0.63718 1.60997,-2.48619 2.16478,-2.48619 0.16756,0 0.30467,-0.21264 0.30467,-0.47254 0,-0.83705 4.40771,-2.34968 6.84683,-2.34968 0.98248,0 2.75219,-0.70623 6.28936,-2.50986 0.33691,-0.1718 0.82824,-0.31236 1.09185,-0.31236 0.61209,0 1.64696,-1.13342 1.64696,-1.8038 0,-0.28244 0.43656,-0.77411 0.97014,-1.09261 1.6765,-1.00073 3.7217,-3.36006 3.82067,-4.4075 0.19724,-2.08745 0.6397,-3.82144 1.09,-4.27175 0.73455,-0.73455 0.58148,-2.76317 -0.7104,-9.41462 -1.00307,-5.16452 -1.61266,-7.0156 -2.53646,-7.70234 -0.47853,-0.35573 -0.87006,-0.88673 -0.87006,-1.18001 0,-0.29327 -1.01197,-2.78034 -2.24883,-5.52682 -1.23685,-2.74649 -2.36251,-5.6274 -2.50147,-6.40203 -0.13895,-0.77464 -0.35232,-1.56839 -0.47415,-1.76389 -0.71669,-1.15012 -1.93645,-5.23692 -2.07912,-6.96607 -0.13432,-1.62808 -0.37313,-2.24513 -1.2196,-3.15127 -2.78152,-2.97763 -6.1622,-6.89936 -6.55808,-7.60765 -0.24254,-0.43393 -0.44097,-1.60525 -0.44097,-2.60293 0,-1.74106 -0.0888,-1.90813 -2.20957,-4.15623 -1.38865,-1.47205 -2.39714,-2.91062 -2.71445,-3.87209 -0.60041,-1.81926 -1.85086,-2.83384 -2.66247,-2.16026 -0.29007,0.24073 -0.5274,0.72787 -0.5274,1.08253 0,0.35466 -0.21264,0.77178 -0.47253,0.92694 -0.25989,0.15517 -1.05525,1.20053 -1.76746,2.32304 -0.71222,1.1225 -1.53738,2.13394 -1.83368,2.24764 -0.686128,0.26329 -1.607555,2.43706 -1.334576,3.14843 0.117249,0.30555 -0.252875,1.18365 -0.85138,2.01983 -1.19683,1.67213 -1.792203,3.72742 -1.187933,4.10088 0.276059,0.17062 0.217293,0.84906 -0.202449,2.33718 -0.721748,2.55884 -0.790991,10.15679 -0.107597,11.80665 0.396265,0.95666 0.315493,7.6921 -0.135273,11.28041 -0.06094,0.48507 -0.139816,1.59632 -0.175295,2.46945 -0.06149,1.51333 -0.189378,1.69463 -2.737439,3.88055 -2.033496,1.7445 -2.878836,2.75487 -3.53362,4.22348 -0.473375,1.06173 -1.638903,2.82517 -2.590063,3.91874 -0.951163,1.09357 -1.840583,2.44738 -1.97649,3.00847 -0.135912,0.56108 -0.541458,1.44153 -0.901221,1.95655 -0.359759,0.51502 -0.65411,1.08893 -0.65411,1.27534 0,0.18642 -0.302768,0.72385 -0.672818,1.19429 -0.370049,0.47044 -0.783346,1.59242 -0.918439,2.49328 -0.274969,1.83362 -0.79423,2.23413 -1.896022,1.46241 -0.989337,-0.69297 -0.945737,-1.08789 0.344756,-3.12279 0.599948,-0.94601 1.174062,-2.28678 1.275814,-2.97948 0.202558,-1.37896 1.156462,-2.96361 3.718793,-6.17772 0.921632,-1.15607 1.675694,-2.41538 1.675694,-2.79847 0,-0.66398 -0.03999,-0.65896 -0.855828,0.10748 -0.794593,0.74648 -1.613616,0.75632 -1.613616,0.0194 0,-1.07734 4.203474,-5.63769 5.197528,-5.63881 0.239268,-2.6e-4 0.838415,-0.75455 1.33144,-1.67618 0.493024,-0.92163 1.187855,-2.15764 1.544073,-2.74668 1.388237,-2.2956 1.664589,-7.08709 0.772192,-13.38856 -0.18867,-1.33224 -0.231969,-2.5926 -0.09622,-2.8008 0.135749,-0.2082 0.2898,-2.60104 0.342332,-5.31743 0.209776,-10.8472 0.134652,-10.35423 1.991064,-13.06544 0.909881,-1.32885 1.963564,-2.63269 2.341517,-2.89741 0.377952,-0.26473 0.687182,-0.70493 0.687182,-0.97822 0,-0.27328 0.448148,-1.01834 0.995882,-1.65568 0.547732,-0.63735 1.583942,-2.13921 2.302692,-3.33748 0.71874,-1.19827 1.43726,-2.23015 1.59669,-2.29306 0.37694,-0.14871 3.5714,-5.70892 3.5714,-6.21627 0,-0.21347 0.39688,-0.81637 0.88195,-1.33977 0.48507,-0.5234 0.88194,-1.30589 0.88194,-1.73887 0,-0.43297 0.25531,-0.99911 0.56734,-1.25808 0.47754,-0.39632 0.63138,-0.38329 0.97186,0.0824 0.30765,0.42073 0.5479,0.46277 1.00324,0.17555 1.02217,-0.64477 1.14337,0.0585 0.34291,1.98978 -0.42278,1.02001 -0.76868,2.05931 -0.76868,2.30954 0,0.25024 -0.14139,0.3676 -0.31419,0.2608 -0.37817,-0.23372 -1.4497,1.31316 -1.4497,2.09282 0,0.42619 0.14795,0.4748 0.64138,0.21073 0.48102,-0.25743 1.2087,-0.0745 2.91042,0.7318 1.24797,0.59128 2.33421,1.13606 2.41387,1.21062 0.30202,0.28273 -1.16541,1.55101 -1.79457,1.55101 -0.36214,0 -0.83408,-0.38548 -1.04875,-0.85662 -0.21467,-0.47114 -0.64783,-0.85433 -0.96258,-0.85153 -0.31475,0.003 -0.92946,-0.10648 -1.36602,-0.24285 -0.50275,-0.15705 -0.79375,-0.10107 -0.79375,0.15269 0,0.25744 -0.3348,0.31662 -0.93668,0.16555 -0.84179,-0.21127 -0.91554,-0.15422 -0.72796,0.5631 0.11481,0.439 0.0329,1.07979 -0.18207,1.42397 -0.59457,0.95205 1.56838,5.09647 3.22613,6.18157 0.69653,0.45592 1.88708,1.3662 2.64566,2.02284 1.32233,1.14463 1.36248,1.24198 0.97305,2.3591 -0.70695,2.02796 -0.18852,3.57347 2.00611,5.98048 1.09538,1.20138 2.38847,2.4083 2.87354,2.68204 1.28624,0.72586 2.57302,1.29162 3.15601,1.38762 0.2806,0.0462 0.67747,0.35862 0.88194,0.69425 0.30042,0.49311 0.16863,0.77505 -0.68656,1.46885 -0.58208,0.47224 -1.29646,0.77867 -1.5875,0.68097 -0.43154,-0.14487 -0.42576,-0.0961 0.0314,0.26419 0.9938,0.78338 1.81651,2.96063 1.56,4.12848 -0.14952,0.68078 -0.0965,1.07586 0.14451,1.07586 0.20945,0 0.38081,0.46688 0.38081,1.03751 0,0.57064 0.15875,1.13563 0.35278,1.25555 0.19402,0.11991 0.35277,0.52127 0.35277,0.8919 0,0.37063 0.30454,1.27407 0.67674,2.00765 0.62253,1.22694 2.35267,4.93906 3.91011,8.38934 0.35033,0.77611 0.84488,2.04611 1.099,2.82222 0.25412,0.77611 0.74564,1.83249 1.09226,2.34751 0.34663,0.51502 0.63023,1.08595 0.63023,1.26872 0,0.18277 0.27136,0.87264 0.60302,1.53304 0.33167,0.6604 0.66848,2.20575 0.74847,3.43412 0.11242,1.72623 0.40445,2.6635 1.28603,4.1275 0.70524,1.17117 1.22287,2.58889 1.35616,3.71439 0.26311,2.22156 -0.30885,5.1348 -1.0651,5.425 -0.43924,0.16855 -0.50737,0.54615 -0.33087,1.83385 0.19192,1.40016 0.0995,1.77256 -0.67683,2.72707 -2.29274,2.81897 -3.34706,4.20511 -3.25537,4.27991 0.0549,0.0448 0.45338,0.2653 0.88557,0.4901 0.65933,0.34293 0.75281,0.32271 0.58077,-0.12563 -0.29072,-0.75759 0.82481,-1.08818 1.55698,-0.46143 1.72569,1.47724 6.45723,2.22492 8.65288,1.36735 0.54621,-0.21334 1.43958,-0.38789 1.98528,-0.38789 1.33174,0 2.06695,-0.87722 1.49831,-1.78775 -0.23087,-0.36967 -0.41976,-0.89099 -0.41976,-1.1585 0,-0.26751 -0.3095,-0.87985 -0.68778,-1.36075 -0.37828,-0.48091 -0.67758,-1.17701 -0.6651,-1.54688 0.0358,-1.06077 -0.39191,-5.69599 -0.81071,-8.7864 -0.95842,-7.07235 0.37897,-13.83145 2.33047,-11.7781 0.65331,0.68741 0.96327,10.1906 0.33237,10.1906 -0.95451,0 0.0626,8.4264 1.34865,11.17348 0.19738,0.4216 0.96336,1.49806 1.70218,2.39213 1.80492,2.18421 2.29465,4.51016 1.77016,8.40739 -0.21221,1.57688 -0.52047,3.00168 -0.68501,3.16622 -0.16454,0.16454 -0.83821,0.38673 -1.49705,0.49376 -1.7966,0.29186 -8.09485,0.26553 -9.37672,-0.0392 -0.86943,-0.20669 -1.5778,-0.052 -3.13473,0.68455 -2.04844,0.96906 -2.33058,0.97959 -5.38295,0.20082 -1.41048,-0.35987 -1.60779,-0.32168 -2.5847,0.50034 -0.67795,0.57046 -1.52287,0.90318 -2.35351,0.92678 -5.99113,0.17026 -7.44694,0.15857 -8.50717,-0.0683 z m 13.73339,-3.84098 c 0.67536,-1.26194 1.67472,-1.49173 6.13128,-1.40985 2.354,0.0432 4.51811,0.0672 4.80916,0.0532 4.77024,-0.22891 5.64444,-0.71787 5.64444,-3.15702 0,-1.46483 -0.055,-1.55812 -0.79375,-1.3453 -4.4259,1.27505 -11.88169,1.6604 -13.72116,0.70918 -0.53475,-0.27653 -1.16609,-0.50278 -1.40299,-0.50278 -0.23689,0 -0.69292,-0.2373 -1.0134,-0.52733 -0.51917,-0.46984 -0.74087,-0.4509 -2.03382,0.17379 -0.79812,0.38561 -1.54997,0.86103 -1.67077,1.05649 -0.1208,0.19546 -0.51491,0.35538 -0.87579,0.35538 -0.36088,0 -1.10557,0.23001 -1.65487,0.51114 -0.5493,0.28112 -1.23685,0.59761 -1.5279,0.70331 -0.29104,0.10569 -0.76729,0.32726 -1.05833,0.49236 -1.82868,1.0374 -2.43511,1.23003 -3.65277,1.16033 -1.2949,-0.0741 -3.05001,0.68631 -3.05001,1.32149 0,0.43966 9.34701,0.74224 11.6002,0.37553 1.58245,-0.25756 2.06965,-0.21772 2.49104,0.20366 0.71711,0.71712 1.335,0.65683 1.77944,-0.17362 z m -47.806657,-31.7736 c -0.209814,-0.33949 0.69238,-2.10116 1.076054,-2.10116 0.09254,0 0.168257,0.55563 0.168257,1.23473 0,1.21913 -0.717539,1.71876 -1.244311,0.86643 z m 54.249347,-4.50639 c -1.09784,-1.30198 -1.68446,-2.51953 -2.50703,-5.20347 -0.88202,-2.87791 -1.52475,-6.08272 -1.62147,-8.08507 -0.009,-0.19138 0.23399,-0.39625 0.54052,-0.45529 0.73398,-0.14135 1.55838,1.75509 2.3428,5.38934 0.0838,0.38806 0.17987,1.26118 0.21358,1.94028 0.0337,0.6791 0.25973,1.36167 0.50226,1.51683 0.24254,0.15517 0.44097,0.52024 0.44097,0.81127 0,0.78316 1.0151,2.65481 2.02638,3.73626 0.90521,0.96802 0.89476,2.04953 -0.0198,2.04953 -0.26676,0 -1.12995,-0.76486 -1.91821,-1.69968 z m -50.679599,-4.86953 c -0.12072,-0.3146 0.184447,-1.42585 0.678149,-2.46945 0.661599,-1.39851 1.09051,-1.89745 1.631103,-1.89745 0.619524,0 0.696567,0.14701 0.495939,0.94638 -0.294192,1.17216 -1.921895,3.99251 -2.304183,3.99251 -0.154834,0 -0.380287,-0.2574 -0.501008,-0.57199 z m 42.814049,-21.91156 c -1.81955,-2.86914 -2.40217,-4.41946 -2.65376,-7.06159 -0.23335,-2.45045 -0.21208,-2.55764 0.50758,-2.55764 0.61147,0 0.75185,0.21318 0.75496,1.14652 0.007,2.19759 2.02815,7.28345 3.32005,8.35564 0.8105,0.67266 0.71284,1.78673 -0.15664,1.78673 -0.46628,0 -1.08003,-0.57824 -1.77219,-1.66966 z m -33.6298,-13.76437 c 0.389777,-1.61434 4.562849,-8.90764 5.09676,-8.90764 0.56708,0 0.37902,0.81623 -0.690883,2.99861 -0.570731,1.16417 -1.329273,2.72922 -1.685653,3.47788 -1.356858,2.85043 -1.724791,3.38624 -2.33038,3.39365 -0.503297,0.006 -0.578749,-0.18013 -0.389844,-0.9625 z m 15.21323,-3.81825 c -1.08994,-0.71376 -1.73857,-1.56161 -1.19468,-1.56161 1.04816,0 4.0322,0.84948 4.51323,1.28481 1.53725,1.39119 -1.26047,1.62454 -3.31855,0.2768 z m 0.66494,-3.70389 c -1.01444,-0.79795 -1.20439,-1.3855 -0.44793,-1.3855 0.59013,0 2.34063,1.33832 2.34063,1.78949 0,0.55774 -0.9196,0.36145 -1.8927,-0.40399 z m 4.62673,-3.04194 c -1.27372,-0.87468 -1.76129,-1.87134 -0.91546,-1.87134 0.24378,0 0.17293,-0.25914 -0.17639,-0.64514 -1.19715,-1.32284 -0.49992,-1.4787 1.69997,-0.38003 1.40143,0.69991 1.47915,0.8204 1.47915,2.29306 0,1.79261 -0.25026,1.86496 -2.08727,0.60345 z m -14.51069,-0.67595 c 0.12717,-0.5067 0.40801,-1.81639 0.62408,-2.91042 0.21607,-1.09402 0.55161,-1.94221 0.74564,-1.88486 0.51166,0.15125 0.26018,3.22857 -0.37348,4.57003 -0.65016,1.3764 -1.32336,1.52862 -0.99624,0.22525 z m 11.2475,-1.90095 c 0.11991,-0.19402 0.28803,-0.35277 0.37359,-0.35277 0.0856,0 0.15557,0.15875 0.15557,0.35277 0,0.19403 -0.16812,0.35278 -0.3736,0.35278 -0.20548,0 -0.27548,-0.15875 -0.15556,-0.35278 z M 95.775872,125.07757 c -0.231186,-0.27856 -0.438514,-1.43715 -0.460732,-2.57466 -0.02222,-1.1375 -0.238626,-2.30631 -0.480913,-2.59735 -0.242288,-0.29105 -0.548937,-1.34105 -0.681444,-2.33334 -0.190514,-1.42668 -0.131593,-1.84612 0.281616,-2.00468 0.751297,-0.2883 1.550712,0.76441 1.820806,2.39774 0.128344,0.77611 0.530818,2.20486 0.89439,3.175 0.86468,2.30728 0.766167,4.19489 -0.226427,4.33855 -0.399827,0.0579 -0.916114,-0.1227 -1.147296,-0.40126 z m 5.005708,-10.67567 c -0.24958,-0.65039 0.60359,-1.32829 1.07651,-0.85537 0.38506,0.38506 0.0316,1.42013 -0.48487,1.42013 -0.2062,0 -0.47244,-0.25414 -0.59164,-0.56476 z M 117.8266,92.144111 c -0.12408,-0.124079 -0.2256,-0.511052 -0.2256,-0.859942 0,-0.348894 -0.33536,-0.81383 -0.74526,-1.033201 -0.65222,-0.349056 -0.71141,-0.581819 -0.47411,-1.864495 0.14913,-0.806104 0.36543,-2.338768 0.48067,-3.405921 0.16851,-1.560343 0.33043,-1.930682 0.8269,-1.891281 0.44041,0.03496 0.61736,-0.210661 0.61736,-0.856897 0,-0.498242 0.18787,-1.425448 0.41749,-2.060455 0.34255,-0.947314 0.31798,-1.363412 -0.13691,-2.318103 -0.55106,-1.156508 -1.33891,-3.464691 -1.33891,-3.922617 0,-0.131745 0.30001,-0.239536 0.6667,-0.239536 0.72101,0 1.58056,1.556773 2.84344,5.149882 0.81797,2.327271 0.90915,3.721262 0.3159,4.829753 -0.22401,0.418568 -0.44964,1.820246 -0.50141,3.114841 -0.0721,1.803136 -0.30359,2.685655 -0.98952,3.772239 -0.97373,1.542486 -1.408,1.934478 -1.75674,1.585733 z M 91.377854,72.398143 c -0.129353,-0.12935 -0.235186,-0.674349 -0.235186,-1.211104 0,-0.723858 0.396621,-1.300921 1.535638,-2.234258 2.450307,-2.007842 3.294839,-1.520984 1.796542,1.035671 -1.175321,2.005531 -2.483386,3.023302 -3.096994,2.409691 z m 10.342656,-1.71171 c -0.36308,-0.43748 -0.33473,-0.65725 0.15446,-1.197804 0.70651,-0.780683 2.12189,-1.138781 4.78992,-1.211869 1.73038,-0.0474 1.95186,0.02805 2.04736,0.697477 0.0969,0.678942 -0.11047,0.773927 -2.17086,0.994576 -1.25286,0.134172 -2.57105,0.466026 -2.9293,0.737457 -0.84891,0.643181 -1.34565,0.63797 -1.89158,-0.01983 z m 8.78399,-1.74396 c -1.27791,-0.84721 -1.88525,-1.758351 -1.54212,-2.313542 0.27653,-0.447428 1.84469,-0.181913 2.54868,0.431536 0.34203,0.298047 1.09814,0.694912 1.68022,0.881923 0.68954,0.22153 1.05833,0.575627 1.05833,1.016169 0,1.050393 -2.15039,1.041157 -3.74511,-0.01609 z m -5.47592,-9.891089 c -0.30859,-0.80415 0.1248,-1.603883 0.74101,-1.36742 0.71787,0.27547 0.71982,1.896587 0.002,1.896587 -0.29713,0 -0.63161,-0.238125 -0.7433,-0.529167 z"
       style="fill:#000000;stroke-width:0.35277781" />
  </g>
</svg>
