<?xml version="1.0" encoding="UTF-8" standalone="no"?>
<svg
   xmlns:dc="http://purl.org/dc/elements/1.1/"
   xmlns:cc="http://creativecommons.org/ns#"
   xmlns:rdf="http://www.w3.org/1999/02/22-rdf-syntax-ns#"
   xmlns:svg="http://www.w3.org/2000/svg"
   xmlns="http://www.w3.org/2000/svg"
   id="svg8"
   version="1.1"
   viewBox="0 0 86.698085 156.37771"
   height="156.37772mm"
   width="86.69809mm">
  <defs
     id="defs2" />
  <metadata
     id="metadata5">
    <rdf:RDF>
      <cc:Work
         rdf:about="">
        <dc:format>image/svg+xml</dc:format>
        <dc:type
           rdf:resource="http://purl.org/dc/dcmitype/StillImage" />
        <dc:title></dc:title>
      </cc:Work>
    </rdf:RDF>
  </metadata>
  <g
     transform="translate(18.482862,-38.321463)"
     id="layer1">
    <path
       id="path1216"
       d="m -9.0859834,194.35872 c -0.385319,-0.38532 -0.78435,-0.42736 -1.6633596,-0.17526 -1.387449,0.39791 -2.174337,0.15792 -2.174337,-0.66315 0,-0.8074 1.239373,-1.83963 3.5588196,-2.96401 1.05008,-0.50904 2.425749,-1.22718 3.057044,-1.59586 1.372978,-0.80185 6.43691404,-5.94042 6.43691404,-6.53178 0,-0.22858 0.573753,-1.2851 1.27500596,-2.34782 0.701253,-1.06273 1.415331,-2.29898 1.586839,-2.74721 0.171509,-0.44824 0.463948,-0.72097 0.649865,-0.60607 0.385407,0.2382 0.186574,0.89131 -0.808516,2.65577 -0.382986,0.67909 -1.190341,2.18722 -1.794121,3.35139 -1.50886896,2.90929 -2.062812,3.70416 -2.581433,3.70416 -0.244368,0 -0.444307,0.30527 -0.444307,0.67837 0,0.44311 -0.699638,1.11599 -2.017434,1.94027 -1.109589,0.69406 -2.168652,1.26192 -2.353473,1.26192 -0.18482,0 -0.586662,0.2164 -0.892981,0.48088 -0.30632,0.26449 -1.311008,0.76231 -2.23264,1.10627 -0.9216316,0.34395 -1.6756936,0.76255 -1.6756936,0.93022 0,0.48147 0.681371,0.35978 2.0686336,-0.36942 0.705515,-0.37085 2.394005,-1.17459 3.752199,-1.78609 1.358195,-0.61149 2.826007,-1.44641 3.261804,-1.85536 0.435797,-0.40895 0.882755,-0.65315 0.993239,-0.54266 0.40263104,0.40263 -1.851631,2.0765 -4.519626,3.35598 -1.503715,0.72114 -2.734028,1.45446 -2.734028,1.62962 0,0.56974 2.678165,-0.0229 4.98177,-1.10238 1.237596,-0.57994 2.71061404,-1.16243 3.27337404,-1.2944 1.10100196,-0.25821 4.83099596,-2.81983 6.10817696,-4.19487 0.429757,-0.46269 0.964447,-1.61841 1.1882,-2.56827 0.223756,-0.94986 0.535047,-1.98382 0.691762,-2.29769 0.156711,-0.31387 0.46838,-1.26637 0.692594,-2.11667 0.687811,-2.6084 2.1141244,-4.19996 2.1141244,-2.35905 0,0.42595 0.382693,1.18001 0.850431,1.67569 0.683009,0.72383 0.899516,1.43949 1.099777,3.63528 0.161516,1.77095 0.123779,2.73403 -0.107128,2.73403 -0.488601,0 -0.784747,-0.88052 -0.784747,-2.33324 0,-1.44615 -0.715962,-3.2943 -1.541378,-3.97884 -0.7807014,-0.64745 -0.8672904,-0.51804 -1.2934144,1.93312 -0.441113,2.53738 -1.307973,5.04522 -2.032623,5.88043 -0.295635,0.34073 -0.441009,0.71603 -0.323052,0.83399 0.328864,0.32886 2.566238,-1.17408 2.928897,-1.96748 0.228074,-0.49896 0.468238,-0.61094 0.8277754,-0.38593 0.386835,0.24208 0.411156,0.43181 0.102958,0.80317 -0.423174,0.50989 -0.205856,2.037 0.289874,2.037 0.158324,0 0.380567,0.29208 0.493868,0.64907 0.22933,0.72256 1.828437,1.71496 2.186475,1.35692 0.126132,-0.12613 -0.149299,-0.94305 -0.612066,-1.81538 -0.798841,-1.50582 -0.810412,-1.61703 -0.228801,-2.19864 0.581614,-0.58162 0.612598,-0.56417 0.612598,0.34493 0,0.52665 -0.02826,0.99723 -0.06281,1.04574 -0.03454,0.0485 0.522859,0.72319 1.238677,1.49931 1.621829,1.75843 1.555838,2.4329 -0.252589,2.58155 -1.101086,0.0905 -1.566231,-0.0795 -2.413822,-0.88194 -0.577448,-0.54673 -1.194887,-1.36738 -1.372083,-1.82367 -0.223884,-0.5765 -0.5004304,-0.76121 -0.9064314,-0.60541 -0.321338,0.12331 -0.69294,0.0483 -0.825775,-0.1666 -0.166518,-0.26942 -0.413957,-0.21836 -0.796756,0.16444 -0.305378,0.30538 -0.727478,0.55524 -0.937997,0.55524 -0.21052,0 -0.658422,0.13793 -0.995338,0.3065 -0.336916,0.16858 -1.444848,0.72421 -2.462073,1.23473 -1.017224,0.51052 -2.069348,0.92821 -2.338054,0.92821 -0.26870596,0 -0.68269496,0.23392 -0.91997696,0.51983 -0.237282,0.28591 -1.00617,0.62766 -1.70863904,0.75944 -0.70247,0.13179 -2.075581,0.58828 -3.051358,1.01444 -2.503251,1.09326 -3.849502,1.30057 -4.462832,0.68724 z M 31.743163,185.4798 c -0.365823,-0.36583 0.251252,-2.42013 1.049906,-3.49524 0.785505,-1.05741 3.577431,-2.81354 3.923241,-2.46773 0.298133,0.29814 -0.465127,1.3196 -1.303524,1.74449 -1.03764,0.52588 -3.031945,2.97467 -2.696094,3.31052 0.139055,0.13906 0.560956,0.0604 0.937553,-0.17478 0.376597,-0.23519 1.482637,-0.42762 2.457866,-0.42762 2.053404,0 6.210823,-1.0723 7.543868,-1.94574 0.515863,-0.33801 1.072176,-1.16219 1.272395,-1.88507 0.735383,-2.65506 3.734661,-7.44044 6.970864,-11.12208 1.794757,-2.04179 3.263193,-3.8583 3.263193,-4.03669 0,-0.17838 0.37815,-1.01902 0.84033,-1.86807 0.46218,-0.84906 0.93301,-2.17874 1.04629,-2.95485 0.19225,-1.31721 0.12139,-1.46981 -1.06486,-2.29306 -2.700455,-1.87411 -3.138718,-2.11301 -3.879579,-2.11481 -0.420621,-10e-4 -1.554925,-0.39873 -2.520679,-0.8838 -0.96575,-0.48507 -2.169417,-0.88194 -2.674817,-0.88194 -0.505397,0 -0.918905,-0.15875 -0.918905,-0.35278 0,-0.19678 -0.955139,-0.35278 -2.159861,-0.35278 -1.879883,0 -2.102933,0.0686 -1.720695,0.52917 0.241543,0.29104 0.574142,0.52916 0.739108,0.52916 0.543673,0 4.363248,1.90656 5.011586,2.50156 0.45279,0.41554 0.568537,0.84959 0.402728,1.51024 -0.309482,1.23307 -0.861755,1.184 -0.861755,-0.0766 0,-0.55202 -0.277813,-1.2479 -0.617361,-1.5464 -0.962481,-0.84614 -3.304668,-1.91617 -4.781043,-2.18422 -0.737799,-0.13395 -1.421489,-0.45211 -1.519311,-0.70703 -0.101985,-0.26576 -1.034648,-0.56048 -2.186319,-0.69087 -1.831436,-0.20735 -4.916552,-1.16565 -6.532263,-2.02906 -0.353783,-0.18906 -1.306283,-0.68373 -2.116667,-1.09927 -0.810383,-0.41555 -1.552801,-0.84439 -1.649815,-0.953 -0.437645,-0.48992 -2.75759,-2.08672 -3.84737,-2.64811 -0.660844,-0.34042 -1.507581,-0.90408 -1.881639,-1.25257 -0.678734,-0.63234 -3.132127,-1.40804 -4.453343,-1.40804 -0.827458,0 -0.97591,0.60066 -1.656574,6.70278 -0.119038,1.06715 -0.361477,2.71601 -0.538752,3.66412 -0.558489,2.98692 -0.502973,3.16029 0.93719,2.92658 0.692732,-0.11241 1.647342,-0.0569 2.121355,0.12328 0.474017,0.18022 1.812237,0.48955 2.973822,0.6874 1.161587,0.19785 3.07486,0.52362 4.251716,0.72393 1.176856,0.2003 2.407169,0.49215 2.734028,0.64854 1.420795,0.67981 7.267385,2.46601 7.533471,2.30156 0.161018,-0.0995 0.292763,-0.58543 0.292763,-1.07981 0,-0.67471 0.139157,-0.84547 0.558021,-0.68473 0.306909,0.11777 0.714484,0.21413 0.905718,0.21413 0.191925,0 0.243067,0.32966 0.114152,0.73583 -0.208474,0.65685 -0.154228,0.69338 0.505393,0.34037 0.464167,-0.24842 0.738939,-0.26429 0.738939,-0.0427 0,0.48176 -1.343872,1.16635 -1.771181,0.90226 -0.190017,-0.11744 -0.345486,0.002 -0.345486,0.26591 0,1.33661 2.390154,1.8819 2.720005,0.62054 0.111421,-0.42608 0.481196,-0.70556 0.933506,-0.70556 0.699569,0 0.682918,0.0613 -0.252324,0.92848 -0.856675,0.79436 -0.961676,1.08739 -0.726871,2.02848 0.150951,0.60499 0.261843,1.6953 0.246426,2.42291 -0.01542,0.7276 0.04076,1.32291 0.124841,1.32291 0.391972,0 3.561063,-1.76564 4.211282,-2.34629 0.401761,-0.35878 1.393179,-1.63466 2.20315,-2.8353 0.809967,-1.20064 1.634,-2.28269 1.831178,-2.40456 0.197178,-0.12186 0.863169,-1.28264 1.47998,-2.57951 0.775416,-1.63035 1.165931,-2.15307 1.265545,-1.69399 0.213712,0.98487 -1.590358,4.21864 -4.33088,7.76304 -2.003704,2.59145 -2.755996,3.28722 -4.336765,4.01092 -2.226733,1.01943 -2.604745,1.69448 -3.267149,5.83443 -0.3591,2.24431 -0.354856,2.90928 0.02307,3.61544 0.58137,1.0863 0.293627,1.40212 -0.771864,0.84718 -1.119004,-0.58282 -1.093579,-0.53631 -0.693995,-1.26936 0.325882,-0.59785 0.958398,-5.04089 1.357739,-9.53727 0.157477,-1.77313 0.11496,-1.87744 -1.368146,-3.35654 -1.743241,-1.73854 -6.357677,-4.16208 -7.924627,-4.16208 -0.577314,0 -1.200471,-0.14312 -1.384798,-0.31805 -0.532603,-0.50546 -5.354768,-1.41618 -8.586139,-1.6216 -1.627632,-0.10347 -3.301456,-0.27399 -3.719607,-0.37894 -0.67321,-0.16897 -0.836271,0.0629 -1.423794,2.02423 -0.364931,1.21828 -0.872941,2.61634 -1.12891,3.10679 -0.255969,0.49046 -0.466376,1.01253 -0.467572,1.16017 -0.0011,0.14763 -0.31237,0.94138 -0.691504,1.76389 -0.432036,0.93727 -0.815753,2.90524 -1.02803,5.27248 -0.350597,3.90969 -0.55535,4.67648 -1.150518,4.30865 -0.4161364,-0.25719 -0.08865,-4.92432 0.575056,-8.1952 0.248448,-1.22441 0.371708,-2.53216 0.273915,-2.90613 -0.113926,-0.43565 0.04231,-0.7644 0.434869,-0.91504 0.722267,-0.27716 2.026959,-3.1007 2.585004,-5.5943 0.217106,-0.97014 0.650392,-3.90702 0.96285,-6.52639 0.983894,-8.24804 1.113138,-9.01766 1.707279,-10.1666 0.765824,-1.48095 1.049507,-1.42063 0.752962,0.1601 -0.223898,1.19346 -0.187046,1.26838 0.53147,1.08049 0.796431,-0.20828 6.011323,1.97852 7.043629,2.95365 2.225445,2.10218 7.480275,4.81012 11.127151,5.73409 2.167452,0.54914 7.231161,0.72802 12.232478,0.43212 2.641455,-0.15628 4.152328,-0.60269 4.152328,-1.22685 0,-0.52181 -1.125495,-0.76154 -1.625822,-0.34631 -1.088404,0.9033 -5.211096,-4.29132 -6.118497,-7.70935 -0.375941,-1.41611 -1.28385,-2.72679 -3.601215,-5.19884 -2.240905,-2.39049 -2.92777,-3.46851 -4.720252,-7.40834 -0.529653,-1.16416 -1.417306,-3.03089 -1.97256,-4.14829 -0.555255,-1.11739 -0.991225,-2.14927 -0.968827,-2.29305 0.177567,-1.13987 -0.101131,-1.88869 -0.660188,-1.77382 -0.355265,0.073 -0.573352,0.38352 -0.513701,0.73142 0.109273,0.63732 -1.124042,0.88401 -1.486609,0.29736 -0.259313,-0.41957 -2.047272,-0.77327 -4.790663,-0.94771 -1.26118,-0.0802 -3.120781,-0.23822 -4.132446,-0.35118 -1.793656,-0.20027 -1.845052,-0.18067 -2.067172,0.78856 -0.125278,0.54666 -0.44849,1.67417 -0.718248,2.50557 -0.269755,0.8314 -0.490467,1.72403 -0.490467,1.98363 0,0.25959 -0.339189,1.23878 -0.753752,2.17597 -0.80445,1.8186 -1.057314,5.99489 -0.53237,8.79266 0.262184,1.39736 0.249971,1.41841 -1.253028,2.1609 -0.851105,0.42044 -1.56452,1.04027 -1.624175,1.41111 -0.05851,0.36373 -0.260022,0.97882 -0.447812,1.36687 -0.187788,0.38806 -0.378041,2.89425 -0.422787,5.56933 -0.05659,3.38329 -0.212993,4.94505 -0.513824,5.13084 -0.237857,0.14689 -0.425295,0.73632 -0.416532,1.30984 0.03186,2.08367 -0.779307,5.20388 -1.226407,4.71754 -0.114233,-0.12426 0.470894,-4.72987 0.982285,-7.73171 0.08263,-0.48507 0.242026,-2.89224 0.354199,-5.34926 0.271925,-5.95619 0.67933,-6.98101 2.779808,-6.99256 0.899139,-0.005 0.947692,-0.0705 0.571913,-0.77269 -0.941102,-1.75847 0.0011,-9.89106 1.468134,-12.67456 0.163932,-0.311 0.534807,-2.14882 0.824166,-4.08405 0.515737,-3.44922 0.374477,-8.90969 -0.372537,-14.40049 -0.496178,-3.6471 0.07355,-5.22148 2.87055,-7.932441 1.260725,-1.22194 2.07936,-1.21809 1.314789,0.006 -0.613813,0.982861 -0.563637,1.047071 0.818172,1.047071 0.781939,0 1.321404,0.19703 1.448855,0.52917 0.111686,0.29104 0.590836,0.52917 1.064782,0.52917 0.473947,0 1.339956,0.2473 1.924463,0.54956 1.026234,0.53069 5.323657,0.55487 10.874206,0.0612 1.313092,-0.11678 4.059548,0.2241 8.048153,0.99893 0.436562,0.0848 1.201769,0.21296 1.700456,0.28479 1.107048,0.15945 1.728702,0.72658 1.392583,1.27043 -0.236206,0.38219 -1.995061,0.21287 -2.807706,-0.27029 -0.36523,-0.21715 -3.493798,-0.52535 -5.58764,-0.55046 -0.804884,-0.01 -1.27557,-0.16709 -1.187295,-0.39713 0.08044,-0.20964 -0.232269,-0.55979 -0.694916,-0.77813 -0.670341,-0.31636 -0.841177,-0.29877 -0.841177,0.0866 0,0.623 -1.111007,1.21395 -2.282275,1.21395 -0.504652,0 -1.306505,0.25485 -1.781894,0.56634 -0.756853,0.49591 -1.232804,0.51403 -3.827149,0.14577 -3.209181,-0.45555 -4.708663,-0.41373 -5.475665,0.15268 -0.750475,0.55421 -2.508018,0.546 -2.508018,-0.0117 0,-0.74749 1.20595,-1.20585 3.17263,-1.20585 2.008371,0 2.115502,-0.54189 0.178954,-0.90518 -0.665378,-0.12483 -1.393624,-0.44848 -1.618323,-0.71923 -0.750647,-0.90447 -3.849927,-0.27118 -3.849927,0.78668 0,0.25307 -0.3175,0.63005 -0.705556,0.83773 -0.734829,0.39327 -0.988293,1.76389 -0.326189,1.76389 0.208651,0 0.350577,0.43656 0.315394,0.97014 -0.03517,0.53357 -0.04715,1.80357 -0.0266,2.82222 0.03097,1.5347 0.146233,1.85208 0.672606,1.85208 0.725166,0 2.532884,0.77694 2.537023,1.09039 0.0057,0.43048 2.898782,3.14295 3.352242,3.14295 0.260128,0 0.763845,0.59531 1.119371,1.32291 0.599052,1.22599 0.78075,1.33643 2.479806,1.50734 1.143307,0.115 2.256592,0.4973 2.957738,1.01569 1.065354,0.78764 1.22694,0.8083 3.079606,0.39369 2.310945,-0.51716 4.825559,-1.54616 5.180026,-2.1197 0.418113,-0.67652 5.052216,-3.51536 6.999606,-4.28795 5.285158,-2.09677 8.04346,-2.43139 12.49339,-1.51563 1.29614,0.26674 1.39812,0.002 0.769,-1.99635 -0.54103,-1.71847 -1.28958,-3.05474 -2.90577,-5.18716 -0.78006,-1.02922 -2.0067,-3.01359 -2.72586,-4.40972 C 52.215815,93.186639 50.288427,90.087129 48.495833,88.417219 44.374707,84.578364 33.01892,77.365406 28.693131,75.839176 27.83708,75.537145 26.814653,75.000383 26.421073,74.646371 c -0.39358,-0.354013 -1.906224,-0.921583 -3.361433,-1.261272 -1.455208,-0.339687 -2.92149,-0.759051 -3.258407,-0.931918 -0.336903,-0.172868 -0.85284,-0.314305 -1.146514,-0.314305 -0.293673,0 -0.533954,-0.121973 -0.533954,-0.27105 0,-0.149078 -0.655944,-1.06189 -1.457653,-2.028473 -2.66096,-3.208193 -3.111927,-5.078152 -2.231718,-9.25395 0.197009,-0.934639 0.132087,-1.146528 -0.351307,-1.146528 -0.432438,0 -0.532352,0.191019 -0.369044,0.705556 0.228766,0.720777 -0.311245,0.990784 -0.705556,0.352777 -0.119916,-0.194027 -0.397344,-0.352777 -0.616507,-0.352777 -0.219163,0 -0.05104,0.323684 0.373599,0.719298 0.424642,0.395614 0.772075,0.871864 0.772075,1.058333 0,0.450511 -0.933256,0.430799 -1.80963,-0.03822 -0.493303,-0.264007 -0.83904,-0.265944 -1.15171,-0.0065 -0.6635474,0.550693 -2.1902354,-1.249841 -2.4908944,-2.937686 l -0.24602,-1.381118 0.908851,0.5955 c 0.869001,0.569394 0.908847,0.565477 0.908847,-0.08933 0,-1.059093 -0.37882,-1.800874 -0.919688,-1.800874 -0.270281,0 -0.491423,-0.15875 -0.491423,-0.352778 0,-0.577438 1.070381,-0.402878 2.3396124,0.38155 1.185651,0.732775 1.661929,1.639626 0.658999,1.254765 -0.291041,-0.111683 -0.529166,-0.04431 -0.529166,0.149718 0,0.585834 1.10805,0.820994 1.428132,0.30309 0.238647,-0.386139 0.479108,-0.313552 1.19773,0.361559 0.494524,0.464581 1.001251,0.742576 1.12606,0.617766 0.355141,-0.355141 -5.6119574,-5.879151 -6.3573034,-5.885238 -0.365806,-0.003 -1.031595,-0.36262 -1.479531,-0.799182 -1.805351,-1.759512 -2.190228,-2.038468 -3.350068,-2.428101 -0.664442,-0.22321 -1.462931,-0.62531 -1.774419,-0.893554 -0.311489,-0.268245 -0.82742596,-0.387531 -1.14652796,-0.26508 -0.329004,0.126251 -0.580185,0.04877 -0.580185,-0.178955 0,-0.65595 0.999142,-0.842344 2.09099596,-0.390082 0.766403,0.317454 1.205676,0.323118 1.766862,0.02278 0.60852,-0.32567 0.934944,-0.265793 1.762159,0.323236 0.558409,0.397623 1.228908,0.722161 1.489997,0.721198 0.693297,-0.0026 -1.53104,-1.734437 -2.246907,-1.74945 -0.332722,-0.007 -0.77487,-0.330189 -0.982551,-0.718245 -0.207681,-0.388055 -0.595343,-0.705555 -0.861472,-0.705555 -0.666918,0 -5.003882,1.970674 -5.264307,2.39205 -0.116274,0.188136 0.483213,0.536547 1.332193,0.774247 1.70436304,0.477192 4.08803,2.245686 4.08803,3.032998 0,0.755402 -1.528377,0.613891 -2.61683596,-0.242291 -1.40777204,-1.107353 -1.53207104,-0.519707 -0.158314,0.748457 1.03127496,0.952008 1.37344796,1.071343 2.59876096,0.906331 2.053427,-0.276532 2.833636,0.50637 2.78554,2.795153 -0.02039,0.970139 -0.240896,2.319514 -0.49002,2.998611 -0.249124,0.679097 -0.586315,1.59191 -0.749312,2.028472 -0.316548,0.847824 -0.867916,0.990455 -1.722596,0.445613 -0.42652,-0.271898 -0.446387,-0.459036 -0.102415,-0.964737 1.636038,-2.405278 2.193042,-3.721053 1.848084,-4.365613 -0.412291,-0.770373 -0.914181,-0.872921 -1.128308,-0.230541 -0.195122,0.585366 -3.79236196,0.60864 -3.79236196,0.02454 0,-0.229039 0.357188,-0.467165 0.79375,-0.529166 0.568327,-0.08071 0.82545196,-0.388248 0.90537696,-1.08287 0.06139,-0.533576 -0.03551,-0.970139 -0.21535396,-0.970139 -0.179839,0 -0.923612,-0.404884 -1.652827,-0.899743 -0.72921504,-0.494859 -1.58480604,-0.829186 -1.90131304,-0.742949 -0.452838,0.123382 -0.406323,0.211118 0.218284,0.411722 0.436563,0.14021 0.79375,0.478506 0.79375,0.751768 0,0.273263 0.47625,0.592091 1.05833304,0.708508 1.138071,0.227614 1.226012,0.370438 0.720361,1.169929 -0.279012,0.441151 -0.543381,0.395772 -1.79612004,-0.308307 l -1.468952,-0.825597 0.242053,1.102057 c 0.18556,0.844853 0.120819,1.102057 -0.277402,1.102057 -0.565521,0 -0.947717,-0.724909 -0.947717,-1.797529 0,-1.086695 -0.742519,-2.007307 -1.466328,-1.818026 -0.861114,0.225186 -0.827167,-0.424774 0.100587,-1.925912 0.603294,-0.97615 0.911075,-1.17483 1.565516,-1.010576 0.756262,0.18981 0.800625,0.118397 0.619568,-0.997327 -0.209141,-1.288786 0.181297,-1.682078 2.51074904,-2.529101 0.57037,-0.207395 1.107969,-0.58988 1.194664,-0.849965 0.10802,-0.324059 -0.03314,-0.399679 -0.448528,-0.24028 -0.333386,0.127933 -0.886382,0.232604 -1.22888104,0.232604 -0.342498,0 -1.004202,0.331512 -1.470452,0.736692 -0.913949,0.794239 -2.925046,1.732753 -3.713034,1.732753 -0.267346,0 -0.486084,-0.322482 -0.486084,-0.716628 0,-0.746606 -0.904832,-1.332294 -1.338131,-0.866157 -0.137153,0.147547 -0.05093,0.339138 0.191603,0.425758 0.900763,0.321701 0.419618,0.855619 -0.57432,0.637314 -1.159293,-0.254624 -3.5621536,1.132424 -4.0004226,2.309238 -0.139268,0.373956 -0.485758,0.679919 -0.769977,0.679919 -0.843081,0 -0.945516,1.084843 -0.381018,4.035204 0.293006,1.531409 0.440761,3.074178 0.328343,3.428376 -0.334943,1.055311 0.176737,1.480771 0.944849,0.785639 0.613381,-0.555102 0.863461,-0.56988 2.522616,-0.149061 2.0770216,0.526803 2.5573856,0.986836 1.8484426,1.770209 -0.26772,0.295828 -0.644766,0.953444 -0.837879,1.461369 -0.312318,0.821459 -0.198092,1.072921 1.033779,2.275811 0.761691,0.743772 1.384893,1.538781 1.384893,1.766687 0,0.227907 0.244853,0.617586 0.544118,0.865954 0.337537,0.28013 0.418885,0.576811 0.214263,0.781432 -0.433346,0.433346 -1.816714,-0.301556 -1.816714,-0.965113 0,-0.274573 -0.21495,-0.626175 -0.477667,-0.781337 -0.262716,-0.155162 -0.665177,-0.639301 -0.894356,-1.075863 -0.22918,-0.436563 -0.71806,-0.79375 -1.0864006,-0.79375 -0.467758,0 -0.703373,-0.29164 -0.781339,-0.967123 -0.06403,-0.554726 -0.358079,-1.013811 -0.68959,-1.076613 -0.455934,-0.08637 -0.660765,0.365995 -0.970138,2.142547 -0.215697,1.238621 -0.392176,2.450086 -0.392176,2.692144 0,0.580359 2.141869,0.156816 2.684725,-0.530889 0.4742206,-0.600757 1.5486076,-0.658329 1.5486076,-0.08298 0,0.227257 -0.250778,0.690301 -0.557284,1.028987 -0.438448,0.484479 -0.473415,0.772504 -0.163977,1.350694 0.425734,0.795492 0.904525,0.941808 1.250428,0.382125 0.34073,-0.551313 1.233328,-0.414118 1.479502,0.227403 0.137001,0.357019 -0.03349,0.767465 -0.443244,1.067085 -0.561728,0.410746 -0.597399,0.596558 -0.228056,1.18797 0.240803,0.385587 0.342452,1.081056 0.225887,1.545488 -0.302267,1.204327 0.832252,1.461336 3.118099,0.706353 2.044651,-0.675316 3.54520804,-1.692304 5.8221,-3.94587 1.324428,-1.31086 1.506962,-1.674309 1.417401,-2.822223 -0.07659,-0.981699 0.0321,-1.317595 0.426367,-1.317595 0.380169,0 0.559241,0.4669 0.635976,1.658204 0.104648,1.624661 0.06126,1.701814 -2.144684,3.814087 l -2.25149396,2.155883 0.778156,1.614579 c 0.51847496,1.075771 1.13607796,1.765071 1.85069796,2.065546 1.30326,0.54798 1.632989,0.312392 0.942504,-0.673414 -0.574981,-0.8209 -0.692229,-3.990268 -0.177713,-4.803835 0.495203,-0.78303 0.706113,-0.330554 0.898215,1.926985 0.167896,1.973065 1.736135,5.82391 2.371763,5.82391 0.157618,0 0.260804,-2.298305 0.229302,-5.107348 -0.0543,-4.842076 0.175005,-6.184652 1.05561,-6.180497 0.359721,0.0017 0.401341,10.526991 0.04533,11.463362 -0.20006,0.526197 -0.199655,0.936019 0.0011,1.060059 0.638073,0.394349 3.1402024,-1.247874 4.8206954,-3.163972 0.937373,-1.06879 1.823378,-1.94526 1.968898,-1.947708 0.145521,-0.0025 0.264584,0.366861 0.264584,0.820685 0,1.21927 -1.728823,3.280565 -3.441637,4.103508 -1.6256214,0.781043 -4.3194854,3.0439 -4.3194854,3.628376 0,0.198568 -0.225699,0.53728 -0.501552,0.7527 -0.759784,0.593327 -2.248324,4.445306 -2.621183,6.782996 -0.62344,3.90873 0.06227,7.90391 2.112114,12.305891 0.180703,0.38806 0.53354,1.40067 0.784081,2.25026 l 0.455531,1.5447 0.588667,-2.38545 c 0.323768,-1.312 0.814906,-2.83895 1.091416,-3.39323 0.276515,-0.55429 0.607703,-1.485641 0.73598,-2.069671 0.1809714,-0.82396 0.4245544,-1.06189 1.0871444,-1.06189 1.136788,0 1.067277,0.51874 -0.372233,2.777961 -0.9176104,1.44012 -1.1595074,2.13893 -1.0060314,2.90629 0.120171,0.60086 -0.0032,1.33363 -0.304122,1.80816 -0.278395,0.43883 -0.875087,1.82589 -1.325979,3.08236 -0.722972,2.01466 -0.820623,2.93136 -0.82674,7.76111 -0.0075,5.92863 0.05131,6.26287 2.192706,12.46091 1.4071394,4.07281 1.6621804,5.74124 1.2174934,7.96467 -0.388687,1.94344 -0.7684704,1.18667 -0.9958534,-1.98437 -0.122957,-1.71475 -0.529051,-3.87387 -0.913614,-4.85752 -0.380749,-0.97388 -0.69227,-2.15128 -0.69227,-2.61643 0,-0.46515 -0.109611,-0.73611 -0.243586,-0.60214 -0.133971,0.13397 -0.283629,1.35662 -0.332577,2.717 -0.0617,1.71489 -0.349408,3.04222 -0.938169,4.32825 -1.050132,2.29379 -1.178303,2.97603 -1.819552,9.68535 -0.56739,5.93652 -0.494844,13.96924 0.170889,18.92205 0.489649,3.64282 0.188263,9.96055 -0.530658,11.12379 -0.202314,0.32735 0.08125,0.78816 0.905822,1.472 1.018974,0.84507 1.092264,0.99691 0.485076,1.00497 -0.393389,0.005 -1.068077,-0.23764 -1.499305,-0.53968 -0.921902,-0.64573 -1.042525,-2.56668 -0.366647,-5.83896 0.339984,-1.64603 0.309166,-2.99137 -0.166146,-7.25318 -0.320953,-2.87777 -0.668402,-6.74043 -0.77211,-8.58369 -0.103708,-1.84327 -0.258675,-3.54094 -0.344371,-3.77262 -0.0857,-0.23167 -0.83889,-0.61818 -1.67376596,-0.85891 -1.51086,-0.43564 -3.24227904,-1.3657 -2.54242504,-1.3657 0.201984,0 1.20954504,0.25014 2.23902504,0.55586 1.16337096,0.34549 1.99683096,0.43081 2.20218996,0.22545 0.181724,-0.18172 0.462027,-2.37654 0.622896,-4.87739 0.274111,-4.26128 0.685874,-6.76626 1.385304,-8.42753 1.17831,-2.7987 1.626209,-5.13132 1.557991,-8.11389 -0.11603,-5.07297 0.0013,-4.903 -3.210043,-4.65137 -1.493008,0.117 -4.298419,0.6161 -6.234248,1.10913 -1.935828,0.49302 -4.285274,0.89641 -5.220991,0.89641 -1.7819536,0 -3.4130996,0.64134 -4.7570926,1.87043 -0.972277,0.88914 -2.513663,4.16646 -2.762755,5.87421 -0.100374,0.68816 -0.317789,1.72744 -0.483143,2.30953 -0.634579,2.23385 -0.703101,3.32495 -0.226374,3.60464 0.258659,0.15175 0.728966,0.78212 1.045128,1.40082 0.316161,0.6187 1.329856,1.90936 2.252655,2.86814 0.922799,0.95877 2.258445,2.39654 2.968102,3.19502 1.0302296,1.15919 1.8955386,1.66542 4.2932916,2.51173 1.651653,0.58295 3.255991,1.05992 3.565196,1.05992 0.309204,0 0.837847,0.15475 1.174763,0.34388 0.336916,0.18914 1.20788704,0.57791 1.93549104,0.86395 0.73654796,0.28955 1.32291696,0.76259 1.32291696,1.06723 0,0.69741 -0.838373,0.70811 -1.41111096,0.018 -0.241543,-0.29104 -0.8318,-0.52917 -1.311682,-0.52917 -0.47988104,0 -1.29388104,-0.22972 -1.80888704,-0.51048 -1.364977,-0.74413 -5.089236,-1.95895 -6.005564,-1.95895 -0.542913,0 -2.0472266,-1.29243 -4.8247116,-4.14514 -4.686088,-4.813 -5.501889,-6.29229 -4.787726,-8.68152 0.240164,-0.80346 0.657359,-2.57209 0.927099,-3.93029 0.646849,-3.257 1.781474,-6.12976 2.876952,-7.28416 0.93519,-0.9855 2.853652,-1.39453 8.9326976,-1.90454 1.452678,-0.12188 2.743292,-0.28467 2.868031,-0.36176 0.124739,-0.0771 1.93901304,-0.38053 4.03172,-0.67429 2.092707,-0.29377 3.894305,-0.6235 4.003551,-0.73275 0.109247,-0.10924 0.155789,-1.97475 0.103427,-4.14556 -0.06205,-2.5725 0.09637,-4.85617 0.454932,-6.55795 0.492034,-2.33526 0.493575,-2.67351 0.01459,-3.20278 -0.294547,-0.32547 -0.535541,-0.80381 -0.535541,-1.06298 0,-0.25916 -0.555625,-1.64178 -1.234722,-3.07249 -0.679098,-1.4307 -1.236607,-2.952401 -1.23891,-3.381561 -0.0023,-0.42916 -0.226373,-1.61492 -0.497933,-2.63502 -0.500926,-1.88169 -0.436322,-5.11497 0.149735,-7.49388 0.398474,-1.61748 1.212286,-3.79972 1.538761,-4.12619 0.142345,-0.142341 0.565931,-0.953106 0.941302,-1.801698 0.603168,-1.363561 0.62169,-1.603697 0.159353,-2.066033 -0.287728,-0.287726 -0.523142,-0.64196 -0.523142,-0.787181 0,-0.537814 -1.979743,-2.432438 -3.175,-3.038497 -1.43179396,-0.725995 -1.75104296,-1.120665 -1.75848696,-2.173919 -0.007,-0.991171 -0.519901,-1.134918 -2.46864504,-0.691871 -2.245529,0.510515 -5.176705,0.484128 -5.712068,-0.05142 -0.247035,-0.247125 -0.467821,-1.040875 -0.490635,-1.763889 -0.05887,-1.865815 -0.207957,-2.230468 -1.3000256,-3.179794 -0.533577,-0.463833 -0.970139,-1.067346 -0.970139,-1.34114 0,-0.599373 -0.08033,-0.606817 -1.173499,-0.108735 -0.630196,0.287137 -1.054723,0.281605 -1.620355,-0.02111 -0.684866,-0.366529 -0.747932,-0.62382 -0.592578,-2.417544 0.09562,-1.104048 0.282385,-2.680529 0.41503,-3.503291 0.14617,-0.906649 0.09227,-1.675345 -0.136822,-1.951388 -0.207898,-0.250501 -0.635682,-1.641083 -0.95063,-3.090181 -1.007625,-4.636142 -1.029395,-5.14553 -0.274582,-6.424843 0.381731,-0.646985 0.708764,-1.693655 0.726741,-2.325935 0.04523,-1.59081 2.32847,-4.992716 3.360969,-5.007665 0.426191,-0.0062 1.083047,-0.244296 1.4596796,-0.529167 0.376633,-0.284873 0.978746,-0.517949 1.33803,-0.517949 0.359283,0 1.41387,-0.711477 2.343524,-1.581061 2.723263,-2.547293 4.845917,-3.160913 7.335702,-2.120614 0.951512,0.397566 1.392722,0.43183 1.749353,0.135852 0.977267,-0.811059 7.1952944,1.045726 7.9973874,2.388126 0.155166,0.259687 0.790166,0.734797 1.411111,1.055802 0.620949,0.321004 1.724308,1.061945 2.451912,1.646534 1.051443,0.844776 1.322917,1.30415 1.322917,2.23857 0,0.646624 -0.110529,1.17568 -0.245622,1.17568 -0.530994,0 -2.929379,-1.885784 -2.929379,-2.30329 0,-0.749323 -1.173127,-0.968889 -1.655088,-0.309772 -0.524394,0.717155 -0.300105,1.201951 0.55608,1.201951 0.848533,0 2.157342,1.458445 2.157342,2.403987 0,0.45016 0.220211,0.771013 0.529166,0.771013 0.291042,0 0.529167,-0.15875 0.529167,-0.352778 0,-0.194028 0.396875,-0.352778 0.881945,-0.352778 0.614094,0 0.881944,0.192852 0.881944,0.635 0,0.34925 0.176738,0.811737 0.392748,1.027749 0.407363,0.407364 0.297356,1.886299 -0.348658,4.687252 -0.472246,2.047545 -0.498394,6.206681 -0.04435,7.055059 0.281569,0.526121 0.210576,0.703724 -0.352778,0.882525 -0.387911,0.123118 -0.702981,0.411591 -0.700158,0.64105 0.01122,0.910171 1.134156,3.582531 2.083992,4.959401 1.624133,2.354319 2.213924,2.724121 4.645403,2.912692 1.736668,0.134686 2.483291,0.38603 3.471622,1.168694 0.692521,0.548406 2.767253,1.706833 4.610517,2.574282 1.843264,0.867445 5.018264,2.687306 7.055556,4.044132 2.037291,1.356825 4.220104,2.733078 4.850694,3.058343 0.63059,0.325261 1.146528,0.746058 1.146528,0.935105 0,0.189046 0.225944,0.343718 0.502098,0.343718 0.276158,0 0.975215,0.398099 1.553464,0.884661 0.578249,0.486565 1.553379,1.095745 2.166962,1.353745 1.029385,0.43282 4.244143,3.90083 4.244143,4.57848 0,0.16252 0.534931,1.11615 1.188738,2.11916 2.432057,3.73108 3.649957,5.76038 4.694947,7.822791 0.59038,1.1652 1.87624,3.34834 2.85746,4.85141 1.0728,1.64337 1.93764,3.44913 2.16934,4.52953 0.21193,0.98817 0.62189,2.13442 0.91103,2.54722 0.28914,0.41281 0.5257,1.10658 0.5257,1.54173 0,0.43514 0.48696,1.34578 1.08213,2.02365 0.98107,1.11737 1.05975,1.38168 0.84254,2.83016 -0.13177,0.87873 -0.11777,1.87745 0.0311,2.21939 0.14889,0.34193 0.29873,1.49481 0.33296,2.56197 0.0696,2.17043 0.73128,7.96557 1.25104,10.95735 0.18742,1.07883 0.34077,2.48466 0.34077,3.12407 0,1.50842 -0.96854,5.27766 -1.61347,6.27908 -0.27676,0.42974 -0.5032,1.01697 -0.5032,1.30497 0,0.81778 -1.9113,2.05061 -6.82216,4.40042 -4.94512,2.36622 -8.78587,3.74537 -9.580819,3.44032 -0.279266,-0.10716 -0.591976,-0.0586 -0.694916,0.10799 -0.294125,0.47591 2.275663,1.83234 3.022395,1.59533 0.364398,-0.11566 1.017034,0.038 1.450298,0.34148 0.433264,0.30347 1.063742,0.55177 1.401072,0.55177 0.33732,0 0.9285,0.33831 1.31373,0.7518 0.38522,0.41349 1.06609,0.93678 1.51304,1.16287 0.70891,0.3586 0.79937,0.63413 0.70867,2.15862 -0.11428,1.92095 -0.16504,2.07839 -1.80029,5.5841 -1.13417,2.43149 -2.509682,4.28101 -5.924264,7.96578 -1.875592,2.02401 -3.402549,4.72781 -4.566701,8.08631 -0.782638,2.25785 -1.525708,2.82327 -4.052514,3.08363 -1.043185,0.10749 -2.531703,0.43483 -3.307814,0.72742 -1.360861,0.51305 -6.641694,0.93824 -7.015102,0.56483 z m 23.419268,-18.52463 c 0,-0.20649 -0.22416,-0.1722 -0.52916,0.0809 -0.29105,0.24155 -0.529171,0.49413 -0.529171,0.56129 0,0.0672 0.238121,0.0307 0.529171,-0.0809 0.29104,-0.11169 0.52916,-0.36427 0.52916,-0.56129 z m 2.39338,-17.92811 c 1.82538,-1.04681 2.12879,-1.74651 0.75735,-1.74651 -0.3785,0 -0.96004,0.3175 -1.29231,0.70555 -0.33226,0.38806 -0.72533,0.70556 -0.87348,0.70556 -0.50053,0 -2.06526,-2.70722 -1.86555,-3.22766 0.22171,-0.57777 -1.424015,-2.6992 -1.801272,-2.32194 -0.132485,0.13248 -0.04584,0.47589 0.192539,0.76312 0.238379,0.28723 0.32832,0.69229 0.199867,0.90013 -0.305675,0.49459 1.12668,3.44005 1.877096,3.86 0.32059,0.17942 0.46899,0.44011 0.32978,0.57933 -0.13922,0.13921 -0.48813,0.0581 -0.77536,-0.1803 -0.706413,-0.58627 -1.440675,-0.13507 -0.87986,0.54067 0.651517,0.78503 2.1104,0.58094 4.1312,-0.57795 z m -5.922475,0.45835 c -0.0028,-0.57673 -1.426334,-2.55834 -1.845578,-2.56925 -0.422307,-0.011 -3.13888,-3.89745 -3.382441,-4.83909 -0.159438,-0.61639 -0.767884,-0.55281 -0.767884,0.0803 0,0.9007 2.145986,4.54307 3.392212,5.75757 0.656643,0.63993 1.193899,1.31462 1.193899,1.49931 0,0.18468 0.3175,0.33579 0.705556,0.33579 0.388055,0 0.704962,-0.11906 0.704236,-0.26458 z m 1.499207,-1.70368 c 0.245233,-0.24523 -1.498364,-2.89522 -2.5034,-3.80477 -1.209562,-1.09464 -1.534216,-0.31759 -0.484903,1.16059 0.528686,0.74477 1.194731,1.69038 1.4801,2.10134 0.509288,0.73344 1.103672,0.94738 1.508203,0.54284 z m 2.735448,-0.79928 c 0,-0.16396 -0.3117,-0.58019 -0.69266,-0.92496 -0.67731,-0.61295 -0.68317,-0.6064 -0.26459,0.29535 0.41228,0.88816 0.95725,1.2466 0.95725,0.62961 z m 5.11528,-0.26047 c 0,-0.17786 -0.27635,-0.71379 -0.6141,-1.19095 -0.46522,-0.65727 -0.71311,-0.76856 -1.02257,-0.45909 -0.30947,0.30947 -0.26206,0.63198 0.1956,1.33045 0.56272,0.85882 1.44107,1.05362 1.44107,0.31959 z m 2.29305,-0.92331 c 0,-0.19144 -0.31597,-0.4307 -0.70217,-0.53169 -0.51645,-0.13505 -0.65117,-0.38681 -0.50936,-0.95187 0.13248,-0.52782 -0.1538,-1.20441 -0.91479,-2.16199 -0.60918,-0.76656 -1.21341,-1.47429 -1.34273,-1.57274 -0.37251,-0.2836 -1.14479,-1.7665 -0.91997,-1.7665 0.11169,0 0.72709,0.55563 1.36756,1.23472 1.21534,1.28864 2.09412,1.6338 1.72755,0.67854 -0.11738,-0.30591 -0.58865,-0.69886 -1.04726,-0.87322 -0.4586,-0.17436 -0.83383,-0.55908 -0.83383,-0.85492 0,-0.69254 0.66596,-0.69879 0.93076,-0.009 0.24933,0.64974 0.83313,0.69918 0.83313,0.0705 0,-0.81182 -0.75741,-1.30235 -1.44375,-0.93503 -0.68321,0.36564 -1.31085,-0.15237 -0.66685,-0.55038 0.46952,-0.2902 -1.12723,-1.58377 -1.95494,-1.58377 -0.43322,0 -0.54988,0.20261 -0.41457,0.72005 0.15255,0.58334 0.0599,0.67929 -0.48802,0.50539 -1.10465,-0.3506 -0.82966,0.93138 0.59089,2.75473 0.69697,0.89459 1.16497,1.79195 1.04002,1.99413 -0.13299,0.21517 -0.016,0.28656 0.2822,0.17214 0.35119,-0.13476 0.76776,0.35577 1.34124,1.57936 0.45751,0.97616 1.10965,1.87039 1.4492,1.98718 0.33955,0.11679 0.61736,0.35541 0.61736,0.53027 0,0.17487 0.23812,0.22656 0.52916,0.11488 0.29105,-0.11169 0.52917,-0.35969 0.52917,-0.55112 z m -6.59222,-0.5466 c -0.33824,-0.94882 -0.86277,-1.51211 -1.20886,-1.29821 -0.46232,0.28572 -0.38214,0.73751 0.24156,1.36121 0.73718,0.73719 1.24085,0.70438 0.9673,-0.063 z m 8.35611,-0.97013 c 0,-0.29105 -0.15875,-0.52917 -0.35278,-0.52917 -0.19403,0 -0.35278,0.23812 -0.35278,0.52917 0,0.29104 0.15875,0.52916 0.35278,0.52916 0.19403,0 0.35278,-0.23812 0.35278,-0.52916 z m -13.386954,-1.00941 c -0.37507,-0.98651 -0.873703,-1.19233 -1.28324,-0.52969 -0.138578,0.22422 0.122234,0.68041 0.59127,1.03421 1.028838,0.77605 1.146284,0.69042 0.69197,-0.50452 z m 6.200344,0.31292 c 0.10977,-0.28606 -0.0594,-0.77913 -0.37602,-1.09571 -0.4499,-0.4499 -0.48493,-0.68488 -0.16039,-1.07593 0.22838,-0.27517 0.3046,-0.61094 0.16939,-0.74616 -0.13521,-0.13521 -0.39022,-0.0123 -0.56668,0.27311 -0.27777,0.44929 -0.40137,0.43845 -0.92065,-0.0807 -0.44135,-0.44123 -0.4994,-0.72084 -0.21974,-1.05834 0.28043,-0.33843 0.20081,-0.67986 -0.30371,-1.3024 -0.37608,-0.46405 -0.78468,-0.74284 -0.90799,-0.61952 -0.12331,0.12331 0.064,0.54267 0.41628,0.93192 0.35226,0.38924 0.49681,0.70485 0.32121,0.70135 -0.48236,-0.01 -2.345087,-2.4252 -3.327534,-4.31516 -0.971014,-1.86796 -1.401445,-2.11175 -1.401445,-0.79375 0,0.48507 -0.15875,0.88194 -0.352778,0.88194 -0.194028,0 -0.354944,-0.11906 -0.357593,-0.26458 -0.0028,-0.14552 -0.09482,-0.59991 -0.20483,-1.00975 -0.148463,-0.55311 -0.01083,-0.79464 0.533982,-0.93712 0.403698,-0.10556 0.733997,-0.34856 0.733997,-0.54 0,-0.56465 -1.153397,-0.84054 -1.457421,-0.34862 -0.202621,0.32785 -0.717892,0.021 -1.880288,-1.11983 -1.619832,-1.58975 -2.039563,-2.37381 -1.072014,-2.00252 0.291042,0.11168 0.529167,0.0687 0.529167,-0.0954 0,-0.16418 -0.238125,-0.49614 -0.529167,-0.73768 -0.625637,-0.51924 -0.693526,-1.29753 -0.129575,-1.48552 0.589114,-0.19637 0.03432,-1.62124 -0.806475,-2.07122 -1.026326,-0.54927 -1.237223,-0.10795 -0.524767,1.09815 0.340321,0.57611 0.490724,1.04647 0.334235,1.04525 -0.156492,-0.001 -0.554958,-0.47748 -0.885482,-1.05834 -0.330525,-0.58086 -0.767087,-1.0561 -0.970139,-1.0561 -0.568505,0 -0.437081,1.05442 0.159981,1.28353 0.291042,0.11169 0.529167,0.36702 0.529167,0.56741 0,0.20038 0.277812,0.59204 0.617361,0.87035 0.339548,0.27832 0.418923,0.40552 0.176389,0.28266 -0.617852,-0.31297 -0.551593,0.34563 0.08819,0.8766 0.555946,0.4614 0.725851,1.41112 0.252451,1.41112 -0.152195,0 -0.579825,-0.51594 -0.950288,-1.14653 -1.645652,-2.80117 -3.174125,-4.45756 -4.132037,-4.47783 -1.156585,-0.0245 -1.654944,0.64376 -0.894693,1.19967 0.498856,0.36477 0.486099,0.45134 -0.122492,0.83142 -0.87316,0.54529 -0.863632,1.01778 0.02621,1.30021 0.388056,0.12316 0.705556,0.39032 0.705556,0.59369 0,0.32923 2.857878,4.91117 3.570027,5.72372 0.165269,0.18857 0.485708,0.14999 0.779515,-0.0939 0.406344,-0.33724 0.536695,-0.22501 0.702698,0.605 0.112095,0.56048 0.659014,1.47584 1.215376,2.03413 0.556362,0.5583 1.161969,1.2857 1.345794,1.61645 0.216077,0.38877 0.501477,0.49799 0.807343,0.30896 0.66348,-0.41006 -0.377116,-2.00396 -3.570058,-5.46833 -1.488483,-1.61503 -1.626221,-1.98164 -0.648441,-1.72595 0.802477,0.20985 1.65367,1.02032 2.853302,2.71677 0.893861,1.26405 1.763889,1.88705 1.763889,1.26306 1.4e-5,-0.18794 -0.158736,-0.34171 -0.352764,-0.34171 -0.194028,0 -0.352778,-0.16215 -0.352778,-0.36034 0,-0.19818 -0.420105,-0.99516 -0.93357,-1.77106 -0.513461,-0.77589 -0.843647,-1.50064 -0.733742,-1.61054 0.109904,-0.10991 0.474186,0.25051 0.809519,0.80092 0.335329,0.55041 1.072254,1.67543 1.637609,2.50005 0.565351,0.82462 0.859299,1.49931 0.653217,1.49931 -0.206086,0 -0.374699,0.17573 -0.374699,0.39052 0,0.21478 0.205087,0.31182 0.45575,0.21563 0.593566,-0.22777 1.796048,0.65369 1.514101,1.10989 -0.11961,0.19353 -0.05613,0.45159 0.141062,0.57346 0.197192,0.12187 0.35325,0.49003 0.346794,0.81812 -0.0094,0.47861 -0.152305,0.42769 -0.722796,-0.25758 l -0.711055,-0.85412 -0.205514,0.78588 c -0.122051,0.46672 -0.397002,0.7124 -0.67702,0.60495 -0.816564,-0.31335 -0.913246,0.45207 -0.159321,1.26131 0.397954,0.42715 0.723554,0.98484 0.723554,1.23929 0,0.25446 0.14938,0.46265 0.331957,0.46265 0.608238,0 0.793006,-0.72937 0.327004,-1.29087 -0.394318,-0.47512 -0.360825,-0.53554 0.234213,-0.4225 0.45213,0.0859 0.733262,0.46925 0.805952,1.09902 0.06139,0.53192 0.241325,0.96713 0.399849,0.96713 0.489948,0 0.684093,-1.91006 0.250998,-2.46945 -0.668112,-0.86294 0.809967,0.27773 1.964708,1.51622 0.771219,0.82715 1.149419,0.98644 1.896709,0.79888 0.76987,-0.19323 0.89449,-0.13284 0.71126,0.34465 -0.12219,0.31841 -0.1329,0.72335 -0.0238,0.89986 0.30094,0.48694 0.86014,0.38419 1.08399,-0.19915 z m -3.852735,-3.53686 c -0.735757,-0.92211 -0.8474,-1.23471 -0.440972,-1.23471 0.299314,0 0.544206,0.23678 0.544206,0.52618 0,0.2894 0.317501,0.72446 0.705551,0.9668 0.38806,0.24234 0.70556,0.56119 0.70556,0.70855 0,0.57838 -0.57366,0.21213 -1.514345,-0.96682 z m -1.726752,-2.20269 c -1.024551,-1.19279 -1.149166,-1.60545 -0.330408,-1.09413 0.70805,0.44219 1.256369,1.31984 0.990607,1.5856 -0.07043,0.0704 -0.36752,-0.15073 -0.660199,-0.49147 z m -10.164459,-7.77709 c 0,-0.18157 -0.47625,-0.92942 -1.058334,-1.66187 -1.194689,-1.50333 -1.307235,-1.94028 -0.499755,-1.94028 0.790543,0 3.03294,2.4071 2.897508,3.11034 -0.118371,0.61465 -1.339419,1.063 -1.339419,0.49181 z m 5.772019,12.44924 c -0.111685,-0.29104 -0.339844,-0.52917 -0.507022,-0.52917 -0.167182,0 -0.212588,0.23813 -0.100905,0.52917 0.111686,0.29104 0.339845,0.52916 0.507022,0.52916 0.167182,0 0.212588,-0.23812 0.100905,-0.52916 z m 17.864097,-0.50835 c 0,-0.3766 -0.16932,-0.78937 -0.37625,-0.91727 -0.45343,-0.28024 -0.52507,-0.21118 -0.83842,0.80826 -0.19853,0.64586 -0.10811,0.79375 0.48534,0.79375 0.48675,0 0.72933,-0.22775 0.72933,-0.68474 z m -11.994449,-0.0208 c 0,-0.19403 -0.15875,-0.35278 -0.352778,-0.35278 -0.194028,0 -0.352778,0.15875 -0.352778,0.35278 0,0.19403 0.15875,0.35278 0.352778,0.35278 0.194028,0 0.352778,-0.15875 0.352778,-0.35278 z m 9.524999,0 c 0,-0.19403 -0.14938,-0.35278 -0.33196,-0.35278 -0.18257,0 -0.43007,0.15875 -0.54998,0.35278 -0.11992,0.19403 0.0295,0.35278 0.33195,0.35278 0.3025,0 0.54999,-0.15875 0.54999,-0.35278 z m -16.933333,-1.75282 c 0,-0.18793 0.238125,-0.25033 0.529167,-0.13864 0.291042,0.11168 0.529167,0.10354 0.529167,-0.0181 0,-0.43177 -1.729606,-2.95156 -3.434768,-5.00398 -0.951495,-1.14527 -2.014926,-2.51887 -2.363185,-3.05244 -0.348255,-0.53358 -0.773687,-0.97014 -0.945398,-0.97014 -0.531273,0 -0.343398,1.0685 0.226314,1.28712 0.4924,0.18895 2.283703,2.87012 2.283703,3.41818 0,0.60417 -0.581014,0.12584 -1.001786,-0.82475 -0.257655,-0.58208 -0.613908,-1.05833 -0.791673,-1.05833 -0.518272,0 -0.373697,0.7706 0.280127,1.49306 0.522499,0.57736 0.534314,0.71552 0.08819,1.0312 -0.428826,0.30344 -0.416031,0.3329 0.07636,0.17584 0.397972,-0.12694 0.910301,0.2373 1.565864,1.11325 1.768256,2.36272 2.957911,3.3874 2.957911,2.54772 z m -0.859264,-1.31877 c -0.191446,-0.50278 -0.150925,-0.5433 0.197485,-0.19749 0.241095,0.23931 0.349486,0.52396 0.24087,0.63258 -0.108617,0.10862 -0.305876,-0.0872 -0.438355,-0.43509 z m -1.575294,-1.95549 c -0.485877,-0.79093 -0.484925,-0.79137 0.267921,-0.12172 0.808312,0.71899 0.91296,0.91547 0.487609,0.91547 -0.147355,0 -0.487345,-0.35719 -0.75553,-0.79375 z m 19.367891,3.26319 c 0,-0.19403 -0.24749,-0.35278 -0.54999,-0.35278 -0.30249,0 -0.45187,0.15875 -0.33195,0.35278 0.11991,0.19403 0.36741,0.35278 0.54998,0.35278 0.18258,0 0.33196,-0.15875 0.33196,-0.35278 z m 0.35278,-1.23778 c 0,-0.0987 -0.47843,-0.8399 -1.06319,-1.64712 -0.62602,-0.86421 -0.98374,-1.71797 -0.86997,-2.07641 0.13661,-0.43042 0.009,-0.59379 -0.43612,-0.55774 -0.41669,0.0338 -0.63335,-0.19879 -0.64124,-0.68825 -0.0124,-0.76924 -0.91406,-2.3726 -1.89102,-3.36262 -1.56232,-1.58321 -1.84968,-2.11747 -1.41843,-2.6371 0.23281,-0.28052 0.31266,-0.62066 0.17745,-0.75587 -0.13521,-0.13522 -0.36743,-0.0491 -0.51603,0.19133 -0.29521,0.47765 -3.554869,-3.60266 -3.565886,-4.46362 -0.0035,-0.26304 -0.401595,-0.97741 -0.884954,-1.5875 -0.483358,-0.6101 -1.158046,-1.4818 -1.499306,-1.93712 -0.341259,-0.45532 -0.97766,-1.23257 -1.414222,-1.72721 -0.916736,-1.0387 -0.953354,-1.156 -0.352778,-1.13004 0.242535,0.0105 1.314097,1.11315 2.38125,2.45038 1.828109,2.29078 2.469445,2.85626 2.469445,2.17736 0,-0.49755 -4.921794,-6.58919 -5.293586,-6.5518 -0.192973,0.0194 -0.588984,0.0591 -0.880026,0.0882 -0.719529,0.072 -0.66264,0.72883 0.172622,1.9932 0.384531,0.58208 0.899876,1.37359 1.145208,1.75892 0.245332,0.38532 0.684184,0.94128 0.975226,1.23546 1.050604,1.06195 2.116667,2.8119 2.116667,3.47453 0,0.37215 0.23483,0.87153 0.521846,1.10974 0.592949,0.4921 1.671404,2.51652 1.455584,2.73234 -0.07826,0.0783 -0.574038,-0.42376 -1.10173,-1.1156 -1.055363,-1.38365 -1.581256,-1.59301 -1.581256,-0.62949 0,0.34562 0.9525,1.57097 2.116667,2.72299 1.164169,1.15202 2.116669,2.32973 2.116669,2.61715 0,0.4032 0.0956,0.42694 0.41866,0.10391 0.32303,-0.32303 0.25443,-0.60104 -0.3003,-1.21709 -1.10977,-1.23243 -1.41703,-1.96021 -0.48602,-1.15119 0.44657,0.38805 1.20311,1.32127 1.68119,2.07382 0.47809,0.75255 1.27783,1.71973 1.77721,2.14927 0.59094,0.5083 0.82961,0.98518 0.68357,1.36576 -0.29331,0.76435 -0.95209,0.75399 -0.95209,-0.015 0,-0.41118 -0.11415,-0.48557 -0.3631,-0.23661 -0.44402,0.44401 0.35977,2.18976 0.92194,2.00237 0.20377,-0.0679 1.15358,0.6626 2.11069,1.62338 1.59786,1.604 2.26936,2.08255 2.26936,1.61725 z m 1.75434,-0.26152 c -0.009,-0.42349 -2.28787,-3.08681 -2.64103,-3.08681 -0.49574,0 -0.0521,1.28202 0.79849,2.30736 0.99418,1.19846 1.85954,1.56452 1.84254,0.77945 z m 1.71282,-1.16455 c -0.17396,-1.4814 -0.99772,-1.53935 -0.99772,-0.0702 0,0.66293 0.10848,1.31381 0.24107,1.44639 0.4337,0.4337 0.87495,-0.36884 0.75665,-1.37621 z m -12.63279,-3.10353 c -1.460313,-1.39473 -1.884938,-1.63236 -2.300549,-1.28743 -0.44306,0.36771 -0.436167,0.56824 0.05273,1.53405 0.665229,1.31414 1.523354,2.34576 1.951256,2.34576 0.168433,0 0.06389,-0.36986 -0.2323,-0.82191 -0.555333,-0.84754 -0.415555,-1.29476 0.404683,-1.29476 0.2587,0 0.47036,0.30452 0.47036,0.67671 0,0.37218 0.10491,0.95008 0.23313,1.28421 0.21615,0.56329 0.26874,0.55898 0.72233,-0.0593 0.44387,-0.60505 0.32324,-0.82537 -1.30164,-2.37729 z m 9.87118,1.2634 c 0,-0.14885 -0.71437,-1.08728 -1.5875,-2.08539 -0.87312,-0.99811 -1.5875,-1.98757 -1.5875,-2.1988 0,-0.21123 -0.15875,-0.38405 -0.35277,-0.38405 -0.645,0 -0.36457,0.97309 0.52307,1.81505 0.48172,0.45693 0.87859,0.9793 0.88194,1.16082 0.004,0.18153 0.35127,0.69746 0.77315,1.14653 0.7685,0.81803 1.34961,1.05306 1.34961,0.54584 z M 40.444974,134.2778 c -0.345606,-0.60714 -0.836182,-1.10489 -1.090168,-1.10612 -0.523085,-0.002 -0.386775,0.28481 0.729827,1.53839 1.009431,1.13328 1.153283,0.96071 0.360341,-0.43227 z m 16.640907,0.22613 c -0.28671,-1.30541 -0.89613,-2.39283 -1.34099,-2.39283 -0.1684,0 -0.19115,0.43656 -0.0506,0.97014 0.14058,0.53358 0.29628,1.28764 0.346,1.6757 0.11709,0.91394 0.0903,0.88194 0.73763,0.88194 0.44394,0 0.50653,-0.2307 0.30792,-1.13495 z m 10.071,0.77833 c 0,-0.19614 -0.33499,-1.06927 -0.74441,-1.94028 -0.48944,-1.04125 -0.96896,-1.58366 -1.40004,-1.58366 -0.79422,0 -0.61559,0.64766 0.70335,2.55011 0.90189,1.3009 1.4411,1.66527 1.4411,0.97383 z m -12.84677,-2.5538 c -0.113054,-0.24253 -0.303551,-0.71878 -0.423319,-1.05833 -0.119768,-0.33955 -0.46912,-0.61736 -0.776337,-0.61736 -0.434449,0 -0.464502,0.0941 -0.135244,0.42333 0.232833,0.23284 0.423333,0.70909 0.423333,1.05834 0,0.34925 0.251354,0.635 0.558564,0.635 0.321303,0 0.471243,-0.18732 0.353003,-0.44098 z m -3.929853,-1.64386 c 0.243015,-0.39321 -0.127638,-1.44294 -0.509492,-1.44294 -0.381854,0 -0.752507,1.04973 -0.509492,1.44294 0.109096,0.17652 0.338367,0.32095 0.509492,0.32095 0.171126,0 0.400396,-0.14443 0.509492,-0.32095 z m 13.645513,-1.21367 c -0.20193,-0.2433 -0.2759,-0.7913 -0.16437,-1.21777 0.11152,-0.42647 0.0425,-0.77539 -0.15341,-0.77539 -0.5217,0 -0.83531,1.04471 -0.5709,1.90178 0.20812,0.67461 0.15125,0.66057 -0.60936,-0.15049 -0.4614,-0.492 -1.38673,-1.58697 -2.05629,-2.43328 -0.66956,-0.84631 -1.28031,-1.34995 -1.35722,-1.11921 -0.18728,0.56183 -1.12957,-0.19618 -1.12957,-0.90865 0,-0.27874 -0.14376,-0.41794 -0.31947,-0.30934 -0.51769,0.31995 0.42701,1.92339 1.19915,2.03531 0.4265,0.0618 0.7736,0.45073 0.88194,0.98818 0.31822,1.57852 1.25927,2.52218 2.70558,2.71308 0.7445,0.0983 1.4255,0.36048 1.51334,0.58272 0.0878,0.22224 0.22,0.11863 0.29371,-0.23024 0.0737,-0.34887 -0.0312,-0.83338 -0.23313,-1.0767 z m 2.34471,1.11569 c -0.0768,-0.23041 -0.32827,-0.4818 -0.55881,-0.55864 -0.25779,-0.0859 -0.33663,0.0754 -0.20479,0.41892 0.24607,0.64125 0.97525,0.77467 0.7636,0.13972 z m -13.828912,-0.79037 c 0.436471,-0.43647 0.393478,-0.59048 -0.321948,-1.15323 -0.454131,-0.35722 -1.035587,-1.04335 -1.29212,-1.52473 -0.256536,-0.48139 -0.704416,-1.05073 -0.995288,-1.2652 -0.303706,-0.22394 -0.433472,-0.63854 -0.304807,-0.97384 0.379377,-0.98865 0.291726,-1.07198 -1.165948,-1.10855 -0.777103,-0.0195 -1.412914,0.0589 -1.412914,0.17424 0,0.11532 0.595312,0.8701 1.322917,1.67727 2.280221,2.52959 2.535653,2.87985 2.764193,3.79044 0.251944,1.00381 0.671291,1.11823 1.405915,0.3836 z m 2.268082,0.10553 c 0,-0.40481 -2.365932,-3.20863 -2.888872,-3.42355 -0.446112,-0.18334 -0.336031,0.64429 0.154848,1.16424 0.242535,0.2569 0.836105,0.95994 1.319044,1.5623 0.91017,1.13526 1.41498,1.38392 1.41498,0.69701 z m 4.11334,-1.5207 c -0.49214,-0.4561 -0.98989,-0.73417 -1.10612,-0.61794 -0.11623,0.11623 0.23116,0.63313 0.77198,1.14868 0.54082,0.51554 1.03857,0.79361 1.10612,0.61793 0.0675,-0.17567 -0.27985,-0.69258 -0.77198,-1.14867 z m 7.52833,0.49718 c 0,-0.3939 -0.86917,-1.74076 -1.9315,-2.99301 -1.06232,-1.25226 -2.34299,-3.08889 -2.84594,-4.0814 -0.50294,-0.99252 -0.99229,-1.72672 -1.08745,-1.63157 -0.29703,0.29703 -2.13617,-1.60433 -3.51181,-3.63062 -1.67617,-2.46896 -2.843613,-3.66575 -3.12762,-3.20622 -0.192656,0.31173 0.352,1.65365 0.87177,2.14788 0.10203,0.097 0.73585,0.89077 1.40849,1.76389 0.67264,0.87313 1.34322,1.64042 1.49019,1.70509 0.14696,0.0647 0.2672,0.34748 0.2672,0.62844 0,0.28096 0.23453,0.60083 0.52117,0.71083 0.28664,0.10999 1.58052,1.64876 2.8753,3.41949 1.29477,1.77073 2.71774,3.50552 3.16215,3.85509 0.44441,0.34957 0.90747,0.94894 1.02903,1.33193 0.28889,0.91024 0.87902,0.89693 0.87902,-0.0198 z m -28.343718,-0.86881 c -0.224219,-0.48343 -0.526733,-0.88019 -0.672254,-0.88171 -0.424603,-0.004 -0.304398,-0.98901 0.138783,-1.13674 0.605628,-0.20188 -0.232978,-1.58661 -1.134061,-1.8726 -0.409257,-0.12989 -0.653267,-0.43587 -0.553967,-0.69465 0.18094,-0.47152 -0.604735,-0.52418 -1.058005,-0.0709 -0.355886,0.35589 1.275673,3.78346 2.326083,4.88663 1.059466,1.11268 1.52418,1.00056 0.953421,-0.23002 z m 11.057608,-0.003 c 0,-0.29117 -0.31235,-0.52917 -0.694486,-0.52917 -0.47238,0 -0.629542,0.16923 -0.491423,0.52917 0.111686,0.29104 0.424201,0.52916 0.694486,0.52916 0.27028,0 0.491423,-0.23812 0.491423,-0.52916 z m 13.40556,-1.56513 c 0,-0.35285 -0.23249,-0.83448 -0.51663,-1.0703 -0.28415,-0.23582 -1.08638,-1.28714 -1.78275,-2.33625 -1.28153,-1.93072 -1.68399,-2.16848 -2.63951,-1.55935 -0.41787,0.26637 -0.44332,0.4693 -0.12103,0.96473 0.22448,0.34507 0.59838,0.58215 0.83089,0.52683 0.62362,-0.14836 1.4068,0.61906 1.4068,1.37849 0,0.3643 0.23813,0.66236 0.52917,0.66236 0.29104,0 0.52917,0.24311 0.52917,0.54024 0,0.29713 0.23812,0.63162 0.52916,0.7433 0.29104,0.11169 0.52917,0.43357 0.52917,0.71531 0,0.28173 0.15875,0.41413 0.35278,0.29421 0.19403,-0.11992 0.35278,-0.50672 0.35278,-0.85957 z m -5.64445,-1.01038 c 0,-1.23974 -0.85497,-2.53417 -1.67569,-2.53702 -1.010017,-0.004 -0.99676,0.24027 0.10091,1.85563 0.96905,1.4261 1.57478,1.68819 1.57478,0.68139 z m 8.45712,-0.68769 c -0.0106,-0.29505 -2.37609,-2.91042 -2.6323,-2.91042 -0.0896,0 6e-5,0.43657 0.19925,0.97014 0.4751,1.27268 2.46625,2.86055 2.43305,1.94028 z m -27.552318,-1.18193 c -0.266181,-0.16861 -0.722093,-0.30372 -1.013135,-0.30024 -0.362225,0.004 -0.254222,0.2351 0.342339,0.73147 0.592882,0.49331 0.916785,0.5893 1.013136,0.30025 0.0779,-0.2337 -0.07615,-0.56286 -0.34234,-0.73148 z m 5.980092,-0.19995 c -0.06273,-0.32347 -0.300006,-0.65003 -0.527272,-0.7257 -0.262859,-0.0875 -0.34416,0.12649 -0.223439,0.58813 0.225485,0.86226 0.915793,0.98876 0.750711,0.13757 z m 5.277834,-2.31624 c -1.118404,-1.07626 -3.099131,-3.65033 -3.097632,-4.02556 7.06e-4,-0.16611 0.939712,0.72986 2.086776,1.99104 1.147067,1.26118 2.190253,2.1886 2.318191,2.06093 0.127938,-0.12767 -0.664958,-1.41881 -1.761991,-2.86921 -1.951274,-2.57978 -2.016996,-2.62863 -3.024953,-2.24817 -0.57779,0.2181 -1.030341,0.65033 -1.030341,0.9841 0,0.42402 -0.205514,0.54144 -0.714629,0.40831 -0.457316,-0.1196 -0.944322,0.078 -1.35256,0.54866 -0.350866,0.40455 -1.064818,0.89785 -1.586565,1.09621 -0.811848,0.30867 -0.914866,0.50137 -0.714478,1.33645 0.315606,1.31521 0.358765,1.34038 1.370154,0.7991 0.865967,-0.46345 1.220946,-1.41082 0.528634,-1.41082 -0.194028,0 -0.352778,-0.15875 -0.352778,-0.35278 0,-0.74314 1.438039,-0.32688 1.828077,0.52917 0.404717,0.88825 1.699701,1.24155 1.699701,0.4637 0,-0.23002 -0.353028,-0.79401 -0.784507,-1.2533 -0.665209,-0.70808 -0.705443,-0.88507 -0.264584,-1.16386 0.769165,-0.48641 0.980811,-0.4208 1.445913,0.44826 0.767592,1.43425 4.003393,4.56132 4.125796,3.98715 0.06209,-0.29127 -0.261105,-0.88949 -0.718224,-1.32938 z m 16.303942,1.65559 c 0,-0.10474 -0.3175,-0.81279 -0.70556,-1.57344 -0.78988,-1.54831 -0.86957,-1.9069 -0.35278,-1.5875 0.6383,0.39448 0.36884,-0.52004 -0.57221,-1.94206 -1.12333,-1.69746 -1.87559,-1.49923 -0.8161,0.21506 0.79384,1.28446 0.71282,2.25616 -0.18812,2.25616 -0.82751,0 -0.65911,0.34933 0.78268,1.62363 1.25396,1.10828 1.85209,1.43386 1.85209,1.00815 z m -26.633162,-1.34516 c -0.341274,-0.52084 -0.792837,-0.81111 -1.086521,-0.69842 -0.726623,0.27883 -0.61735,0.82292 0.16527,0.82292 0.367298,0 0.767909,0.26084 0.890249,0.57966 0.122339,0.31881 0.310758,0.49133 0.418708,0.38338 0.10795,-0.10795 -0.06652,-0.59734 -0.387706,-1.08754 z m 12.874826,0.65366 c 0,-0.29104 -0.238125,-0.52916 -0.529167,-0.52916 -0.550887,0 -0.6999,0.41723 -0.29398,0.82314 0.405917,0.40592 0.823147,0.25691 0.823147,-0.29398 z M 36.46521,122.23283 c 0,-0.19402 -0.247495,-0.35277 -0.549987,-0.35277 -0.302493,0 -0.451873,0.15875 -0.331957,0.35277 0.119916,0.19403 0.367411,0.35278 0.549987,0.35278 0.182577,0 0.331957,-0.15875 0.331957,-0.35278 z m 20.156181,-1.67448 c -0.20366,-0.38055 -0.89305,-1.34887 -1.53199,-2.15184 -2.843594,-3.57363 -2.84316,-3.57288 -2.391685,-4.11687 0.627362,-0.75593 -0.446596,-1.07107 -1.774952,-0.52085 -1.183358,0.49016 -1.39209,1.05571 -0.389636,1.05571 0.364296,0 0.880233,0.26785 1.146527,0.59522 0.424636,0.52203 0.407258,0.56638 -0.141358,0.36072 -0.536278,-0.20105 -0.57096,-0.13255 -0.243099,0.48006 0.233183,0.43571 0.614973,0.64593 0.978302,0.53868 0.420554,-0.12413 0.985115,0.38364 1.918794,1.7258 0.727607,1.04593 1.322917,2.0382 1.322917,2.20504 0,0.16685 0.1905,0.49387 0.42333,0.7267 0.61681,0.61681 1.13141,-0.0602 0.68285,-0.89837 z m -24.828719,-0.001 c 0.08572,-0.26028 -0.162909,-0.44097 -0.606771,-0.44097 -0.413596,0 -1.409146,-0.3175 -2.212329,-0.70556 -0.80318,-0.38805 -1.633287,-0.70555 -1.844675,-0.70555 -0.211392,0 -0.832528,-0.51594 -1.380303,-1.14653 -2.441688,-2.81083 -4.549268,-4.8507 -5.011713,-4.8507 -0.407953,0 -0.485899,0.6889 -0.414938,3.66724 l 0.08738,3.66724 3.991942,0.24943 c 2.195566,0.13718 4.419078,0.38116 4.94114,0.54216 1.250029,0.38552 2.270107,0.2703 2.450271,-0.27676 z m 7.622336,0.0882 c -0.111686,-0.29105 -0.344827,-0.52917 -0.518097,-0.52917 -0.173267,0 -0.315034,0.23812 -0.315034,0.52917 0,0.29104 0.233144,0.52916 0.518096,0.52916 0.315592,0 0.438726,-0.20683 0.315035,-0.52916 z m 22.821673,-2.24793 c -0.46616,-1.12557 -1.78258,-2.523 -1.78258,-1.89244 0,0.20838 0.23001,0.8283 0.51114,1.3776 0.28112,0.5493 0.60382,1.30308 0.71711,1.67508 0.15111,0.49616 0.31046,0.57188 0.59813,0.28421 0.28767,-0.28767 0.276,-0.67253 -0.0438,-1.4446 z m -2.48814,-0.90905 c 0,-0.28105 -0.39687,-0.93923 -0.88194,-1.46263 -0.48507,-0.52339 -0.88195,-1.0872 -0.88195,-1.25289 0,-0.1657 -0.15875,-0.30127 -0.35277,-0.30127 -0.68306,0 -0.34061,1.00408 0.77046,2.25905 1.2637,1.42738 1.3462,1.47381 1.3462,0.75774 z m 0.70556,-2.8404 c -0.94743,-1.00849 -1.41111,-1.12068 -1.41111,-0.34141 0,0.2973 0.35719,0.68411 0.79375,0.85959 1.32911,0.53423 1.48395,0.40427 0.61736,-0.51818 z m 3.51656,0.61736 c -0.006,-0.14552 -0.2443,-0.57274 -0.52917,-0.94937 -0.51035,-0.67475 -0.51795,-0.67431 -0.51795,0.0294 0,0.3928 0.10584,0.82002 0.23519,0.94937 0.31697,0.31697 0.82583,0.29854 0.81193,-0.0294 z m -8.54369,-3.11625 c -0.33618,-0.33618 -1.01018,0.20835 -0.75964,0.61373 0.14891,0.24094 0.34624,0.23486 0.59959,-0.0185 0.20771,-0.2077 0.27973,-0.47555 0.16005,-0.59523 z m 3.61602,0.55861 c 0,-0.19402 -0.23813,-0.35277 -0.52917,-0.35277 -0.29104,0 -0.52917,0.15875 -0.52917,0.35277 0,0.19403 0.23813,0.35278 0.52917,0.35278 0.29104,0 0.52917,-0.15875 0.52917,-0.35278 z m -26.017364,-8.34752 c -0.242535,-0.0979 -0.63941,-0.0979 -0.881945,0 -0.242534,0.0979 -0.0441,0.17793 0.440973,0.17793 0.485069,0 0.683507,-0.0801 0.440972,-0.17793 z M 11.417987,59.283306 c 0,-0.372348 -0.677019,-0.528782 -0.878388,-0.202963 -0.121871,0.197193 0.02591,0.358532 0.328401,0.358532 0.302492,0 0.549987,-0.07001 0.549987,-0.155569 z m 3.163782,-2.40207 c -0.0062,-0.242535 -0.244891,-0.74994 -0.53049,-1.127567 -0.392983,-0.519615 -0.618475,-0.587386 -0.927198,-0.278666 -0.30872,0.308721 -0.201154,0.580092 0.442295,1.115831 1.017005,0.846765 1.029638,0.850379 1.015393,0.290402 z M 3.3227316,55.38193 c -0.02766,-0.523624 -0.816899,-0.427427 -1.000003,0.121886 -0.09891,0.296729 0.06236,0.428973 0.430208,0.352778 0.323636,-0.06704 0.580044,-0.280636 0.569795,-0.474664 z m 9.4265724,-0.592157 c -0.197126,-0.591379 -1.249289,-1.194963 -1.553228,-0.891026 -0.14066,0.140664 0.05016,0.487187 0.424053,0.770053 0.829589,0.627623 1.31541,0.679671 1.129175,0.120973 z m 2.235683,-3.120208 c -0.231175,-0.771602 -0.572699,-1.402913 -0.758938,-1.402913 -0.448419,0 -0.436742,1.308827 0.01415,1.5875 0.567567,0.350775 0.423066,1.940278 -0.176388,1.940278 -0.702663,0 -0.668994,0.34747 0.08819,0.910184 0.543885,0.404194 0.655204,0.334371 0.93533,-0.586668 0.208548,-0.685701 0.173324,-1.528238 -0.102358,-2.448381 z m -4.272555,1.473986 c 0,-0.38967 -1.0681944,-1.299486 -1.8520844,-1.577482 -0.906388,-0.32144 -0.77719,0.619702 0.176389,1.284884 0.878865,0.613065 1.6756954,0.752202 1.6756954,0.292598 z M -4.1096374,50.510416 c 0.003,-0.156972 -0.153348,-0.187291 -0.347376,-0.06737 -0.194028,0.119916 -0.350347,0.486472 -0.347376,0.81457 0.0047,0.514095 0.05267,0.523406 0.347376,0.06737 0.188085,-0.291042 0.344404,-0.657598 0.347376,-0.81457 z M 12.080239,50.185738 C 11.84874,49.753179 11.460455,49.200389 11.21738,48.957315 10.974306,48.714241 10.703612,48.31409 10.615838,48.068091 c -0.08778,-0.246 -0.265529,-0.349836 -0.395013,-0.230748 -0.2785254,0.256165 1.537656,3.134865 1.977796,3.134865 0.166388,0 0.113115,-0.353912 -0.118382,-0.78647 z m 3.92386,0.454512 c 0,-0.416228 -0.688041,-0.861482 -0.940742,-0.608783 -0.252699,0.252699 0.192556,0.940741 0.608785,0.940741 0.182576,0 0.331957,-0.149381 0.331957,-0.331958 z m -26.578913,-4.973264 c 0.357608,-0.8505 0.363721,-1.068521 0.02696,-0.96135 -0.239548,0.07623 -0.592249,0.485523 -0.783779,0.909533 -0.376265,0.832971 -0.886488,1.033031 -0.886488,0.347594 0,-0.676164 -0.56715,0.120746 -0.991948,1.393798 l -0.382687,1.146852 1.277725,-0.868236 c 0.702749,-0.47753 1.485848,-1.363216 1.740221,-1.968191 z m 18.8775016,2.025769 c -0.208707,-0.251477 -0.353533,-0.801514 -0.321836,-1.222305 0.05239,-0.695456 0.111901,-0.715961 0.654029,-0.225344 0.343584,0.310939 0.684555,0.397084 0.804369,0.203221 0.390733,-0.632218 -2.075505,-2.127946 -3.700339,-2.24419 -0.854078,-0.0611 -1.552868,-0.269846 -1.552868,-0.463874 0,-0.512107 2.958898,-0.602769 4.457114,-0.136569 1.9633714,0.610944 2.3131894,0.229965 0.828587,-0.902397 -1.125121,-0.858172 -1.428641,-0.946202 -2.010184,-0.58302 -0.482659,0.301424 -0.816801,0.318362 -1.131305,0.05735 -0.315147,-0.261549 -0.903229,-0.224301 -2.000828,0.126728 -0.854972,0.273433 -1.991058,0.592784 -2.524634,0.709669 -0.93693896,0.205245 -1.38083696,0.904631 -0.574166,0.904631 0.270791,0 0.254899,0.169985 -0.05027,0.537692 -0.67578196,0.814268 -0.21966396,0.969674 1.41157,0.480944 1.160361,-0.347652 1.529865,-0.349667 1.740108,-0.0095 0.146807,0.23754 0.729642,0.555636 1.295188,0.70688 0.593961,0.158843 1.082899,0.558562 1.157617,0.946379 0.129614,0.672746 1.012085,1.538656 1.589537,1.559706 0.16928,0.0062 0.137019,-0.194534 -0.07169,-0.446011 z m -17.345812,-2.195146 c 0,-0.271739 0.43494,-0.89737 0.966534,-1.390291 0.973414,-0.902601 0.704349,-1.275953 -0.328087,-0.455249 -0.799674,0.635675 -1.7384586,2.221979 -1.472424,2.488014 0.326797,0.326797 0.833977,-0.06392 0.833977,-0.642474 z m 4.041788,-2.110124 c 1.928882,-1.975681 1.998657,-2.266318 0.365438,-1.522173 -0.954037,0.434688 -3.241615,3.462451 -2.616,3.462451 0.195935,0 1.208687,-0.873125 2.250562,-1.940278 z m 1.983508,0.695651 c 0.84034,-0.296489 1.83773,-0.494927 2.21642204,-0.440972 0.378693,0.05395 0.756204,-0.100338 0.838916,-0.342873 0.09284,-0.272233 -0.174296,-0.440972 -0.698115,-0.440972 -1.14510304,0 -4.14918604,1.045679 -4.14918604,1.444273 0,0.413277 -0.0022,0.413539 1.791963,-0.219456 z m 6.365767,-2.502965 c 0.849013,-0.314926 1.821472,-0.562917 2.16102,-0.551092 0.949889,0.03308 0.731292,-0.950946 -0.266902,-1.201476 -1.325329,-0.332637 -3.257461,0.141382 -5.26144096,1.290812 l -1.79179604,1.027727 1.80773004,0.0033 c 0.994252,0.0018 2.50237696,-0.254356 3.35138896,-0.569281 z M 0.01965364,39.48887 c 0.07516,-0.229444 -0.352833,-0.315463 -1.12252804,-0.225605 -1.711965,0.199862 -2.014542,0.849288 -0.329884,0.708036 0.73201004,-0.06138 1.38559604,-0.27847 1.45241204,-0.482431 z M 11.442784,162.89096 c 0.01365,-0.14552 0.161227,-0.58208 0.327981,-0.97013 0.268662,-0.62521 0.30601,-0.59508 0.327981,0.26458 0.01365,0.53358 -0.133953,0.97014 -0.327981,0.97014 -0.194028,0 -0.341619,-0.11906 -0.327981,-0.26459 z m 14.439093,-5.20819 c -3.409358,-1.00171 -6.561685,-1.61477 -7.147367,-1.39003 -0.35536,0.13637 -0.613745,0.0711 -0.613745,-0.155 0,-0.21479 -0.396875,-0.39053 -0.881944,-0.39053 -0.836006,0 -1.189747,-0.47397 -0.617361,-0.82719 0.395277,-0.24392 10.644907,2.42335 11.113689,2.89213 0.493042,0.49305 0.194151,0.47218 -1.853272,-0.12938 z m -0.992848,-4.95588 c -0.84812,-0.45077 -2.529409,-0.91682 -3.797264,-1.0526 -2.340501,-0.25064 -2.996086,-0.62921 -2.298196,-1.3271 0.297695,-0.2977 1.050389,-0.18136 2.950235,0.45597 3.735031,1.25299 5.593281,2.11786 5.360314,2.49481 -0.265131,0.42898 -0.397853,0.39477 -2.215089,-0.57108 z m 11.75257,-4.39334 c -1.552222,-0.35552 -3.536597,-0.89682 -4.409722,-1.2029 -2.161223,-0.75763 -12.645232,-5.95868 -12.675613,-6.2883 -0.0599,-0.64988 1.404673,-0.0895 6.076996,2.32528 6.727081,3.47671 11.558824,4.94129 16.976165,5.14573 0.371884,0.014 0.579127,0.12255 0.460533,0.24114 -0.495095,0.4951 -3.797603,0.38158 -6.428359,-0.22095 z M 8.6011656,145.25207 c 0.0049,-2.80416 0.356937,-4.42955 0.852117,-3.93437 0.305661,0.30565 -0.228,7.02118 -0.557946,7.02118 -0.164765,0 -0.297141,-1.38906 -0.294171,-3.08681 z m -13.608114,-1.66447 c -0.376633,-0.28487 -0.937472,-0.52299 -1.246308,-0.52917 -0.541305,-0.0108 -1.378757,-2.02454 -1.378757,-3.31534 0,-0.98963 1.004093,-0.64033 1.123095,0.39069 0.0735,0.63678 0.352625,1.0121 0.817183,1.09879 0.700838,0.13079 2.645833,2.03013 2.645833,2.58374 0,0.47205 -1.223154,0.3294 -1.961046,-0.22871 z m 27.2473714,-4.41518 c -1.846033,-0.65705 -3.363831,-1.89383 -2.772572,-2.25925 0.197957,-0.12234 0.571158,-0.0221 0.829334,0.22262 0.495759,0.47005 2.515987,1.50448 3.556219,1.82092 0.339549,0.10329 0.617361,0.35154 0.617361,0.55166 0,0.44059 -0.08414,0.42792 -2.230342,-0.33595 z m -35.164103,-0.35854 c 0,-0.19403 0.754062,-0.35035 1.675694,-0.34738 1.211959,0.004 1.5292516,0.10004 1.146528,0.34738 -0.697464,0.45074 -2.822222,0.45074 -2.822222,0 z m 14.8166666,-1.05833 c -0.485069,-0.15535 -1.47227496,-0.29828 -2.19378896,-0.31762 -1.02060704,-0.0273 -1.26618504,-0.15415 -1.10617604,-0.57113 0.367326,-0.95723 4.711076,-0.098 4.711076,0.93194 0,0.35456 -0.187011,0.34883 -1.411111,-0.0432 z m -8.79329,-0.30948 c -1.624252,-0.4539 -1.177623,-1.04402 1.362743,-1.80058 1.370412,-0.40812 2.491658,-0.89407 2.491658,-1.07988 0,-0.18582 0.46461,-0.33784 1.032466,-0.33784 0.66234,0 1.07335604,-0.20177 1.14652804,-0.56282 0.09755,-0.48135 0.254849,-0.45184 1.086611,0.20388 0.730343,0.57577 1.23551896,0.70896 2.02847196,0.5348 1.127299,-0.2476 1.391741,0.1646 0.552462,0.86114 -0.388138,0.32212 -0.828921,0.32033 -1.92428896,-0.008 -1.209936,-0.3625 -1.552262,-0.33957 -2.30634904,0.15453 -0.487037,0.31913 -1.208607,0.58023 -1.603489,0.58023 -0.408188,0 -0.717968,0.23208 -0.717968,0.5379 0,0.29584 -0.407209,0.69271 -0.90491,0.88194 -0.994371,0.37806 -1.013691,0.37836 -2.243935,0.0346 z m -5.9351826,-0.2985 c -1.18851,-0.14749 -1.506775,-0.58941 -0.65883,-0.9148 0.679591,-0.26078 3.425838,0.47846 3.190722,0.85888 -0.193247,0.31268 -0.422152,0.31774 -2.531892,0.0559 z M 30.6806,129.46535 c -0.368134,-0.27866 -0.787622,-0.43354 -0.932194,-0.34419 -0.144572,0.0893 -1.132674,-0.22222 -2.195777,-0.69237 -1.937442,-0.85683 -4.137265,-1.41566 -5.279779,-1.34123 -0.710582,0.0463 -1.144393,-0.47586 -0.649478,-0.78173 0.441883,-0.2731 4.912114,0.81407 5.921788,1.44019 0.429737,0.26649 1.080735,0.48453 1.446661,0.48453 1.165366,0 2.887278,0.75694 2.887278,1.26923 0,0.62186 -0.344555,0.61196 -1.198499,-0.0344 z M 10.359654,119.15474 c 0,-0.16944 0.197111,-0.50519 0.438023,-0.74611 0.348848,-0.34884 0.33172,-0.50372 -0.08412,-0.76072 -0.433847,-0.26813 -0.340516,-0.51918 0.55192,-1.48462 0.590737,-0.63905 1.379065,-1.75722 1.751842,-2.48483 0.372777,-0.7276 0.889169,-1.32291 1.14754,-1.32291 0.258371,0 0.413223,0.11906 0.344114,0.26458 -0.06911,0.14552 -0.295021,0.66146 -0.502035,1.14653 -0.867152,2.0319 -1.945996,4.44551 -2.207605,4.93889 -0.310046,0.58472 -1.439683,0.93719 -1.439683,0.44919 z m 24.869232,-2.85976 c 0.142004,-0.37446 -0.462791,-0.44999 -2.968007,-0.37069 -2.716576,0.086 -3.363327,-0.012 -4.734751,-0.71733 -1.043986,-0.53695 -1.664307,-1.11941 -1.809881,-1.69942 -0.121817,-0.48536 -0.16172,-0.94224 -0.08868,-1.01528 0.07305,-0.073 1.062326,0.34256 2.198401,0.92357 1.136075,0.58101 2.298976,1.05638 2.584221,1.05638 0.285249,0 1.526618,-0.47625 2.758603,-1.05833 2.348879,-1.10979 2.943637,-1.26108 2.943637,-0.74875 0,0.51705 -0.887207,1.08494 -2.062095,1.31992 -1.574948,0.31499 -1.37994,0.71978 0.481206,0.99888 0.905906,0.13585 2.010079,0.6048 2.557639,1.08624 l 0.963528,0.84718 -1.501087,-0.076 c -1.084368,-0.0549 -1.451575,-0.2066 -1.322737,-0.54633 z m -11.816454,-5.11552 c 0,-0.25879 0.880477,-1.07694 1.956619,-1.8181 1.43505,-0.98836 2.061121,-1.24307 2.34866,-0.95554 0.418955,0.41896 -0.186341,1.48028 -0.844236,1.48028 -0.183215,0 -0.853447,0.39688 -1.489407,0.88195 -1.284153,0.97947 -1.971636,1.12292 -1.971636,0.41141 z m -2.822222,-3.896 c 0,-0.55788 0.97948,-1.47436 1.267689,-1.18615 0.234442,0.23444 -0.625157,1.67212 -0.999772,1.67212 -0.147355,0 -0.267917,-0.21868 -0.267917,-0.48597 z M 14.759788,93.995579 c -0.370392,-0.5993 0.800223,-2.04023 2.264293,-2.78714 1.507769,-0.7692 1.80224,-1.26706 1.80224,-3.04703 0,-0.83669 0.162002,-1.20587 0.529167,-1.20587 0.397859,0 0.529166,0.42589 0.529166,1.71632 0,1.95743 -0.679891,3.04123 -2.930627,4.67166 -1.537589,1.11382 -1.851251,1.20703 -2.194239,0.65206 z m 29.50711,-1.33236 c -1.094183,-1.70513 -5.793073,-6.57997 -6.985963,-7.24755 -0.34979,-0.19575 -1.033611,-0.732526 -1.519605,-1.192838 -1.347018,-1.275846 -6.401936,-3.617288 -7.809318,-3.617288 -0.676349,0 -1.537882,-0.226787 -1.914515,-0.503972 -0.656752,-0.483337 -0.65829,-0.514237 -0.0376,-0.754743 0.812832,-0.314956 4.193001,0.449037 6.05559,1.368697 5.275358,2.604735 14.279369,10.928824 14.286181,13.207384 0.0028,0.97959 -1.046819,0.34224 -2.07477,-1.25969 z M 14.427161,83.144343 c -0.417463,-0.417459 -0.114731,-0.787495 1.343349,-1.641986 1.548236,-0.907327 3.198097,-1.170023 3.56991,-0.568413 0.111633,0.180622 0.0018,0.458434 -0.243762,0.617361 -0.827744,0.535418 -4.480839,1.781701 -4.669497,1.593038 z m 2.33541,-4.28505 c 0.151592,-0.45478 0.635462,-0.536469 0.679097,-0.114653 0.01457,0.14067 -0.164042,0.319264 -0.396875,0.396875 -0.232833,0.07761 -0.359833,-0.04939 -0.282222,-0.282222 z M 9.6540976,66.050124 c 0,-0.438397 -0.3175,-0.995367 -0.705555,-1.237712 -0.450127,-0.281109 -0.705556,-0.822687 -0.705556,-1.495971 0,-1.247618 0.654068,-1.381221 1.606991,-0.328251 0.5210324,0.575735 0.5616544,0.786643 0.1951364,1.013164 -0.3573014,0.220825 -0.2973504,0.402007 0.262847,0.794387 0.50292,0.352257 0.663776,0.745198 0.523953,1.279892 -0.266026,1.017283 -1.1778164,0.997535 -1.1778164,-0.02551 z m -14.111111,-5.754503 c 0,-0.609075 2.180878,-1.915079 3.197966,-1.915079 0.78745404,0 0.219054,0.74772 -1.067246,1.403941 -1.398717,0.713572 -2.13072,0.889173 -2.13072,0.511138 z m 10.911915,-6.793482 c -0.865393,-0.548816 -1.769599,-0.932462 -2.009345,-0.852547 -0.239747,0.07992 -0.435903,-0.05387 -0.435903,-0.297291 0,-0.243426 -0.277813,-0.769857 -0.617361,-1.169847 -0.408963,-0.48176 -0.438735,-0.602025 -0.08819,-0.356274 2.305456,1.61627 4.622426,2.96825 5.086869,2.96825 0.306666,0 0.557576,0.15875 0.557576,0.352778 0,0.611083 -0.866236,0.387 -2.493641,-0.645069 z"
       style="fill:#000000;stroke-width:0.35277778" />
  </g>
</svg>
