<?xml version="1.0" encoding="UTF-8" standalone="no"?>
<svg
   xmlns:dc="http://purl.org/dc/elements/1.1/"
   xmlns:cc="http://creativecommons.org/ns#"
   xmlns:rdf="http://www.w3.org/1999/02/22-rdf-syntax-ns#"
   xmlns:svg="http://www.w3.org/2000/svg"
   xmlns="http://www.w3.org/2000/svg"
   id="svg8"
   version="1.1"
   viewBox="0 0 78.278842 114.50241"
   height="114.50242mm"
   width="78.278839mm">
  <defs
     id="defs2" />
  <metadata
     id="metadata5">
    <rdf:RDF>
      <cc:Work
         rdf:about="">
        <dc:format>image/svg+xml</dc:format>
        <dc:type
           rdf:resource="http://purl.org/dc/dcmitype/StillImage" />
        <dc:title></dc:title>
      </cc:Work>
    </rdf:RDF>
  </metadata>
  <g
     transform="translate(-22.204786,18.096243)"
     id="layer1">
    <path
       id="path4974"
       d="m 93.006403,96.304189 c -0.47422,-0.47422 -0.17732,-2.376097 0.55622,-3.562983 0.70192,-1.135725 0.76554,-1.650022 0.681,-5.504846 -0.0513,-2.338645 -0.003,-4.161892 0.10718,-4.051663 0.11023,0.110229 0.25758,2.013049 0.32744,4.228486 0.11923,3.780444 0.0719,4.126822 -0.76934,5.634517 -1.24597,2.232959 -0.92609,2.952639 1.2056,2.712369 1.89066,-0.21311 3.41815,-1.463674 4.41338,-3.613265 0.751937,-1.624122 0.909467,-1.082456 0.18762,0.645164 -0.54854,1.312841 -2.37863,2.985421 -3.51474,3.212261 -2.05786,0.41085 -2.99543,0.4989 -3.19436,0.29996 z m 0.51537,-1.179542 c -0.0153,-0.302465 0.21903,-0.85809 0.52078,-1.234722 0.53985,-0.67383 0.54343,-0.673499 0.22406,0.02078 -0.17852,0.388056 -0.41287,0.943681 -0.52078,1.234723 -0.16949,0.457111 -0.2,0.454281 -0.22406,-0.02078 z m -22.57631,-1.531408 c -0.41738,-0.502913 -0.37859,-0.981156 0.27213,-3.355583 0.89799,-3.276699 1.00759,-6.892547 0.39125,-12.907517 -0.56478,-5.511691 -0.53716,-6.112436 0.41016,-8.92164 0.70871,-2.101614 0.92415,-3.919118 1.07514,-9.070026 0.0171,-0.582083 -0.24342,-2.487083 -0.57885,-4.233333 -0.53468,-2.783483 -0.56199,-3.845697 -0.22144,-8.614021 0.32842,-4.598395 0.31092,-5.525293 -0.11323,-5.997222 -0.43685,-0.48605 -0.39323,-0.808986 0.33747,-2.498478 0.46154,-1.067152 0.84554,-2.452881 0.85333,-3.079397 0.0139,-1.116954 0.48724,-2.8012 2.53365,-9.015059 0.76863,-2.33391 0.9319,-3.264111 0.6616,-3.769169 -0.19737,-0.368801 -0.35886,-1.244491 -0.35886,-1.945979 0,-0.701488 -0.21419,-1.70411 -0.47597,-2.228052 -0.26179,-0.523942 -0.68708,-1.984495 -0.9451,-3.245675 -0.25803,-1.261181 -0.74242,-2.928056 -1.07644,-3.704167 -0.33403,-0.776111 -0.71716,-2.0900575 -0.8514,-2.9198815 -0.20711,-1.280256 -0.43951,-1.606486 -1.53439,-2.153936 -0.70967,-0.354842 -1.84594,-0.7469897 -2.52503,-0.8714409 -0.6791,-0.1244515 -2.50473,-0.8430139 -4.05695,-1.5968061 -1.55222,-0.7537919 -3.88111,-1.6196888 -5.1753,-1.9242153 -1.561881,-0.3675137 -3.815619,-1.3863192 -6.702776,-3.0299979 -2.392334,-1.3619726 -4.825948,-2.642093 -5.408031,-2.8447123 -0.582083,-0.2026197 -1.328762,-0.8422237 -1.659287,-1.4213426 -0.446653,-0.7825927 -0.859589,-1.0529439 -1.608268,-1.0529439 -0.554023,0 -1.300034,-0.2140419 -1.657803,-0.4756488 -0.930058,-0.6800747 -0.35521,-1.409492 0.911199,-1.156211 0.563365,0.112673 1.015548,0.04996 1.015548,-0.140848 0,-0.189177 -0.570806,-0.343959 -1.268458,-0.343959 -1.402664,0 -3.57648,-1.2933947 -3.053235,-1.8166387 0.576593,-0.576593 3.742559,-0.710876 5.348799,-0.226868 1.222641,0.368419 1.702711,0.751131 2.239351,1.7852117 0.388811,0.749219 1.16214,1.5362983 1.795116,1.8270331 2.238993,1.0284 5.411742,1.999237 8.091372,2.4758969 1.510303,0.2686565 3.494673,0.9069274 4.409723,1.41838 l 1.66372,0.929914 -1.04472,-0.8879328 c -1.72118,-1.4628797 -4.241274,-2.6720872 -6.061533,-2.9084857 -0.942255,-0.1223715 -1.951316,-0.3540583 -2.242358,-0.5148594 -0.319935,-0.1767652 0.02878,-0.2280623 0.881945,-0.1297354 3.088985,0.3560057 4.426906,0.8275454 6.772576,2.3869476 2.89986,1.9278231 3.94443,2.3627441 5.68581,2.3673606 0.71497,0.0019 2.0937,0.3719533 3.06383,0.822351 0.97014,0.4503977 2.28991,0.9231435 2.93282,1.0505468 1.0254,0.2032013 1.14359,0.1518256 0.96259,-0.4184456 -0.11348,-0.357548 -0.0434,-1.0302821 0.15573,-1.4949649 0.31843,-0.7430459 0.33677,-0.7046584 0.15221,0.3184913 l -0.20986,1.1633693 2.41298,-0.105036 c 2.32584,-0.1012427 2.43209,-0.1456024 2.94215,-1.228309 0.29104,-0.6177999 0.805,-1.1977345 1.14214,-1.288743 0.42304,-0.114197 0.22831,0.3039632 -0.62842,1.3494906 l -1.2414,1.5149607 1.15759,0.436554 c 0.63667,0.2401044 1.55446,0.439971 2.03953,0.4441475 0.84004,0.00723 0.84319,0.014668 0.0662,0.1565324 -0.70286,0.1283303 -0.75168,0.2279932 -0.35278,0.7202699 0.39271,0.4846369 0.38267,0.524341 -0.0662,0.261657 -0.29104,-0.1703211 -0.92969,-0.6008807 -1.41922,-0.9567999 -0.99773,-0.7254042 -5.15138,-1.3497983 -4.22522,-0.6351527 1.02495,0.7908836 -3.93943,0.1667859 -5.65482,-0.7108962 -1.06369,-0.5442387 -2.60177,-0.9020972 -4.72456,-1.0992439 -2.44297,-0.2268819 -3.42997,-0.4856162 -4.40973,-1.1559775 -0.69425,-0.4750188 -2.29416,-1.0523593 -3.555335,-1.2829786 -2.001457,-0.3659861 -5.537569,-1.374165 -8.995833,-2.5647966 -0.708827,-0.2440389 -1.291338,-0.8388617 -1.763889,-1.8011705 -0.68958,-1.4042687 -0.756795,-1.4424527 -2.968567,-1.6863717 -1.262912,-0.139277 -2.510146,-0.105041 -2.822222,0.07747 -0.470439,0.275122 -0.441564,0.32874 0.181897,0.3377637 1.872297,0.0271 2.836842,0.723847 3.819486,2.7590329 0.917276,1.8997988 1.131383,2.0916175 3.76984,3.377394 1.538531,0.7497596 3.760596,1.9857884 4.937921,2.7467304 1.920065,1.240998 3.273275,1.7534257 7.369142,2.7905168 0.6791,0.1719502 2.34597,0.8698353 3.70417,1.5508551 1.35819,0.6810202 2.74328,1.240889 3.07797,1.2441526 0.33469,0.00328 1.60469,0.4618287 2.82222,1.019033 1.21753,0.557205 2.92807,1.124427 3.8012,1.260493 2.21958,0.345896 2.82222,0.544889 2.82222,0.931902 0,0.187512 -0.42829,0.232925 -0.97014,0.102866 l -0.97014,-0.23286 0.84955,0.925631 c 0.46725,0.509097 1.14194,1.018432 1.49931,1.131856 0.35736,0.113424 0.64975,0.359863 0.64975,0.5476425 0,0.493173 -1.36535,-0.2921495 -2.91143,-1.6745975 -1.70125,-1.52119 -2.35524,-1.504864 -2.03939,0.05091 0.0394,0.194028 0.1475,0.987778 0.24023,1.7638895 0.1,0.836915 0.5185,1.777838 1.02849,2.312359 0.94647,0.992007 1.17854,1.742666 0.31794,1.02843 -0.47845,-0.397079 -0.51325,-0.270378 -0.29706,1.081566 0.13467,0.842232 0.61667,2.079219 1.0711,2.748854 0.87222,1.285297 1.11007,2.394462 0.42231,1.9694 -0.28713,-0.177454 -0.33266,0.04604 -0.15745,0.772932 0.13557,0.562413 0.24695,1.312055 0.24751,1.66587 0.001,0.577321 0.22512,0.620356 2.18592,0.419576 1.20169,-0.123049 3.24928,-0.06834 4.55021,0.121585 3.11432,0.45466 3.7361,0.264654 4.01598,-1.227229 0.12379,-0.65986 0.36582,-1.286739 0.53785,-1.39306 0.3879,-0.23973 0.38772,-0.231894 -0.0273,1.215129 l -0.34007,1.185753 1.13382,-0.227326 c 0.62361,-0.125028 1.70992,-0.319694 2.41403,-0.43259 1.19368,-0.191393 1.29234,-0.304021 1.45953,-1.666314 0.0986,-0.803575 0.11785,-3.498211 0.0427,-5.988082 -0.0751,-2.489869 -0.13662,-5.0096195 -0.13662,-5.5994455 0,-0.954893 -0.0635,-1.019678 -0.57982,-0.591203 -0.44909,0.372711 -0.40932,0.146999 0.17639,-1.001083 0.41591,-0.81526 0.75621,-1.8957486 0.75621,-2.4010855 0,-1.0672677 -1.35823,-4.40098 -1.79306,-4.40098 -0.16228,0 -0.65867,-0.3759196 -1.10308,-0.835377 -0.77322,-0.7993859 -2.66078,-1.6340673 -3.69531,-1.6340673 -0.37962,0 -0.40451,0.1577502 -0.11133,0.7055555 0.23892,0.4464318 0.24935,0.7055555 0.0284,0.7055555 -0.19206,0 -0.44815,-0.5953124 -0.56907,-1.3229165 -0.34297,-2.0636821 -0.39238,-2.1309696 -1.42053,-1.9344272 -0.93468,0.1786756 -0.95351,0.1491329 -0.75872,-1.1901328 0.10986,-0.7553458 0.12425,-1.1168421 0.032,-0.803325 -0.14643,0.4975136 -0.33159,0.5137164 -1.45542,0.1273626 -0.99829,-0.3431991 -1.38768,-0.7316579 -1.73289,-1.7287524 -0.34411,-0.9939387 -0.34832,-1.2738187 -0.0185,-1.2320927 1.23527,0.156291 1.59101,-0.04969 1.422,-0.8233537 l -0.17339,-0.79375 0.6609,0.809642 c 0.70907,0.8686517 1.2546,0.7306277 0.89631,-0.226771 -0.19259,-0.514615 -0.14578,-0.523969 0.39976,-0.07988 0.35856,0.291885 0.55279,0.8100987 0.46278,1.2347217 -0.0853,0.402453 -0.032,1.1286081 0.11854,1.6136775 0.228,0.7347563 0.28418,0.6170062 0.33668,-0.7055555 0.0594,-1.497204 0.0832,-1.532319 0.41734,-0.617361 0.19488,0.533576 0.49985,0.9701388 0.67771,0.9701388 0.41723,0 0.40791,-0.2412185 -0.0418,-1.0815258 -0.44202,-0.825917 -0.23329,-0.877657 0.51637,-0.127998 0.48157,0.481569 0.55437,0.484878 0.55437,0.0252 0,-0.291042 -0.19844,-0.743885 -0.44097,-1.0063177 -0.24254,-0.262433 -0.75848,-0.852497 -1.14653,-1.311253 l -0.70556,-0.834101 0.70556,0.35644 c 0.38805,0.196042 0.9041,0.285251 1.14677,0.198243 0.28317,-0.101531 0.3638,0.04352 0.22511,0.40494 -0.11885,0.309726 -0.0567,0.759553 0.13819,0.999617 0.19485,0.240064 0.44504,0.7539797 0.55597,1.1420347 0.11092,0.388056 0.12093,0.229306 0.0223,-0.352778 -0.0987,-0.5820827 -0.22781,-1.5216827 -0.28694,-2.0879987 -0.1329,-1.272859 -1.36644,-2.321723 -2.73052,-2.321723 -1.01479,0 -1.0203,0.01081 -0.44951,0.881944 0.31783,0.48507 0.45564,0.881945 0.30624,0.881945 -0.14941,0 0.0308,0.350956 0.40039,0.779904 l 0.67204,0.779904 -0.94763,-0.596901 c -2.85914,-1.800936 -4.49603,-2.485203 -3.99126,-1.668463 0.12244,0.198105 -0.15669,0.352778 -0.63663,0.352778 -1.1778,0 -2.43042,1.360783 -3.18549,3.4605527 -0.34889,0.9702385 -0.94133,2.0418839 -1.31653,2.3814342 -0.87479,0.7916753 -0.86666,1.2135678 0.0234,1.2135678 0.77919,0 0.95896,0.5517666 0.26458,0.8120644 -0.30456,0.1141695 -0.22288,0.3325978 0.26403,0.7061101 0.38775,0.2974428 0.59003,0.6557817 0.4495,0.7963086 -0.38327,0.3832736 -1.33089,-0.5418814 -1.33089,-1.2993457 0,-0.3642977 -0.15875,-0.6623596 -0.35277,-0.6623596 -0.59508,0 -0.39211,-0.91339 0.35277,-1.5874999 0.38806,-0.3511853 0.70556,-0.7691829 0.70556,-0.9288829 0,-0.1597 0.56196,-1.490655 1.24879,-2.9576767 1.67294,-3.573258 2.58728,-4.162186 6.09269,-3.924333 2.97524,0.201878 4.49979,1.093252 5.50966,3.221405 0.76915,1.6208627 0.49406,2.9459677 -1.07501,5.1783022 -1.65353,2.352496 -1.5853,2.9763806 0.35737,3.2677017 2.03103,0.3045728 4.53907,2.2612299 5.5347,4.3179213 0.60827,1.2565235 0.71313,1.9093955 0.51824,3.2267893 -0.35042,2.368696 -0.4309,16.6750595 -0.095,16.8826695 0.15492,0.09575 0.19334,0.452399 0.0854,0.792554 -0.10796,0.340159 0.1068,1.318987 0.47724,2.175175 0.37044,0.856188 0.939,2.826705 1.26346,4.378928 0.32445,1.552222 0.75569,3.298472 0.95831,3.880555 0.89868,2.581779 1.4783,7.970491 0.89738,8.343095 -0.23374,0.149923 -0.14692,1.065138 0.25099,2.645833 0.92175,3.661692 1.07334,7.89154 0.41531,11.588848 -0.74715,4.198101 -0.7141,5.914009 0.14642,7.600766 0.39256,0.769475 0.92765,2.53032 1.18909,3.912983 0.40868,2.161317 0.40204,2.791946 -0.0473,4.495926 -0.34633,1.313282 -0.47027,2.9937 -0.36733,4.980601 0.0854,1.649236 0.093,2.562557 0.0169,2.029605 -0.16161,-1.130914 -1.41982,-1.613334 -2.87751,-1.103288 -0.85261,0.298333 -0.93598,0.517006 -1.12888,2.961096 l -0.2083,2.638976 -0.0146,-3.351389 c -0.0162,-3.721364 -0.49998,-6.079557 -1.74107,-8.486439 -0.45968,-0.891484 -0.90532,-2.506783 -1.00065,-3.627071 -0.0945,-1.110886 -0.41032,-2.480916 -0.70177,-3.044507 -0.29145,-0.563594 -0.76775,-2.719101 -1.05845,-4.79002 -0.65766,-4.684976 -1.04845,-6.149935 -2.30409,-8.637357 -0.9524,-1.886691 -1.82608,-4.361191 -2.26949,-6.427798 -0.22505,-1.0489 -0.92359,-1.263008 -1.57193,-0.481806 -0.22291,0.268584 -0.63721,1.80746 -0.92067,3.419729 -0.28347,1.612268 -0.99365,4.080234 -1.5782,5.484364 -0.89038,2.138796 -1.06336,3.029112 -1.06625,5.487909 -0.003,2.396557 -0.16756,3.287508 -0.89809,4.856921 -0.82441,1.771082 -0.87655,2.172698 -0.66398,5.115277 0.20031,2.772925 0.12875,3.47194 -0.54359,5.309965 -2.70109,7.384143 -2.73797,14.443261 -0.0901,17.250483 0.6275,0.665268 1.1409,1.376415 1.1409,1.580328 0,0.703008 -1.33708,1.081687 -4.63883,1.313779 -2.84244,0.199803 -3.38074,0.149677 -3.79852,-0.353712 z m 5.79152,-0.385869 c 1.87787,-0.241815 2.38272,-0.453679 2.11465,-0.88744 -0.12272,-0.198565 -0.3477,-0.284036 -0.49994,-0.189943 -0.15225,0.0941 -0.43734,-0.181126 -0.63354,-0.611607 -0.32678,-0.717003 -0.60277,-0.782687 -3.28874,-0.782687 h -2.93202 l -0.28734,1.058333 c -0.22358,0.823468 -0.15107,1.161348 0.32674,1.522536 0.59475,0.449598 0.91254,0.442923 5.20019,-0.109192 z m -0.79477,-3.089038 c 0.49138,-0.376975 0.51309,-0.620162 0.14961,-1.675694 -0.23386,-0.679097 -0.41941,-1.949563 -0.41234,-2.823259 l 0.0129,-1.588534 -1.50554,0.0011 c -0.82804,7.06e-4 -1.51539,0.08041 -1.52744,0.177426 -0.0121,0.09701 -0.0876,1.189391 -0.16791,2.427506 -0.0803,1.238113 -0.23699,2.537771 -0.34819,2.888125 -0.16634,0.524094 0.0353,0.661716 1.13744,0.776386 0.73678,0.07666 1.50771,0.166063 1.71316,0.198681 0.20545,0.0326 0.63221,-0.139136 0.94835,-0.38167 z m -1.19051,-4.7625 c -0.43881,-0.559526 -0.42633,-0.572004 0.13319,-0.133194 0.33955,0.266294 0.61736,0.544106 0.61736,0.617361 0,0.29035 -0.28969,0.103473 -0.75055,-0.484167 z m 1.3856,-5.130838 c 0.22408,-1.75521 0.2408,-2.966004 0.0426,-3.088467 -0.17925,-0.110786 -0.0404,-0.509422 0.30853,-0.885853 1.40544,-1.516151 1.8454,-3.500018 1.81136,-8.167853 -0.0268,-3.67823 0.0626,-4.504185 0.51481,-4.757278 0.80889,-0.452674 1.37427,-2.977737 1.0846,-4.843932 -0.20019,-1.289745 -0.30729,-1.47133 -0.53496,-0.907027 -0.15656,0.388056 -0.29582,0.488397 -0.30945,0.222984 -0.0136,-0.265416 0.62396,-1.923365 1.41688,-3.684333 1.35309,-3.005046 2.94856,-8.897083 2.71863,-10.039864 -0.0568,-0.282544 -1.09093,-0.870882 -2.29795,-1.307423 -1.20702,-0.436538 -3.22377,-1.464253 -4.48167,-2.283809 -1.25791,-0.819556 -2.4323,-1.400358 -2.60978,-1.290673 -0.49872,0.308229 -0.71718,2.330937 -0.97938,9.068054 -0.2107,5.413727 -0.16129,6.462401 0.38652,8.204037 0.48099,1.529175 0.56085,2.430219 0.34097,3.847009 -0.15793,1.017574 -0.26153,2.717744 -0.23023,3.778158 0.0379,1.282951 -0.24899,2.81432 -0.85739,4.577002 -0.73088,2.117542 -0.86694,3.004669 -0.67822,4.421971 0.22913,1.72074 0.31781,3.101636 0.47069,7.329247 0.0937,2.590764 0.91613,3.601003 2.48605,3.053729 0.97587,-0.340194 1.04775,-0.507143 1.39735,-3.245679 z m -2.22255,-4.482355 c -0.13244,-0.417301 -0.16143,-0.838102 -0.0644,-0.935115 0.097,-0.09701 0.28476,0.165036 0.4172,0.582337 0.13245,0.417301 0.16144,0.838101 0.0644,0.935115 -0.097,0.09701 -0.28475,-0.165037 -0.4172,-0.582337 z m 3.52778,-11.078813 c 0,-0.466541 0.11906,-0.774671 0.26459,-0.684734 0.14552,0.08994 0.26458,0.471653 0.26458,0.848257 0,0.376605 -0.11906,0.684735 -0.26458,0.684735 -0.14553,0 -0.26459,-0.381716 -0.26459,-0.848258 z m -2.78145,-1.330642 c 0.30901,-2.015867 0.4884,-2.151828 0.4884,-0.370159 0,0.796995 -0.1625,1.549512 -0.3611,1.672258 -0.238,0.147091 -0.2814,-0.296806 -0.1273,-1.302099 z m 2.64563,-0.643322 c -0.0164,-0.48507 0.12412,-1.12007 0.31221,-1.411111 0.30398,-0.470369 0.33867,-0.470369 0.31221,0 -0.0164,0.291041 -0.15686,0.926041 -0.31221,1.411111 l -0.28245,0.881944 -0.0298,-0.881944 z m -2.08846,-4.409722 c 0.007,-0.582083 0.0862,-0.777501 0.1757,-0.434259 0.0894,0.343242 0.0836,0.819492 -0.0131,1.058333 -0.0966,0.238842 -0.16982,-0.04199 -0.16263,-0.624074 z m -0.3937,-2.146064 c 0.0169,-0.410968 0.10052,-0.494559 0.21313,-0.213137 0.10191,0.254659 0.0894,0.55893 -0.0278,0.676158 -0.11722,0.117225 -0.2006,-0.09114 -0.18528,-0.463021 z m -0.32493,-1.558102 c 0,-0.48507 0.0801,-0.683507 0.17794,-0.440973 0.0979,0.242535 0.0979,0.63941 0,0.881945 -0.0979,0.242534 -0.17794,0.0441 -0.17794,-0.440972 z m -0.56169,-3.527778 c 0.0714,-2.037291 0.29358,-4.180416 0.49379,-4.7625 0.31861,-0.926278 0.3367,-0.860248 0.14503,0.529167 -0.12045,0.873125 -0.34266,3.01625 -0.49379,4.7625 l -0.2748,3.174999 z m 24.67414,22.810295 c 0.57238,-6.188974 0.22948,-8.789281 -1.45112,-11.004062 -1.00842,-1.328949 -1.33509,-3.378715 -0.86957,-5.456233 l 0.35573,-1.5875 -0.14449,2.116666 c -0.25258,3.700304 0.37043,3.839453 0.72132,0.161107 0.46488,-4.873127 0.39283,-11.807228 -0.15074,-14.508454 l -0.47347,-2.352905 -1.66055,-0.228384 c -1.04506,-0.143733 -2.53874,-0.02473 -4.02987,0.321101 -2.38644,0.553452 -5.1765,1.760852 -5.1765,2.240136 0,0.889014 1.4883,5.202018 2.23768,6.484669 0.9043,1.547808 2.09528,5.49058 2.54096,8.411897 0.1332,0.873125 0.38808,1.865312 0.5664,2.204861 0.20655,0.393276 0.19569,0.617361 -0.0299,0.617361 -0.19476,0 -0.29298,0.198437 -0.21826,0.440972 0.0747,0.242535 0.23314,0.884026 0.35204,1.42554 0.11892,0.54151 0.3703,0.889328 0.55864,0.772929 0.18834,-0.116399 0.35099,-0.08321 0.36146,0.07377 0.25942,3.892635 0.68976,5.900025 1.54036,7.185371 0.65324,0.987104 0.99109,2.029735 1.08773,3.356779 0.0771,1.058714 0.21363,2.043796 0.30341,2.189074 0.0898,0.145274 0.87184,0.207775 1.73789,0.138896 l 1.57464,-0.125237 0.2662,-2.878349 z M 93.359283,61.86378 c -0.14908,-0.939416 -0.19002,-1.789074 -0.091,-1.88813 0.25739,-0.257394 0.67106,2.164101 0.50286,2.943567 -0.0774,0.358923 -0.26281,-0.116022 -0.41189,-1.055437 z m -2.17881,-6.796341 c -0.11737,-0.367319 -0.36517,-1.045556 -0.55068,-1.507194 -0.18551,-0.461634 -0.27184,-0.904783 -0.19185,-0.984772 0.08,-0.07999 0.41008,0.515962 0.73353,1.324342 0.32345,0.80838 0.5058,1.552063 0.40524,1.65263 -0.10057,0.100566 -0.27887,-0.117687 -0.39624,-0.485006 z m -1.34713,-3.503715 c -0.34043,-0.887126 -0.24,-1.11603 0.17587,-0.400875 0.20591,0.3541 0.30007,0.718135 0.20924,0.808965 -0.0908,0.09083 -0.26413,-0.09281 -0.38511,-0.40809 z m -6.2226,-9.070388 c -0.004,-0.589146 -0.0848,-0.668433 -0.31334,-0.30758 -0.17059,0.269331 -0.5222,0.375669 -0.78834,0.238421 -0.26423,-0.13626 -0.17226,0.0021 0.20437,0.30758 0.87888,0.712724 0.90374,0.70612 0.89731,-0.238421 z m 3.12594,-0.200569 c 0.80099,-0.548767 2.65409,-1.238691 4.64057,-1.727722 0.29105,-0.07165 1.24149,-0.163188 2.1121,-0.203418 1.2005,-0.05548 1.61202,-0.224529 1.70334,-0.699728 0.0662,-0.344614 -0.0111,-0.603627 -0.17182,-0.575585 -0.696,0.121447 -0.82223,-0.07738 -0.46862,-0.738117 0.42231,-0.789079 1.23868,-0.978821 0.94759,-0.220236 -0.11522,0.30026 0.0385,0.468408 0.40323,0.440973 0.45929,-0.03454 0.565,0.208837 0.4787,1.10218 -0.10576,1.094743 0.354,1.541794 0.81632,0.79375 0.11991,-0.194028 0.0896,-0.352708 -0.0674,-0.352623 -0.15698,8.5e-5 -0.2619,-0.635543 -0.23317,-1.412512 0.0287,-0.776964 -0.0929,-1.502378 -0.27033,-1.612028 -0.17742,-0.109654 -0.22507,-0.357152 -0.10588,-0.549998 0.11918,-0.192846 -0.0678,-0.664962 -0.41544,-1.04914 -0.61014,-0.674194 -0.60827,-0.690809 0.0536,-0.477407 0.55559,0.179126 0.51835,0.07341 -0.19617,-0.556881 l -0.88194,-0.777977 -0.12253,0.823231 c -0.0787,0.528998 0.15588,1.048678 0.65644,1.454006 0.44362,0.359216 0.5799,0.630773 0.31656,0.630773 -0.35966,0 -0.36834,0.09408 -0.0391,0.423334 0.93748,0.937485 0.34929,1.048847 -0.62246,0.117852 -0.57519,-0.551064 -0.95182,-1.153975 -0.83697,-1.339808 0.11485,-0.185829 -0.1761,-0.677474 -0.64657,-1.092542 -0.47046,-0.415067 -0.64944,-0.616168 -0.39775,-0.446891 0.28105,0.189018 0.45764,0.163022 0.45764,-0.06737 0,-0.206333 -0.16663,-0.478134 -0.37028,-0.603998 -0.50951,-0.314893 0.99938,-1.583877 1.60636,-1.350955 0.30231,0.116007 0.44021,-0.04441 0.38158,-0.443886 -0.0505,-0.344047 -0.31607,-0.68592 -0.59015,-0.759714 -0.3899,-0.104976 -0.38319,-0.05232 0.0308,0.241963 0.40873,0.29053 0.26499,0.346946 -0.63154,0.247872 -0.63838,-0.07055 -1.27338,-0.247445 -1.41111,-0.393107 -0.13772,-0.145662 0.0934,-0.159286 0.51365,-0.03027 0.94162,0.289073 1.35686,-0.263384 0.64317,-0.855695 -0.81475,-0.676179 -0.69042,-1.521089 0.15708,-1.067519 0.84743,0.453531 1.44758,0.474331 0.73797,0.02558 -0.28597,-0.180844 -0.52409,-0.694351 -0.52916,-1.141126 -0.007,-0.59314 -0.18536,-0.782155 -0.66199,-0.700529 -0.39121,0.067 -0.55972,-0.03877 -0.42054,-0.263962 0.12773,-0.206665 -0.001,-0.709038 -0.28652,-1.11638 -0.50888,-0.726524 -0.52575,-0.727565 -0.88587,-0.05466 -0.26069,0.487091 -0.25021,0.80287 0.0361,1.089212 0.49379,0.493794 0.68739,1.550744 0.23255,1.26964 -0.18016,-0.111343 -0.24461,-0.336666 -0.14322,-0.500715 0.29648,-0.479714 -0.63316,-0.635169 -1.49299,-0.24966 -0.65664,0.29441 -0.71656,0.446623 -0.35278,0.896161 0.36436,0.450254 0.34904,0.486995 -0.0909,0.21802 -0.29104,-0.177923 -0.84666,-0.275033 -1.23472,-0.215794 -0.68853,0.105106 -0.68936,0.09555 -0.0343,-0.396258 0.42394,-0.318286 0.56633,-0.673742 0.38647,-0.964766 -0.18826,-0.304602 -0.14673,-0.375479 0.12249,-0.209088 0.22399,0.138437 0.40727,0.07422 0.40727,-0.142709 0,-0.221643 0.19316,-0.278366 0.44097,-0.12949 0.29963,0.180015 0.28579,0.07362 -0.0432,-0.331957 -0.51262,-0.631963 -1.2959,-0.841089 -0.92944,-0.248148 0.12802,0.207144 -0.0302,0.25442 -0.38983,0.116438 -0.43261,-0.16601 -0.52637,-0.104475 -0.32853,0.215625 0.21848,0.353519 0.11915,0.363538 -0.47129,0.04754 -0.87614,-0.468888 -1.0019,-0.803575 -0.18404,-0.48973 0.48948,0.18783 0.50347,0.119377 0.10579,-0.517419 -0.25208,-0.403638 -0.60983,-0.640249 -0.795,-0.525808 -0.18517,0.114445 -0.23018,0.03577 -0.10003,-0.17483 0.13016,-0.210601 0.0727,-0.484222 -0.12763,-0.608051 -0.20036,-0.123828 -0.28273,-0.357106 -0.18305,-0.518396 0.0997,-0.16129 -0.65179,-0.250218 -1.66994,-0.197619 -1.01815,0.0526 -2.12899,-0.04818 -2.46854,-0.223951 -0.38732,-0.200497 -0.61736,-0.189519 -0.61736,0.02946 0,0.194956 -0.55442,0.278063 -1.25588,0.188257 -0.8571,-0.109739 -1.17963,-0.03743 -1.01576,0.227728 0.17461,0.282522 0.0419,0.282413 -0.4866,-3.53e-4 -0.48799,-0.261164 -0.7997,-0.270834 -0.94889,-0.02942 -0.1222,0.197718 -0.39693,0.251477 -0.61053,0.119471 -0.24744,-0.152929 -0.30912,-0.03355 -0.16998,0.329057 0.16072,0.418836 0.0681,0.511419 -0.3507,0.350697 -0.3584,-0.137531 -0.48153,-0.07674 -0.33261,0.164225 0.13005,0.210428 0.0451,0.446398 -0.18888,0.524376 -0.26379,0.08793 -0.19068,0.231821 0.19252,0.378869 0.4188,0.160708 0.53647,0.105424 0.36526,-0.171598 -0.16868,-0.272937 -0.0576,-0.333862 0.33446,-0.18342 0.32287,0.123896 0.58703,0.08411 0.58703,-0.08841 0,-0.348025 2.02204,-0.906921 2.76943,-0.765478 0.30412,0.05756 0.37935,-0.07783 0.20803,-0.374413 -0.1476,-0.25551 -0.13247,-0.340911 0.0336,-0.189774 0.70407,0.640743 0.4126,1.193084 -0.59786,1.132974 -0.75507,-0.04492 -0.98379,0.07137 -0.8461,0.430185 0.10453,0.272397 0.0317,0.394737 -0.16319,0.274267 -0.19354,-0.119617 -0.67633,-0.114509 -1.07286,0.01136 -0.61092,0.193897 -0.65082,0.313895 -0.26143,0.786084 0.41268,0.500422 0.3696,0.509496 -0.4224,0.08896 -0.76358,-0.405441 -0.82547,-0.399768 -0.46115,0.04227 0.2621,0.318008 0.30297,0.701203 0.10837,1.016064 -0.19426,0.314328 -0.15328,0.710103 0.10838,1.046501 0.37039,0.476201 0.34538,0.481789 -0.20883,0.04666 -0.55142,-0.43295 -0.71237,-0.405511 -1.296,0.220941 -0.51055,0.548009 -0.56956,0.812874 -0.25233,1.1326 0.3181,0.320604 0.25054,0.356288 -0.29149,0.153977 -0.63023,-0.235222 -0.65315,-0.198924 -0.21469,0.339954 0.42089,0.517282 0.41911,0.575758 -0.0125,0.410147 -0.32605,-0.12512 -0.52229,0.05842 -0.55714,0.521088 -0.0296,0.392832 0.10445,0.714241 0.29787,0.714241 0.19342,0 0.23944,-0.181603 0.10226,-0.40356 -0.3345,-0.541222 1.914,0.793365 2.43976,1.44811 0.22762,0.28346 -0.11123,0.14708 -0.75299,-0.303068 -1.55475,-1.090545 -1.82196,-0.734039 -0.31267,0.417153 0.65204,0.497335 1.18553,1.151953 1.18553,1.454703 0,0.411957 -0.11552,0.45459 -0.4591,0.169447 -0.2525,-0.209557 -0.42448,-0.544379 -0.38217,-0.744051 0.0423,-0.199672 -0.14362,-0.443166 -0.41317,-0.541098 -0.34072,-0.123793 -0.40071,-0.0297 -0.19686,0.308681 0.2482,0.412013 0.20217,0.412902 -0.29979,0.0058 -0.32615,-0.26452 -0.51628,-0.605071 -0.42252,-0.756783 0.0938,-0.151712 -0.0617,-0.364917 -0.34536,-0.473787 -0.63234,-0.242652 -0.95607,0.238862 -1.12268,1.669887 -0.0699,0.600382 -0.21281,1.361627 -0.31755,1.691658 -0.18516,0.583392 1.05881,1.605576 1.72176,1.41479 0.15994,-0.04603 0.1855,0.0867 0.0568,0.294958 -0.1627,0.263257 -0.3939,0.245953 -0.75866,-0.05677 -0.42041,-0.348905 -0.59601,-0.334786 -0.88382,0.07106 -0.28655,0.404075 -0.31759,0.377952 -0.15354,-0.129201 0.12059,-0.372802 0.0614,-0.546552 -0.14311,-0.420151 -0.64234,0.396984 -0.35883,0.80072 1.05265,1.499065 1.46307,0.723872 2.04527,0.661956 1.37458,-0.146187 -0.65595,-0.790367 -0.11149,-0.528603 0.60894,0.292763 0.36962,0.42141 0.4736,0.650166 0.23106,0.508349 -0.24253,-0.141817 -0.44097,-0.169108 -0.44097,-0.06064 0,0.263948 1.35517,1.60832 1.62124,1.60832 0.11557,0 0.6315,0.296672 1.14652,0.659271 0.51502,0.362603 1.33328,0.767698 1.81835,0.900212 0.86131,0.235302 0.86544,0.227548 0.17639,-0.331393 -0.38805,-0.314783 -0.66587,-0.719878 -0.61736,-0.900211 0.0485,-0.180407 -0.20108,-0.327953 -0.55461,-0.327953 -0.35352,0 -1.18487,-0.646137 -1.84743,-1.435858 -0.66256,-0.789721 -1.28612,-1.529549 -1.3857,-1.644057 -0.34684,-0.398876 0.88235,0.367125 1.58285,0.986391 1.30415,1.152913 4.40972,3.107383 4.40972,2.775225 0,-0.180908 -0.14322,-0.328923 -0.31826,-0.328923 -0.17505,0 -0.48985,-0.492199 -0.69956,-1.093777 -0.33847,-0.970925 -0.31263,-1.070807 0.23007,-0.889286 0.38875,0.130031 0.32234,-0.0011 -0.18239,-0.360366 -0.43656,-0.310666 -0.79375,-0.788595 -0.79375,-1.062062 0,-0.273462 -0.23721,-0.588235 -0.52714,-0.699491 -0.28992,-0.111255 -0.43278,-0.354961 -0.31745,-0.541567 0.11533,-0.186605 -0.084,-0.578619 -0.443,-0.871138 -0.35898,-0.29252 -0.45641,-0.432679 -0.21652,-0.311461 0.31065,0.156976 0.4001,-0.08927 0.31085,-0.855782 -0.13699,-1.176606 0.15841,-1.368863 0.84049,-0.547014 0.35037,0.422176 0.35037,0.529167 0,0.529167 -0.3274,0 -0.33917,0.120495 -0.0463,0.473431 0.2161,0.260385 0.28681,0.579526 0.15714,0.7092 -0.12967,0.129674 0.0701,0.467204 0.44403,0.750072 0.37389,0.282864 0.5474,0.519349 0.38558,0.525523 -0.16183,0.0062 0.18474,0.615971 0.77016,1.355114 0.58541,0.739144 1.17158,1.771019 1.30261,2.293056 0.36364,1.448879 0.93037,1.137965 0.68127,-0.373758 l -0.21798,-1.322916 0.76178,0.881944 c 0.41897,0.485069 0.66954,0.70014 0.5568,0.477936 -0.28914,-0.569884 0.67361,-0.86076 1.19875,-0.362176 0.6456,0.612966 0.0796,-1.156391 -0.65575,-2.049959 -0.54156,-0.658072 -0.53859,-0.670758 0.0503,-0.214313 0.34423,0.266841 0.72788,0.38317 0.85254,0.258505 0.26619,-0.266188 0.37617,-0.165386 -1.74301,-1.59755 -0.92164,-0.622847 -1.6757,-1.211824 -1.6757,-1.308838 0,-0.09701 0.70329,0.307489 1.56287,0.898892 1.74134,1.198072 2.29593,1.371279 1.56713,0.489437 -0.44225,-0.535114 -0.41666,-0.543803 0.29551,-0.100316 0.47478,0.29566 0.6325,0.576488 0.40331,0.718136 -0.263,0.162542 -0.25703,0.306363 0.0198,0.47747 0.21791,0.134673 0.2897,0.417171 0.15955,0.627772 -0.14183,0.229475 -0.0723,0.281347 0.17344,0.129455 0.56846,-0.351328 0.21574,-1.964527 -0.55032,-2.51696 -0.34799,-0.250941 -0.9502,-0.707675 -1.33826,-1.014962 l -0.70556,-0.558705 0.70556,0.217427 c 0.52413,0.16152 0.44103,-0.005 -0.32318,-0.64765 -0.70656,-0.594156 -0.89717,-0.946397 -0.60863,-1.12473 0.24504,-0.15144 0.37973,-0.08332 0.32319,0.163449 -0.0533,0.232703 0.1236,0.503224 0.39314,0.601155 0.32872,0.119433 0.39789,0.02889 0.21008,-0.274994 -0.18497,-0.299283 -0.13981,-0.366409 0.13304,-0.197778 0.22717,0.140399 0.32848,0.392084 0.22514,0.559297 -0.10334,0.167214 -0.0239,0.405339 0.17639,0.529167 0.20035,0.123829 0.27787,0.364956 0.17226,0.535845 -0.10561,0.170885 0.16961,0.503407 0.61161,0.738935 0.72962,0.388797 0.75904,0.374181 0.31946,-0.15869 -0.26629,-0.322809 -0.36592,-0.586923 -0.22139,-0.586923 0.14453,0 0.0449,-0.277813 -0.22139,-0.617361 -0.44025,-0.561369 -0.4274,-0.572809 0.14172,-0.126118 0.34424,0.270185 0.72953,0.387607 0.8562,0.260939 0.12666,-0.126669 -0.0756,-0.46718 -0.4495,-0.756694 -0.66691,-0.516404 -0.66642,-0.522041 0.0257,-0.297212 0.55777,0.181172 0.6189,0.135343 0.29186,-0.218796 -0.50127,-0.542816 0.12968,-2.233468 0.70162,-1.879992 0.22115,0.136684 0.27125,-0.01108 0.12922,-0.381173 -0.21445,-0.55886 -0.15051,-0.556577 0.84912,0.03034 0.59457,0.349081 1.26727,0.866616 1.49488,1.150077 0.22762,0.28346 -0.10209,0.153589 -0.73268,-0.288604 -0.63059,-0.442196 -1.16483,-0.67412 -1.1872,-0.515384 -0.29928,2.123528 -0.22088,5.620293 0.1359,6.061283 0.28788,0.355829 0.29708,0.454346 0.0273,0.292682 -0.25125,-0.15058 -0.55453,0.180643 -0.79375,0.866867 -0.49303,1.4143 -0.48682,1.598838 0.0362,1.075827 0.64709,-0.647093 1.13949,-0.503643 0.59,0.171884 -0.4265,0.524316 -0.40672,0.566159 0.16597,0.351275 0.35757,-0.134172 1.03116,-0.339577 1.49686,-0.456463 0.4657,-0.116882 0.76021,-0.352513 0.65446,-0.523621 -0.10575,-0.171107 0.019,-0.230046 0.27715,-0.130972 0.25817,0.09907 0.78236,-0.06029 1.16485,-0.354146 0.67736,-0.520397 0.66335,-0.561601 -0.53929,-1.585796 -0.6791,-0.578334 -1.09622,-1.055783 -0.92695,-1.061004 0.42578,-0.01312 -0.4862,-1.067823 -0.92333,-1.067823 -0.19403,0 -0.13491,0.277812 0.13139,0.617361 0.44025,0.561368 0.4274,0.572809 -0.14172,0.126118 -0.34424,-0.270185 -0.54405,-0.573077 -0.44403,-0.673096 0.10002,-0.10002 -0.0152,-0.431684 -0.25606,-0.737027 -0.24085,-0.305347 0.31884,-0.0025 1.24377,0.673096 0.92492,0.675548 1.69249,1.38702 1.70569,1.581048 0.0334,0.490297 0.68835,1.234722 1.08636,1.234722 0.18173,0 0.21119,-0.198438 0.0655,-0.440972 -0.15768,-0.262467 -0.006,-0.230682 0.37453,0.07852 0.61231,0.497445 0.61275,0.534886 0.0105,0.881945 -0.34594,0.199347 -0.92072,0.64026 -1.27729,0.979808 -0.35658,0.339549 -0.64832,0.518548 -0.64832,0.397778 0,-0.120773 -0.24099,-0.01958 -0.53552,0.224861 -0.29454,0.244443 -0.88985,0.46875 -1.32292,0.498457 -0.43307,0.0297 -0.74714,0.247721 -0.69794,0.484473 0.0692,0.332956 -0.0712,0.330102 -0.62,-0.01259 -0.61925,-0.386732 -0.81523,-0.319944 -1.5416,0.525392 -0.45769,0.532649 -0.9441,0.968449 -1.0809,0.968449 -0.13681,0 -0.48686,0.238125 -0.77791,0.529167 -0.72511,0.72511 -0.25707,0.665201 0.87789,-0.112374 z m 5.11172,-4.533303 c 0.12977,-0.129777 -0.0422,-0.566339 -0.38218,-0.970139 -0.61652,-0.732264 -0.61608,-0.732444 0.1673,-0.06967 0.69325,0.586522 0.79767,1.275768 0.19329,1.275768 -0.11791,0 -0.10819,-0.106179 0.0216,-0.235955 z m -1.2217,-0.734184 c -0.43881,-0.559526 -0.42633,-0.572004 0.13319,-0.133194 0.33955,0.266294 0.61736,0.544106 0.61736,0.617361 0,0.29035 -0.28969,0.103473 -0.75055,-0.484167 z m -15.16854,-0.970138 c -0.0242,-0.09701 -0.0664,-0.295452 -0.0936,-0.440973 -0.0272,-0.14552 -0.19968,-0.502708 -0.38324,-0.79375 -0.25819,-0.409398 -0.12005,-0.389434 0.61036,0.08819 1.11432,0.728687 1.45891,0.783466 1.10955,0.176389 -0.13957,-0.242535 -0.11789,-0.317317 0.0482,-0.16618 0.16608,0.151137 0.33592,0.506229 0.37744,0.789094 0.058,0.394906 -0.0755,0.433482 -0.57498,0.166176 -0.831,-0.444733 -1.14993,-0.443033 -0.87324,0.0047 0.11992,0.194028 0.12929,0.352778 0.0208,0.352778 -0.10847,0 -0.21705,-0.07937 -0.24131,-0.176389 z m 14.46298,-0.440973 c -0.43881,-0.559526 -0.42633,-0.572004 0.1332,-0.133194 0.58764,0.460858 0.77451,0.750555 0.48416,0.750555 -0.0733,0 -0.35106,-0.277812 -0.61736,-0.617361 z m 0.92695,-2.059379 -1.05834,-0.909348 1.14653,0.758734 c 0.63059,0.417304 1.14653,0.827299 1.14653,0.911097 0,0.264072 -0.14939,0.172061 -1.23472,-0.760483 z m 0.35277,-0.705555 -1.05833,-0.909348 1.14653,0.758733 c 0.63059,0.417304 1.14653,0.827299 1.14653,0.911098 0,0.264072 -0.14939,0.17206 -1.23473,-0.760483 z m -11.37708,-0.186069 c -1.26258,-0.808577 -1.56194,-1.264892 -0.43368,-0.661067 0.39206,0.209829 0.908,0.269335 1.14653,0.132242 0.23852,-0.137092 0.31599,-0.119355 0.17216,0.03942 -0.14384,0.158775 -0.0847,0.501728 0.13139,0.762113 0.5347,0.644278 0.32949,0.58922 -1.0164,-0.272711 z m -2.73403,-0.872264 -1.05833,-0.909348 1.14653,0.758733 c 0.63059,0.417304 1.14653,0.827299 1.14653,0.911098 0,0.264072 -0.14939,0.17206 -1.23473,-0.760483 z m 8.55219,0.237631 c -1.44979,-0.929425 -1.65066,-1.256707 -0.37247,-0.606877 0.61828,0.314339 1.22297,0.731404 1.34373,0.926811 0.28289,0.457722 0.19836,0.429877 -0.97126,-0.319934 z m -8.42491,-1.109606 -0.83283,-0.726493 0.97014,0.590677 c 0.53357,0.324873 0.97014,0.651796 0.97014,0.726493 0,0.275463 -0.29475,0.118258 -1.10745,-0.590677 z m 2.63615,0.140786 c 0,-0.312032 0.18231,-0.336945 0.64676,-0.08838 0.35572,0.190373 0.64676,0.385907 0.64676,0.434516 0,0.04861 -0.29104,0.08838 -0.64676,0.08838 -0.35572,0 -0.64676,-0.195534 -0.64676,-0.434516 z m 0.95846,-0.490724 c -1.82183,-1.234369 -2.28453,-1.658331 -1.18744,-1.08802 0.93549,0.486298 1.27957,0.510921 1.0084,0.07216 -0.40733,-0.65907 0.59865,-0.794459 1.16531,-0.156834 0.32093,0.361121 0.35332,0.459281 0.072,0.218133 -0.66215,-0.567563 -1.19856,-0.565947 -0.83761,0.0025 0.154,0.242535 0.28244,0.586493 0.28541,0.764353 0.003,0.177857 0.22593,0.396889 0.49548,0.486738 0.3389,0.112967 0.39963,0.01323 0.19686,-0.323381 -0.2482,-0.412012 -0.20217,-0.412901 0.29979,-0.0058 0.32615,0.26452 0.506,0.621707 0.39967,0.79375 -0.24713,0.399863 -0.0834,0.465737 -1.89785,-0.763626 z m 3.42356,-0.361985 c -0.57763,-0.336476 -0.57165,-0.405864 0.0969,-1.123414 0.39188,-0.420631 0.63106,-0.977043 0.53151,-1.236468 -0.112,-0.291864 -0.0252,-0.375391 0.22769,-0.219097 0.27035,0.167083 0.33477,0.05995 0.19031,-0.316491 -0.16097,-0.419473 -0.0608,-0.518791 0.38102,-0.37781 0.37412,0.11938 0.26793,-0.088 -0.28255,-0.551773 -0.66756,-0.562423 -0.71781,-0.684459 -0.20671,-0.502056 0.44792,0.159855 0.59437,0.110141 0.43503,-0.147672 -0.13211,-0.213759 0.23557,-0.15131 0.81706,0.138779 1.0954,0.546456 1.8512,1.330067 0.94891,0.983826 -0.70494,-0.270506 -1.09074,0.474846 -0.57035,1.101877 0.23449,0.282543 0.30809,0.513715 0.16356,0.513715 -0.14453,0 -0.0449,0.270235 0.22139,0.600526 0.45594,0.565514 0.43332,0.565514 -0.38808,0 -0.94303,-0.649262 -1.58117,-0.792631 -1.26726,-0.284712 0.10735,0.173693 -0.0585,0.413159 -0.36856,0.532137 -0.32142,0.123341 -0.47695,0.442514 -0.36183,0.742523 0.23558,0.613893 0.23522,0.613985 -0.56798,0.14611 z m 2.37955,-2.089362 c -0.11991,-0.194028 -0.37677,-0.352778 -0.5708,-0.352778 -0.19403,0 -0.25467,0.15875 -0.13475,0.352778 0.11991,0.194028 0.37678,0.352778 0.5708,0.352778 0.19403,0 0.25467,-0.15875 0.13475,-0.352778 z m 0.12728,1.742952 -0.83283,-0.726493 0.97014,0.590677 c 0.53357,0.324873 0.97014,0.651795 0.97014,0.726493 0,0.275463 -0.29475,0.118258 -1.10745,-0.590677 z m -10.02582,-0.174915 c -0.65759,-0.526834 -0.65326,-0.533347 0.10896,-0.163974 0.43656,0.211557 0.79375,0.458438 0.79375,0.548626 0,0.269952 -0.18295,0.191995 -0.90271,-0.384652 z m 14.81666,-0.352777 c -0.65758,-0.526835 -0.65326,-0.533347 0.10897,-0.163975 0.43656,0.211557 0.79375,0.458438 0.79375,0.548626 0,0.269952 -0.18296,0.191996 -0.90272,-0.384651 z m -12.34722,-0.705556 c -0.65758,-0.526835 -0.65326,-0.533347 0.10897,-0.163975 0.43656,0.211558 0.79375,0.458439 0.79375,0.548626 0,0.269953 -0.18296,0.191996 -0.90272,-0.384651 z m 3.52778,-0.352778 c -0.65758,-0.526834 -0.65326,-0.533347 0.10896,-0.163974 0.43657,0.211557 0.79375,0.458438 0.79375,0.548626 0,0.269952 -0.18295,0.191995 -0.90271,-0.384652 z m 8.46667,0 c -0.65759,-0.526834 -0.65326,-0.533347 0.10896,-0.163974 0.43656,0.211557 0.79375,0.458438 0.79375,0.548626 0,0.269952 -0.18295,0.191995 -0.90271,-0.384652 z m 2.49021,-0.156926 c -0.11992,-0.194028 -0.0499,-0.352778 0.15557,-0.352778 0.20548,0 0.3736,0.15875 0.3736,0.352778 0,0.194028 -0.07,0.352778 -0.15557,0.352778 -0.0856,0 -0.25368,-0.15875 -0.3736,-0.352778 z m -13.42632,-0.548629 c -0.65759,-0.526835 -0.65326,-0.533347 0.10896,-0.163975 0.43656,0.211557 0.79375,0.458438 0.79375,0.548626 0,0.269953 -0.18296,0.191996 -0.90271,-0.384651 z m 0.54993,-0.541225 c -0.7598,-0.621481 -0.77473,-0.66899 -0.10784,-0.343037 0.42576,0.208093 0.87169,0.53625 0.99096,0.729234 0.31841,0.515196 0.10456,0.421678 -0.88312,-0.386197 z m 0.79375,-0.361844 c -1.24836,-0.799468 -1.4852,-1.125562 -0.55949,-0.770336 0.41595,0.159618 0.50636,0.09473 0.31021,-0.222656 -0.21849,-0.353518 -0.11916,-0.363537 0.47129,-0.04754 0.90578,0.484751 0.9821,0.781293 0.13077,0.508038 -0.40427,-0.129758 -0.31294,0.05401 0.26458,0.532395 1.13238,0.937994 0.84722,0.938039 -0.61736,9.5e-5 z m 1.94028,-0.513969 c -1.31884,-0.715483 -1.23856,-1.013481 0.0882,-0.327388 0.58208,0.301007 1.05833,0.622582 1.05833,0.714615 0,0.227012 -0.0379,0.21421 -1.14653,-0.387227 z m 2.29305,-1.24992 c -1.24836,-0.799468 -1.48519,-1.125562 -0.55949,-0.770336 0.43726,0.167792 0.51284,0.09746 0.29622,-0.275653 -0.17245,-0.297043 -0.16011,-0.381272 0.0303,-0.206943 0.17663,0.161692 0.32115,0.432671 0.32115,0.602177 0,0.169507 0.3175,0.548104 0.70555,0.841326 1.03196,0.779766 0.53518,0.660495 -0.79375,-0.190571 z m -3.49838,-0.848656 c 0,-0.35978 0.16576,-0.395051 0.64676,-0.137622 0.35572,0.190373 0.64676,0.38614 0.64676,0.435038 0,0.0489 -0.29104,0.110829 -0.64676,0.137623 -0.35572,0.02681 -0.64676,-0.16897 -0.64676,-0.435039 z m 3.41019,17.428159 c 0,-0.194027 -0.15875,-0.254666 -0.35278,-0.13475 -0.19403,0.119916 -0.35278,0.376777 -0.35278,0.570805 0,0.194028 0.15875,0.254667 0.35278,0.13475 0.19403,-0.119916 0.35278,-0.376777 0.35278,-0.570805 z m 6.87917,-5.602805 c -0.11992,-0.194028 -0.37678,-0.352778 -0.57081,-0.352778 -0.19403,0 -0.25467,0.15875 -0.13475,0.352778 0.11992,0.194028 0.37678,0.352777 0.57081,0.352777 0.19402,0 0.25466,-0.158749 0.13475,-0.352777 z m 2.64583,-3.015534 c 0,-0.416768 -0.66701,-0.415974 -0.82701,0.0011 -0.13034,0.339644 -0.0252,0.443858 0.31581,0.313006 0.28116,-0.107964 0.5112,-0.249259 0.5112,-0.314064 z m 0.17639,-2.62891 c -0.11992,-0.194028 -0.37678,-0.352778 -0.57081,-0.352778 -0.19402,0 -0.25466,0.15875 -0.13475,0.352778 0.11992,0.194027 0.37678,0.352777 0.57081,0.352777 0.19403,0 0.25466,-0.15875 0.13475,-0.352777 z m -18.38854,-3.599127 c -0.0957,-0.154785 -0.33268,-0.281429 -0.52671,-0.281429 -0.19403,0 -0.25467,0.15875 -0.13475,0.352778 0.11992,0.194028 0.0102,0.355209 -0.24376,0.358179 -0.34024,0.004 -0.32495,0.09194 0.0581,0.334158 0.5448,0.344533 1.17883,-0.227023 0.84715,-0.763686 z m 14.12433,-0.847559 c 0.30906,-0.118604 0.44379,-0.392779 0.30335,-0.617361 -0.13895,-0.222204 -0.28404,-0.611304 -0.32243,-0.864669 -0.0559,-0.369217 0.035,-0.373719 0.45795,-0.02268 0.42151,0.349825 0.58444,0.346206 0.80952,-0.01799 0.19845,-0.321099 0.35316,-0.340473 0.5231,-0.06551 0.13272,0.214743 0.43037,0.385614 0.66146,0.379712 0.23108,-0.0059 0.14893,-0.168846 -0.18256,-0.362109 -0.33149,-0.193258 -0.51762,-0.573129 -0.41361,-0.844158 0.104,-0.271032 -0.11541,-0.655747 -0.48758,-0.854929 -0.73637,-0.394095 -2.24397,-0.400854 -2.00178,-0.009 0.0823,0.133145 -0.20652,0.256504 -0.6418,0.274133 -1.77857,0.07203 -2.36922,0.214341 -2.51996,0.607155 -0.19033,0.495991 1.55482,2.106281 2.14292,1.977319 0.2279,-0.04997 0.51508,0.07209 0.63818,0.271269 0.26182,0.423636 0.30192,0.429411 1.03324,0.14878 z m -1.02038,-0.619792 c -0.83664,-0.611769 -1.04281,-1.673168 -0.26719,-1.375533 0.40382,0.154957 0.47408,0.07728 0.26142,-0.28901 -0.16028,-0.276087 -0.15529,-0.377585 0.0112,-0.22613 0.56741,0.516367 0.47257,1.271929 -0.13544,1.079051 -0.33581,-0.106528 -0.20901,0.124626 0.29938,0.545751 0.98334,0.814536 0.85552,1.015245 -0.16931,0.265871 z m 1.0321,-1.783069 c -0.89402,-0.653729 -7e-4,-1.089113 0.91638,-0.44668 0.57498,0.402738 0.61803,0.545687 0.2113,0.701763 -0.28093,0.107802 -0.78838,-0.007 -1.12768,-0.255083 z m 0.72471,-0.206008 c -0.11992,-0.194028 -0.4071,-0.350347 -0.63818,-0.347377 -0.25245,0.0032 -0.20894,0.141898 0.10901,0.347377 0.67773,0.437984 0.79986,0.437984 0.52917,0 z m 2.11667,2.116666 c -0.11992,-0.194028 -0.37678,-0.352778 -0.57081,-0.352778 -0.19403,0 -0.25466,0.15875 -0.13475,0.352778 0.11992,0.194028 0.37678,0.352778 0.57081,0.352778 0.19402,0 0.25466,-0.15875 0.13475,-0.352778 z m -16.21845,-2.401312 c -0.10861,-0.108617 -0.39327,-2.26e-4 -0.63257,0.240869 -0.34582,0.348411 -0.3053,0.388931 0.19748,0.197485 0.34792,-0.132478 0.54371,-0.329737 0.43509,-0.438354 z m 5.10304,-31.3660743 c -0.38211,-0.595658 -0.39255,-0.594731 -0.20012,0.01777 0.11167,0.3554178 0.22144,0.9110427 0.24395,1.234722 0.0369,0.5301819 0.0567,0.5284208 0.20012,-0.017769 0.0876,-0.3334522 -0.0222,-0.8890771 -0.24395,-1.234723 z m -38.127211,0.8113416 c -0.08124,-0.081243 -0.623639,-0.2604886 -1.205325,-0.3983245 -0.72401,-0.1715611 -0.946334,-0.1357691 -0.704832,0.1134717 0.194028,0.2002451 0.670278,0.4296452 1.058333,0.5097776 0.717849,0.1482344 1.119046,0.042298 0.851824,-0.2249248 z m 37.071781,-0.9314396 c 0,-0.182577 -0.15875,-0.331958 -0.35277,-0.331958 -0.19403,0 -0.35278,0.247494 -0.35278,0.549987 0,0.3024923 0.15875,0.4518735 0.35278,0.3319577 0.19402,-0.1199157 0.35277,-0.3674097 0.35277,-0.5499867 z m 6.11896,-2.2874497 c -0.11489,-0.29941 -0.28456,-0.468722 -0.37703,-0.376248 -0.0925,0.09247 -0.0635,0.337444 0.0644,0.544381 0.34786,0.562843 0.55117,0.453499 0.31263,-0.168133 z m -5.6386,-2.807007 c 0.15644,-0.407693 -0.0778,-0.529167 -1.02059,-0.529167 -1.27671,0 -1.67523,0.535812 -0.60629,0.815154 1.13603,0.296876 1.42254,0.246511 1.62688,-0.285987 z m 12.21964,106.605224 c 0,-0.06053 0.51594,-0.48254 1.14653,-0.93781 l 1.14653,-0.827765 -0.85524,0.93781 c -0.73054,0.801056 -1.43782,1.208246 -1.43782,0.827765 z m 4.67508,-4.652454 c 0.004,-0.776111 0.0762,-1.052072 0.16054,-0.613248 0.0844,0.438824 0.0812,1.073824 -0.007,1.411111 -0.0883,0.337287 -0.15734,-0.02177 -0.15342,-0.797863 z m -2.46233,-0.881945 c 0,-0.873124 0.0688,-1.230312 0.15289,-0.793749 0.0841,0.436562 0.0841,1.150937 0,1.587499 -0.0841,0.436563 -0.15289,0.07937 -0.15289,-0.79375 z m 3.418507,-3.348453 c -0.188677,-1.628006 -1.032297,-2.03067 -2.144907,-1.023775 -0.64984,0.588101 -0.67931,0.588952 -0.45837,0.01319 0.12986,-0.33842 0.69232,-0.706551 1.2499,-0.818067 1.09884,-0.21977 1.330627,-0.720683 0.48383,-1.045626 -1.02423,-0.393037 -2.19995,0.227696 -3.14975,1.662937 -1.17683,1.778311 -1.49962,1.65281 -0.54829,-0.213173 0.38512,-0.755392 0.70022,-1.23016 0.70022,-1.055034 0,0.175122 0.19844,0.05208 0.44097,-0.273435 0.24254,-0.325511 0.94392,-0.690598 1.55863,-0.811304 0.99453,-0.195287 1.18125,-0.09647 1.695007,0.897026 0.35067,0.67812 0.52997,1.697372 0.45666,2.595961 l -0.12069,1.479472 z m -3.867367,-4.0807 c 0,-0.205479 0.15875,-0.275484 0.35278,-0.155568 0.19403,0.119916 0.35278,0.288036 0.35278,0.373598 0,0.08556 -0.15875,0.155568 -0.35278,0.155568 -0.19403,0 -0.35278,-0.168119 -0.35278,-0.373598 z m 0.17639,-1.39029 c 0.11992,-0.194028 0.28804,-0.352778 0.3736,-0.352778 0.0856,0 0.15557,0.15875 0.15557,0.352778 0,0.194027 -0.16812,0.352777 -0.3736,0.352777 -0.20548,0 -0.27549,-0.15875 -0.15557,-0.352777 z m -8.06664,-62.248545 c 0.085,-1.154966 0.22816,-2.173612 0.3182,-2.263658 0.28462,-0.284621 0.12755,2.920202 -0.17928,3.658041 -0.18258,0.439046 -0.23506,-0.08766 -0.13892,-1.394383 z m -5.01344,-1.007614 c 0.37304,-0.231122 1.15214,-0.858213 1.73133,-1.393528 0.57919,-0.535317 1.14656,-0.879813 1.26083,-0.765547 0.32977,0.329777 -2.35845,2.623023 -3.04787,2.600047 -0.56627,-0.01887 -0.56123,-0.05873 0.0557,-0.440972 z m -7.20464,-0.09265 c 0,-0.610136 0.9722,-1.080572 1.6868,-0.816222 0.95618,0.353713 1.0514,0.797878 0.10678,0.498066 -0.37173,-0.117983 -0.77797,-0.0493 -0.90277,0.152615 -0.23948,0.387484 -0.89081,0.508522 -0.89081,0.165541 z m 12.40834,-4.11921 c -0.0634,-1.4045515 -0.0454,-2.4753985 0.04,-2.3796585 0.29633,0.332293 0.62262,4.9365625 0.34972,4.9349795 -0.15093,-8.82e-4 -0.32628,-1.15077 -0.38968,-2.555321 z m 2.56963,1.32219 c 0.14583,-0.388055 0.39896,-1.499305 0.56252,-2.4694445 l 0.29738,-1.763889 -0.0997,2.0408875 c -0.0548,1.122488 -0.30796,2.233737 -0.56252,2.469444 -0.37445,0.346714 -0.41221,0.293814 -0.1977,-0.276998 z m -9.46941,-1.488194 c -0.12575,-0.125756 0.25025,-0.430007 0.83557,-0.676113 0.58531,-0.246106 1.0642,-0.6114945 1.0642,-0.8119745 0,-0.200479 0.49581,-1.170298 1.1018,-2.155152 1.11167,-1.806694 1.24504,-3.2600525 0.50031,-5.4518991 -0.16149,-0.4752915 -0.0632,-0.4177252 0.3013,0.1763889 0.80269,1.3084661 0.7128,4.1608782 -0.17788,5.6444442 -1.31237,2.185981 -3.09951,3.8000925 -3.6253,3.2743055 z m 6.02936,-1.3992745 c -0.14427,-0.229913 -0.11126,-1.103038 0.0733,-1.940277 0.32437,-1.471134 0.29764,-2.4612835 -0.12683,-4.6972538 -0.18861,-0.9935319 -0.16998,-0.9827316 0.30411,0.1763889 0.27775,0.6790971 0.50794,1.869722 0.51151,2.6458329 0.009,2.024216 -0.44834,4.3153915 -0.76213,3.815309 z M 71.929483,4.6020139 c -0.26629,-0.3217908 -1.11917,-0.8739292 -1.89528,-1.2269744 -0.77611,-0.3530452 -1.20479,-0.6453868 -0.95262,-0.649648 0.69546,-0.011751 2.28332,0.8876619 3.0366,1.720024 0.36916,0.4079198 0.58666,0.7416726 0.48333,0.7416726 -0.10332,0 -0.40574,-0.2632834 -0.67203,-0.5850742 z m -4.62931,-2.127549 c -0.33955,-0.088733 -0.61736,-0.3140283 -0.61736,-0.5006558 0,-0.195422 0.33661,-0.1641874 0.79375,0.073653 1.32302,0.6883435 1.27436,0.8061243 -0.17639,0.4270028 z M 80.487103,1.811514 c -0.45406,-0.4717672 -0.67476,-0.857759 -0.49044,-0.857759 0.40757,0 1.67651,1.3550106 1.46604,1.5654774 -0.0825,0.082522 -0.52154,-0.2359508 -0.9756,-0.7077184 z m 6.42756,-1.727451 c 0.38353,-0.2905584 0.54263,-0.6725535 0.38581,-0.9262956 -0.19445,-0.3146248 -0.0365,-0.3701743 0.58204,-0.2046778 0.4669,0.1249285 1.05672,0.2293101 1.3107,0.2319595 0.25399,0.00265 0.37289,0.1486637 0.26423,0.3244762 -0.10865,0.1758124 -0.4863,0.2441507 -0.83921,0.1518627 -0.35291,-0.092288 -0.84844,0.081366 -1.10118,0.3858965 -0.25273,0.3045312 -0.63852,0.5486438 -0.8573,0.5424734 -0.21877,-0.00617 -0.10407,-0.2337336 0.25491,-0.5056949 z m -5.06713,-1.9360422 c 0.18465,-0.6438536 0.44234,-1.2681457 0.57263,-1.3873154 0.35714,-0.3266405 -0.21566,1.8494765 -0.58671,2.2289768 -0.1856,0.1898219 -0.17964,-0.1662021 0.0141,-0.8416614 z m 3.06213,0.8066602 c -0.12935,-0.1293516 -0.22154,-0.6452891 -0.20486,-1.1465277 0.0298,-0.8948571 0.0359,-0.8925192 0.34111,0.1292578 0.32067,1.0736868 0.27337,1.4268858 -0.13625,1.0172699 z M 58.568925,-2.9268002 c -0.726563,-0.2326866 -0.757639,-0.2876917 -0.176388,-0.3122108 0.388056,-0.016369 0.943676,0.1241252 1.234726,0.3122108 0.61811,0.399458 0.18897,0.399458 -1.058338,0 z m 11.745248,-2.6560281 c -1.2042,-0.6471736 -2.95045,-1.2713048 -3.88055,-1.3869581 -3.41724,-0.4249169 -8.731462,-2.0256589 -10.271855,-3.0940716 -1.368055,-0.948877 -1.739886,-1.042355 -3.608549,-0.907189 -2.020576,0.146155 -2.785999,0.418468 -2.363581,0.840885 0.112734,0.112734 0.520403,0.03616 0.905931,-0.170172 0.952584,-0.509807 3.014543,0.182961 2.732466,0.9180417 -0.108899,0.283787 -0.197998,0.661742 -0.197998,0.839901 0,0.178158 -0.141111,0.323925 -0.313581,0.323925 -0.172469,0 -0.291531,-0.277813 -0.264583,-0.617361 0.04207,-0.530069 -0.240962,-0.607388 -2.001697,-0.546828 -1.917637,0.06596 -2.043529,0.02112 -1.940278,-0.6910927 0.132862,-0.916452 1.114426,-1.236454 3.940206,-1.284553 1.764647,-0.03004 2.253352,0.111346 3.35139,0.969559 1.259491,0.9844057 5.092039,2.2004437 8.517429,2.702518 2.29972,0.3370788 4.92162,1.1391232 5.96921,1.8259889 0.50047,0.3281475 1.30683,0.8039347 1.7919,1.0573046 0.48507,0.2533699 0.64382,0.446297 0.35278,0.4287273 -0.29104,-0.017568 -1.51443,-0.5614511 -2.71864,-1.2086251 z m 10.83253,0.8921393 c 0,-0.1940277 0.15875,-0.3527777 0.35278,-0.3527777 0.19402,0 0.35277,0.15875 0.35277,0.3527777 0,0.1940278 -0.15875,0.3527778 -0.35277,0.3527778 -0.19403,0 -0.35278,-0.15875 -0.35278,-0.3527778 z m 1.05833,0.2195848 c 0,-0.073256 0.27781,-0.3510689 0.61736,-0.6173611 0.55953,-0.43881 0.57201,-0.4263323 0.1332,0.133193 -0.46086,0.5876388 -0.75056,0.7745162 -0.75056,0.4841681 z m -5.29447,-3.047041 c -0.2973,-0.5555237 -0.26518,-0.7550051 0.14709,-0.9132051 0.72687,-0.278927 1.26683,0.12141 1.26683,0.9392592 0,0.897474 -0.92882,0.880359 -1.41392,-0.026053 z m -24.9811,-0.178394 c -1.254417,-0.5448441 -1.227107,-1.2539481 0.0457,-1.1865601 0.70154,0.03714 0.708977,0.05716 0.08051,0.216711 -0.591371,0.150134 -0.514148,0.27071 0.529166,0.8262343 1.449857,0.7719934 1.01218,0.8679024 -0.655378,0.1436148 z m 28.67014,-2.8453058 c 0.1531,-0.371378 0.28591,-0.878079 0.29514,-1.126004 0.021,-0.563826 0.68289,-0.373086 0.89304,0.257342 0.093,0.278998 -0.005,0.368546 -0.24254,0.221715 -0.22854,-0.141251 -0.39854,-0.0206 -0.39854,0.282853 0,0.291042 -0.18573,0.643953 -0.41273,0.784247 -0.29113,0.1799287 -0.33072,0.05614 -0.13437,-0.420153 z m -57.500878,-2.070308 c -1.25124,-1.251239 -1.182423,-3.105183 0.165288,-4.452894 0.672408,-0.672409 1.392314,-1.031196 2.069091,-1.031196 1.137193,0 2.896934,1.180456 2.896934,1.9433 0,0.378382 0.658444,0.456042 3.086805,0.364073 1.697743,-0.0643 3.801181,-0.220705 4.674306,-0.34757 l 1.5875,-0.230662 1.144454,2.105333 c 0.726161,1.335842 0.997014,2.15448 0.741056,2.2398 -0.22187,0.07396 -1.530625,-0.151763 -2.908344,-0.501598 -1.377719,-0.349836 -3.774451,-0.862297 -5.326071,-1.138804 l -2.821128,-0.502739 -0.996917,1.209433 c -1.262437,1.531555 -2.98754,1.668958 -4.312974,0.343524 z m 15.151902,-1.603535 c -0.832529,-1.592181 -1.532403,-2.428599 -1.106952,-1.322917 0.121224,0.315041 -0.296164,0.436045 -1.461562,0.423719 -0.897183,-0.0095 -2.345617,0.07231 -3.218742,0.181789 l -1.5875,0.199044 2.600912,0.61196 c 3.410246,0.802386 4.315607,0.801182 4.061995,-0.0054 -0.165746,-0.527131 -0.112568,-0.517276 0.363849,0.06743 0.306881,0.376633 0.557966,0.89257 0.557966,1.146528 0,0.253957 0.160278,0.46174 0.356173,0.46174 0.195895,0 -0.05887,-0.79375 -0.566139,-1.763889 z m -11.530301,-0.01383 c 0.148842,-0.569171 0.268855,-0.637208 0.49492,-0.280576 0.200671,0.316569 0.300202,0.117296 0.303834,-0.608307 0.0076,-1.522451 -0.738905,-2.38988 -2.056777,-2.38988 -1.144281,0 -2.523931,0.949384 -2.523931,1.736803 0,1.442922 0.647437,2.119974 2.109755,2.206257 1.247386,0.0736 1.506113,-0.02918 1.672199,-0.664297 z m 3.273601,-0.338949 c 0,-0.194027 -0.247494,-0.352777 -0.549987,-0.352777 -0.302492,0 -0.451873,0.15875 -0.331958,0.352777 0.119916,0.194028 0.36741,0.352778 0.549987,0.352778 0.182577,0 0.331958,-0.15875 0.331958,-0.352778 z m 55.121526,2.391659 c -1.00499,-0.484687 -1.0213,-0.896194 -0.0334,-0.844186 0.43474,0.02289 0.79902,0.304379 0.85073,0.657388 0.0497,0.339549 0.0648,0.606617 0.0334,0.593485 -0.0313,-0.01313 -0.41417,-0.196141 -0.85073,-0.406687 z"
       style="fill:#000000;stroke-width:0.35277775" />
  </g>
</svg>
